GENE (geneMimNumber)	GENE	geneMimNumber	phenotype (phenotypeMimNumber)	phenotypeInheritance	Citation	CGD
ABCA12 (607800)	ABCA12	607800	Ittiosi arlecchino 4B (245000)	Autosomal recessive	Unknown	AR 
ABCA12 (607800)	ABCA12	607800	Ittiosi congenita 4A (601277)	Autosomal recessive	Unknown	AR 
ABCC2 (601107)	ABCC2	601107	Sindrome di Dubin-Johnson (237500)	Autosomal recessive	Unknown	AD/AR
ABCC8 (600509)	ABCC8	600509	Diabete mellito non insulino-dipendente (125853)	Autosomal dominant	Unknown	AD/AR
ABCC8 (600509)	ABCC8	600509	Diabete mellito neonatale permanente 3, con o senza coinvolgimento neurologico (618857)	Autosomal dominant; Autosomal recessive	Unknown	AD/AR
ABCC8 (600509)	ABCC8	600509	Diabete mellito transiente neonatale 2 (610374)	Autosomal dominant	Unknown	AD/AR
ABCC8 (600509)	ABCC8	600509	Ipoglicemia iperinsulinemica familiare 1 (256450)	Autosomal dominant; Autosomal recessive	Unknown	AD/AR
ABCC8 (600509)	ABCC8	600509	Ipoglicemia infantile, sensibile alla leucina (240800)	Autosomal dominant	Unknown	AD/AR
ABCC9 (601439)	ABCC9	601439	Fibrillazione atriale familiare 12 (614050)	Autosomal dominant	Unknown	AD
ABCC9 (601439)	ABCC9	601439	Cardiomiopatia dilatativa 1O (608569)	Autosomal dominant	Unknown	AD
ABCC9 (601439)	ABCC9	601439	Osteocondrodisplasia ipertricotica, tipo Cantu (239850)	Autosomal dominant	Unknown	AD
ABHD5 (604780)	ABHD5	604780	Sindrome di Chanarin-Dorfman (275630)	Autosomal recessive	Unknown	AR
ACP4 (606362)	ACP4	606362	Amelogenesi imperfetta di tipo IJ (617297)	Autosomal recessive	Unknown	AR
ACTC1 (102540)	ACTC1	102540	Difetto del setto atriale 5 (612794)	Autosomal dominant	Unknown	AD
ACTC1 (102540)	ACTC1	102540	Cardiomiopatia dilatativa 1R (613424)	Autosomal dominant	Unknown	AD
ACTC1 (102540)	ACTC1	102540	Cardiomiopatia ipertrofica 11 (612098)	Autosomal dominant	Unknown	AD
ACTC1 (102540)	ACTC1	102540	Non compattazione del ventricolo sinistro 4 (613424)	Autosomal dominant	Unknown	AD
ACTN2 (102573)	ACTN2	102573	Cardiomiopatia ipertrofica 23 con o senza LVNC (612158)	Autosomal dominant	Unknown	AD
ACTN2 (102573)	ACTN2	102573	Cardiomiopatia dilatativa 1AA con o senza LVNC (612158)	Autosomal dominant	Unknown	AD
ACTN2 (102573)	ACTN2	102573	Miopatia congenita con structured cores e anomalie della linea Z (618654)	Autosomal dominant	Unknown	AD
ACTN2 (102573)	ACTN2	102573	Miopatia distale 6 con esordio in età adulta (616855)	Autosomal dominant	Unknown	AD
ADAM10 (602192)	ADAM10	602192	Acropigmentazione reticolata di Kitamura (615537)	Autosomal dominant	Unknown	AD
ADAM17 (603639)	ADAM17	603639	Malattia infiammatoria neonatale intestinale e cutanea 1 (614328)	Autosomal recessive	Unknown	AR
ADAMTS2 (604539)	ADAMTS2	604539	Sindrome di Ehlers-Danlos, tipo dermatosparassia (225410)	Autosomal recessive	Unknown	AR
ADAR (146920)	ADAR	146920	Discromatosi simmetrica ereditaria (127400)	Autosomal dominant	Unknown	AD/AR
AIRE (607358)	AIRE	607358	Poliendocrinopatia autoimmune di tipo 1 con o senza displasia metafisaria reversibile (240300)	Autosomal dominant; Autosomal recessive	Unknown	AD/AR
AKAP9 (604001)	AKAP9	604001	Sindrome del QT lungo 11 (611820)	Autosomal dominant	Unknown	AD
ALDH3A2 (609523)	ALDH3A2	609523	Sindrome di Sjogren-Larsson (270200)	Autosomal recessive	Unknown	AR
ALOX12B (603741)	ALOX12B	603741	Ittiosi congenita 2 (242100)	Autosomal recessive	Unknown	AR
ALOXE3 (607206)	ALOXE3	607206	Ittiosi congenita 3 (606545)	Autosomal recessive	Unknown	AR
ALPI (171740)	ALPI	171740	Malattia infiammatoria intestinale (Parlato et al. EMBO Mol Med. 2018)	Autosomal recessive	Parlato M et al. Human  ALPI  deficiency  causes  inflammatory  boweldisease  and  highlights  a  key  mechanism  of  gut homeostasis. EMBO Mol Med. 2018. [PMID: 29567797]	-999
AMBN (601259)	AMBN	601259	Amelogenesi imperfetta di tipo IF (616270)	Autosomal recessive	Unknown	AR
AMELX (300391)	AMELX	300391	Amelogenesi imperfetta di tipo IE (301200)	X-linked dominant	Unknown	XL
AMTN (610912)	AMTN	610912	Amelogenesi imperfetta di tipo IIIB (617607)	Autosomal dominant	Unknown	AD
ANK2 (106410)	ANK2	106410	Sindrome del QT lungo 4 (600919)	Autosomal dominant	Unknown	AD
ANKRD1 (609599)	ANKRD1	609599	Cardiomiopatia dilatativa (Cirino e Ho, GeneReviews)	Autosomal dominant	Cirino AL, Ho C. Hypertrophic Cardiomyopathy Overview. 2008 Aug 5 [updated 2019 Jun 6]. In: Adam MP, Ardinger HH, Pagon RA, Wallace SE, Bean LJH, Stephens K, Amemiya A, editors. GeneReviewsÂ®)	-999
ANTXR2 (608041)	ANTXR2	608041	Fibromatosi ialina infantile o giovanile (228600)	Autosomal recessive	Unknown	AR
AP1S1 (603531)	AP1S1	603531	Sindrome MEDNIK (609313)	Autosomal recessive	Unknown	AR
AP3B1 (603401)	AP3B1	603401	Sindrome di Hermansky-Pudlak 2 (608233)	Autosomal recessive	Unknown	AR
APC (611731)	APC	611731	Sindrome di Gardner (175100)	Autosomal dominant	Unknown	AD
APPL1 (604299)	APPL1	604299	Diabete mellito non insulino-dipendente (125853)	Autosomal dominant	Unknown	AD
AQP5 (600442)	AQP5	600442	Cheratoderma palmoplantare tipo Bothnia (600231)	Autosomal dominant	Unknown	-999
ATP2A2 (108740)	ATP2A2	108740	Acrocheratosi verruciforme (101900)	Autosomal dominant	Unknown	AD
ATP2A2 (108740)	ATP2A2	108740	Malattia di Darier (124200)	Autosomal dominant	Unknown	AD
ATP2C1 (604384)	ATP2C1	604384	Malattia di Hailey-Hailey (169600)	Autosomal dominant	Unknown	AD
ATP6V1B2 (606939)	ATP6V1B2	606939	Ipoacusia congenita con onicodistrofia (124480)	Autosomal dominant	Unknown	AD
ATP6V1B2 (606939)	ATP6V1B2	606939	Sindrome di Zimmermann-Laband 2 (616455)	Autosomal dominant	Unknown	AD
ATP7B (606882)	ATP7B	606882	Malattia di Wilson (277900)	Autosomal recessive	Unknown	AR
AXIN2 (604025)	AXIN2	604025	Sindrome oligodontia  predisposizione al cancro (608615)	Autosomal dominant	Unknown	AD
BAG3 (603883)	BAG3	603883	Cardiomiopatia dilatativa 1HH (613881)	Autosomal dominant	Unknown	AD
BAG3 (603883)	BAG3	603883	Miopatia miofibrillare 6 (612954)	Autosomal dominant	Unknown	AD
BCOR (300485)	BCOR	300485	Sindrome oculo-facio-cardio-dentale (300166)	X-linked dominant	Unknown	XL
BLK (191305)	BLK	191305	Diabete MODY di tipo 11 (613375)	Autosomal dominant	Unknown	AD
BLM (604610)	BLM	604610	Sindrome di Bloom (210900)	Autosomal recessive	Unknown	AR
BLOC1S3 (609762)	BLOC1S3	609762	Sindrome di Hermansky-Pudlak 8 (614077)	Autosomal recessive	Unknown	AR
BLOC1S6 (604310)	BLOC1S6	604310	Sindrome di Hermansky-Pudlak 6 (614171)	Autosomal recessive	Unknown	AR
C1R (613785)	C1R	613785	Sindrome di Ehlers-Danlos periodontica 1 (130080)	Autosomal dominant	Unknown	AD
C1S (120580)	C1S	120580	Sindrome di Ehlers-Danlos periodontica 2 (617174)	Autosomal dominant	Unknown	AD/AR
CACNA1C (114205)	CACNA1C	114205	Sindrome di Timothy (601005)	Autosomal dominant	Unknown	AD
CACNA1C (114205)	CACNA1C	114205	Sindrome del QT lungo 8 (618447)	Autosomal dominant	Unknown	AD
CACNA1C (114205)	CACNA1C	114205	Sindrome di Brugada 3 (611875)	Autosomal dominant	Unknown	AD
CACNA2D1 (154276)	CACNA2D1	154276	Sindrome di Brugada (Brugada et al. GeneReviews)	Autosomal dominant	Brugada R, Campuzano O, Sarquella-Brugada G, et al. Brugada Syndrome. 2005 Mar 31 [Updated 2016 Nov 17]. In: Adam MP, Ardinger HH, Pagon RA, et al., editors. GeneReviews® [Internet]. Seattle (WA): University of Washington, Seattle; 1993-2022. Available from: https://www.ncbi.nlm.nih.gov/sites/books/NBK1517/	-999
CACNB2 (600003)	CACNB2	600003	Sindrome di Brugada 4 (611876)	Autosomal dominant	Unknown	AD
CALM1 (114180)	CALM1	114180	Tachicardia ventricolare polimorfa catecolaminergica 4 (614916)	Autosomal dominant	Unknown	AD
CALM1 (114180)	CALM1	114180	Sindrome del QT lungo 14 (616247)	Autosomal dominant	Unknown	AD
CALM2 (114182)	CALM2	114182	Sindrome del QT lungo 15 (616249)	Autosomal dominant	Unknown	AD
CALR3 (611414)	CALR3	611414	Cardiomiopatia ipertrofica 19 (613875)	Autosomal dominant	Unknown	AD
CASQ2 (114251)	CASQ2	114251	Tachicardia ventricolare polimorfa catecolaminergica 2 (611938)	Autosomal recessive	Unknown	AR
CASR (601199)	CASR	601199	Pancreatite cronica tropicale (Murugaian et al. Scand J Gastroenterol. 2008)	Autosomal dominant	Murugaian EE, Ram Kumar RM, Radhakrishnan L, Vallath B. Novel mutations in the calcium sensing receptor gene in tropical chronic pancreatitis in India. Scand J Gastroenterol. 2008 [PMID: 18938753]	AD/AR
CAV3 (601253)	CAV3	601253	Cardiomiopatia ipertrofica familiare (192600)	Autosomal dominant; Digenic dominant	Unknown	AD/DIG
CAV3 (601253)	CAV3	601253	Sindrome del QT lungo 9 (611818)	Autosomal dominant	Unknown	AD/DIG
CAV3 (601253)	CAV3	601253	Miopatia distale, tipo Tateyama (614321)	Autosomal dominant	Unknown	AD/DIG
CAV3 (601253)	CAV3	601253	Malattia da increspatura muscolare (606072)	Autosomal dominant	Unknown	AD/DIG
CDSN (602593)	CDSN	602593	Ipotricosi semplice del cuoio capelluto 1 (146520)	Autosomal dominant	Unknown	AD/AR
CDSN (602593)	CDSN	602593	Sindrome da desquamazione cutanea 1 (270300)	Autosomal recessive	Unknown	AD/AR
CEL (114840)	CEL	114840	Diabete MODY di tipo VIII (609812)	Autosomal dominant	Unknown	AD
CERS3 (615276)	CERS3	615276	Ittiosi congenita 9 (615023)	Autosomal recessive	Unknown	AR
CFTR (602421)	CFTR	602421	Pancreatite ereditaria (167800)	Autosomal dominant	Unknown	AR
CITED2 (602937)	CITED2	602937	Difetto del setto ventricolare 2 (614431)	Autosomal dominant	Unknown	AD
CITED2 (602937)	CITED2	602937	Difetto del setto atriale 8 (614433)	Autosomal dominant	Unknown	AD
CLDN1 (603718)	CLDN1	603718	Ittiosi, ipotricosi, colangite sclerosante (607626)	Autosomal recessive	Unknown	AR
CNNM4 (607805)	CNNM4	607805	Sindrome di Jalili (217080)	Autosomal recessive	Unknown	AR
COL14A1 (120324)	COL14A1	120324	Cheratoderma palmoplantare puntato tipo 1B (614936)	Autosomal dominant	Unknown	-999
COL1A1 (120150)	COL1A1	120150	Osteogenesi imperfetta di tipo I (166200)	Autosomal dominant	Unknown	AD
COL1A1 (120150)	COL1A1	120150	Osteogenesi imperfetta di tipo II (166210)	Autosomal dominant	Unknown	AD
COL1A1 (120150)	COL1A1	120150	Osteogenesi imperfetta di tipo III (259420)	Autosomal dominant	Unknown	AD
COL1A1 (120150)	COL1A1	120150	Osteogenesi imperfetta di tipo IV (166220)	Autosomal dominant	Unknown	AD
COL1A2 (120160)	COL1A2	120160	Osteogenesi imperfetta di tipo II (166210)	Autosomal dominant	Unknown	AD/AR
COL1A2 (120160)	COL1A2	120160	Osteogenesi imperfetta di tipo III (259420)	Autosomal dominant	Unknown	AD/AR
COL1A2 (120160)	COL1A2	120160	Osteogenesi imperfetta di tipo IV (166220)	Autosomal dominant	Unknown	AD/AR
CPA1 (114850)	CPA1	114850	Pancreatite ereditaria (Kujko et al. Gut 2017)	Autosomal dominant	Kujko  AA,  et al.   A   novel   p.Ser282Pro   CPA1   variant   is   associated   with   autosomal   dominant   hereditary   pancreatitis.   Gut.   2017 Sep;66(9):1728-1730. [PMID: 28258133]	-999
CRYAB (123590)	CRYAB	123590	Cardiomiopatia dilatativa 1II (615184)	Autosomal dominant	Unknown	AD
CRYAB (123590)	CRYAB	123590	Miopatia miofibrillare 2 (608810))	Autosomal dominant	Unknown	AD
CRYAB (123590)	CRYAB	123590	Miopatia miofibrillare ipertonica infantile fatale, correlata alla alpha-B cristallina (613869)	Autosomal recessive	Unknown	AD
CSRP3 (600824)	CSRP3	600824	Cardiomiopatia dilatativa 1M (607482)	Autosomal dominant	Unknown	AD
CSRP3 (600824)	CSRP3	600824	Cardiomiopatia ipertrofica 12 (612124)	Autosomal dominant	Unknown	AD
CSTA (184600)	CSTA	184600	Sindrome da desquamazione cutanea 4 (607936)	Autosomal recessive	Unknown	AR
CTNNA3 (607667)	CTNNA3	607667	Displasia ventricolare aritmogena familiare 13 (615616)	Autosomal dominant	Unknown	AD
CTRC (601405)	CTRC	601405	Pancreatite cronica (167800)	Autosomal dominant	Unknown	-999
CTSC (602365)	CTSC	602365	Sindrome di Papillon-Lefevre (245000)	Autosomal recessive	Unknown	AR
CTSC (602365)	CTSC	602365	Sindrome di Haim-Munk (245010)	Autosomal recessive	Unknown	AR
CYP4F22 (611495)	CYP4F22	611495	Ittiosi congenita 5 (604777)	Autosomal recessive	Unknown	AR
DES (125660)	DES	125660	Cardiomiopatia dilatativa 1I (604765)	Autosomal dominant	Unknown	AD/AR
DES (125660)	DES	125660	Miopatia miofibrillare 1 (601419)	Autosomal dominant; Autosomal recessive	Unknown	AD/AR
DGAT1 (604900)	DGAT1	604900	Diarrea 7 (615863)	Autosomal recessive	Unknown	AR
DKC1 (300126)	DKC1	300126	Discheratosi congenita (305000)	X-linked recessive	Unknown	XL
DLX3 (600525)	DLX3	600525	Sindrome trico-dento-ossea (190320)	Autosomal dominant	Unknown	AD
DLX3 (600525)	DLX3	600525	Amelogenesi imperfetta di tipo IV (104510)	Autosomal dominant	Unknown	AD
DMD (300377)	DMD	300377	Cardiomiopatia dilatativa 3B (302045)	X-linked	Unknown	XL
DMXL2 (612186)	DMXL2	612186	Sindrome poliendocrina-polineuropatia (616113)	Autosomal recessive	Unknown	AR
DSC2 (125645)	DSC2	125645	Displasia ventricolare aritmogena destra 11 con lieve cheratoderma palmoplantare e capelli lanosi (610476)	Autosomal dominant; Autosomal recessive	Unknown	AD/AR
DSG1 (125670)	DSG1	125670	Eritrodermia congenita con cheratoderma palmoplantare, ipotricosi e iper IgE (615508)	Autosomal recessive	Unknown	AR
DSG1 (125670)	DSG1	125670	Cheratosi palmoplantare striata I (148700)	Autosomal dominant	Unknown	AR
DSG2 (125671)	DSG2	125671	Displasia aritmogena ventricolare destra 10 (610193)	Autosomal dominant	Unknown	AD
DSG2 (125671)	DSG2	125671	Cardiomiopatia dilatativa 1BB (612877)	Autosomal dominant	Unknown	AD
DSP (125647)	DSP	125647	Displasia aritmogena ventricolare destra 8 (607450)	Autosomal dominant	Unknown	AD/AR
DSP (125647)	DSP	125647	Cardiomiopatia dilatattiva con capelli lanosi e cheratoderma (605676)	Autosomal recessive	Unknown	AD/AR
DSP (125647)	DSP	125647	Cardiomiopatia dilatativa con capelli lanosi, cheratoderma e agenesia dei denti (615821)	Autosomal dominant	Unknown	AD/AR
DSP (125647)	DSP	125647	Epidermolisi bollola acantolitica letale (609638)	Autosomal recessive	Unknown	AD/AR
DSP (125647)	DSP	125647	Cheratosi palmoplantare striata II (612908)	Autosomal dominant	Unknown	AD/AR
DSP (125647)	DSP	125647	Sindrome da fragilità cutanea e capelli lanosi (607655)	Autosomal recessive	Unknown	AD/AR
DSPP (125485)	DSPP	125485	Sindrome ipoacusia 39 con dentinogenesi imperfetta (605594)	Autosomal dominant	Unknown	AD
DSPP (125485)	DSPP	125485	Displasia della dentina, tipo II (125420)	Autosomal dominant	Unknown	AD
DSPP (125485)	DSPP	125485	Dentinogenesi imperfetta, tipo II (125490)	Autosomal dominant	Unknown	AD
DSPP (125485)	DSPP	125485	Dentinogenesi imperfetta, tipo III (125500)	Autosomal dominant	Unknown	AD
DTNA (601239)	DTNA	601239	Non compattazione del ventricolo sinistro 1, con o senza difetti del cuore congeniti (604169)	Autosomal dominant	Unknown	AD
DTNBP1 (607145)	DTNBP1	607145	Sindrome di Hermansky-Pudlak 7 (614076)	Autosomal recessive	Unknown	AR
DUOX2 (606759)	DUOX2	606759	Disormonogenesi tiroidea 6 (607200)	Autosomal recessive	Unknown	AD/AR
DUOXA2 (612772)	DUOXA2	612772	Disormonogenesi tiroidea 5 (274900)	Autosomal recessive	Unknown	AR
EBP (300205)	EBP	300205	Condrodisplasia puntata (302960)	X-linked dominant	Unknown	XL
EBP (300205)	EBP	300205	Sindrome MEND (300960)	X-linked recessive	Unknown	XL
EDA (300451)	EDA	300451	Displasia ectodermica ipoidrotica 1 (305100)	X-linked recessive	Unknown	XL
EDA (300451)	EDA	300451	Agenesia dei denti selettiva 1 (313500)	X-linked dominant	Unknown	XL
EDAR (604095)	EDAR	604095	Displasia ectodermica ipoidrotica/capelli/unghie 10A (129490)	Autosomal dominant	Unknown	AD/AR
EDAR (604095)	EDAR	604095	Displasia ectodermica ipoidrotica/capelli/denti 10B (224900)	Autosomal recessive	Unknown	AD/AR
EDARADD (606603)	EDARADD	606603	Displasia ectodermica ipoidrotica/capelli/denti 11B (614941)	Autosomal recessive	Unknown	AD/AR
EDARADD (606603)	EDARADD	606603	Displasia ectodermica ipoidrotica/capelli/denti 11A (614940)	Autosomal dominant	Unknown	AD/AR
EDN3 (131242)	EDN3	131242	Sindrome congenita da ipoventilazione centrale (209880)	Autosomal dominant	Unknown	AD/AR
EDN3 (131242)	EDN3	131242	Malattia di Hirschsprung 4, suscettibilità (613712)	Autosomal dominant	Unknown	AD/AR
EDN3 (131242)	EDN3	131242	Sindrome di Waardenburg tipo 4B (613265)	Autosomal dominant; Autosomal recessive	Unknown	AD/AR
EDNRB (131244)	EDNRB	131244	Sindrome ABCD (600501)	Autosomal recessive	Unknown	AD/AR
EDNRB (131244)	EDNRB	131244	Malattia di Hirschsprung 2, suscettibilità (600155)	Autosomal dominant	Unknown	AD/AR
EDNRB (131244)	EDNRB	131244	Sindrome di Waardenburg tipo 4A (277580)	Autosomal dominant; Autosomal recessive	Unknown	AD/AR
ELN (130160)	ELN	130160	Cutis laxa (123700)	Autosomal dominant	Unknown	AD
ELN (130160)	ELN	130160	Stenosi sopravalvolare dell'aorta (185500)	Autosomal dominant	Unknown	AD
ELOVL4 (605512)	ELOVL4	605512	Ittiosi con quadriplegia spastica e disabilità intellettiva (614457)	Autosomal recessive	Unknown	AD/AR
ENAM (606585)	ENAM	606585	Amelogenesi imperfetta di tipo IB (104500)	Autosomal dominant	Unknown	AD/AR
ENAM (606585)	ENAM	606585	Amelogenesi imperfetta di tipo IC (204650)	Autosomal recessive	Unknown	AD/AR
ENPP1 (173335)	ENPP1	173335	Calcificazione arteriosa generalizzata dell'infanzia 1 (208000)	Autosomal recessive	Unknown	AR
ENPP1 (173335)	ENPP1	173335	Malattia di Cole (615522)	Autosomal dominant	Unknown	AR
ENPP1 (173335)	ENPP1	173335	Rachitismo ipofosfatemico 2 (613312)	Autosomal recessive	Unknown	AR
EPCAM (185535)	EPCAM	185535	Diarrea 5, con enteropatia congenita a ciuffi (613217)	Autosomal recessive	Unknown	AD/AR
ERCC2 (126340)	ERCC2	126340	Sindrome cerebro-oculo-facio-scheletrica 2 (610756)	Autosomal recessive	Unknown	AR
ERCC2 (126340)	ERCC2	126340	Tricotiodistrofia fotosensibile 1 (601675)	Autosomal recessive	Unknown	AR
ERCC2 (126340)	ERCC2	126340	Xeroderma pigmentoso gruppo D (278730)	Autosomal recessive	Unknown	AR
ERCC3 (133510)	ERCC3	133510	Tricotiodistrofia fotosensibile 2 (616390)	Autosomal recessive	Unknown	AR
ERCC3 (133510)	ERCC3	133510	Xeroderma pigmentoso gruppo B (610651)	Autosomal recessive	Unknown	AR
EYA4 (603550)	EYA4	603550	Cardiomiopatia dilatativa 1J (605362)	Autosomal dominant	Unknown	AD
FAM20A (611062)	FAM20A	611062	Amelogenesi imperfetta di tipo IG (sindrome smalto-renale) (204690)	Autosomal recessive	Unknown	AR
FAM83H (611927)	FAM83H	611927	Amelogenesi imperfetta di tipo III (130900)	Autosomal dominant	Unknown	AD
FGF23 (605380)	FGF23	605380	Rachitismo ipofosfatemico (193100)	Autosomal dominant	Unknown	AD/AR
FGF23 (605380)	FGF23	605380	Sindrome familiare calcinosi tumorale iperfosfatemica-iperostosi iperfosfatemica (211900)	Autosomal recessive	Unknown	AD/AR
FKTN (607440)	FKTN	607440	Cardiomiopatia dilatativa 1X (611615)	Autosomal recessive	Unknown	AR
FLG (135940)	FLG	135940	Ittiosi volgare (146700)	Autosomal dominant;Autosomal recessive	Unknown	AD/AR
FLNC (102565)	FLNC	102565	Miopatia distale 4 (614065)	Autosomal dominant	Unknown	AD
FLNC (102565)	FLNC	102565	Miopatia miofibrillare 5 (609524)	Autosomal dominant	Unknown	AD
FLNC (102565)	FLNC	102565	Cardiomiopatia restrittiva familiare 5 (617047)	Autosomal dominant	Unknown	AD
FLNC (102565)	FLNC	102565	Cardiomiopatia ipertrofica familiare 26 (617047)	Autosomal dominant	Unknown	AD
FOXC1 (601090)	FOXC1	601090	Sindrome di Axenfeld-Rieger (602482)	Autosomal dominant	Unknown	AD
FOXE1 (602617)	FOXE1	602617	Sindrome di Bamforth-Lazarus (241850)	Autosomal recessive	Unknown	AD/AR
FOXI1 (601093)	FOXI1	601093	Acquedotto vestibolare allargato (600791)	Autosomal recessive	Unknown	AR
FOXP3 (300292)	FOXP3	300292	Sindrome immunodisregolazione-poliendocrinopatia-enteropatia (304790)	X-linked recessive	Unknown	XL
GALNT3 (601756)	GALNT3	601756	Sindrome familiare calcinosi tumorale iperfosfatemica-iperostosi iperfosfatemica (211900)	Autosomal recessive	Unknown	AR
GATA4 (600576)	GATA4	600576	Difetto del setto atriale 2 (607941)	Autosomal dominant	Unknown	AD
GATA4 (600576)	GATA4	600576	Anomalie testicolari con o senza difetti congeniti del cuore (615542)	Autosomal dominant	Unknown	AD
GATA4 (600576)	GATA4	600576	Difetto del setto atrioventricolare 4 (614430)	Autosomal dominant	Unknown	AD
GATA4 (600576)	GATA4	600576	Tetralogia di Fallot (187500)	Autosomal dominant	Unknown	AD
GATA4 (600576)	GATA4	600576	Difetto del setto ventricolare 1 (614429)	Autosomal dominant	Unknown	AD
GATA5 (611496)	GATA5	611496	Difetti congenit del cuore, tipi multipli, 5 (617912)	Autosomal dominant/Autosomal recessive	Unknown	AD
GATA6 (601656)	GATA6	601656	Difetto del setto atriale 9 (614475)	Autosomal dominant	Unknown	AD
GATA6 (601656)	GATA6	601656	Difetto del setto atrioventricolare 5 (614474)	Autosomal dominant	Unknown	AD
GATA6 (601656)	GATA6	601656	Agenesia pancreatica e difetti congeniti del cuore (600001)	Autosomal dominant	Unknown	AD
GATA6 (601656)	GATA6	601656	Tronco arterioso comune (217095)	Autosomal dominant	Unknown	AD
GATA6 (601656)	GATA6	601656	Tetralogia di Fallot (187500)	Autosomal dominant	Unknown	AD
GATAD1 (614518)	GATAD1	614518	Cardiomiopatia dilatativa 2B (614672)	Autosomal recessive	Unknown	AR
GCK (138079)	GCK	138079	Diabete MODY di tipo II (125851)	Autosomal dominant	Unknown	AD/AR
GCK (138079)	GCK	138079	Diabete mellito non insulino-dipendente a esordio tardivo (125853)	Autosomal dominant	Unknown	AD/AR
GCK (138079)	GCK	138079	Diabete mellito neonatale permanente 1 (606176)	Autosomal recessive	Unknown	AD/AR
GCK (138079)	GCK	138079	Ipoglicemia iperinsulinemica familiare 3 (602485)	Autosomal dominant	Unknown	AD/AR
GDNF (600837)	GDNF	600837	Malattia di Hirschsprung 3, suscettibilità (613711)	Autosomal dominant	Unknown	AD
GJA5 (121013)	GJA5	121013	Fibrillazione atriale familiare 11 (614049)	Autosomal dominant	Unknown	AD/DIG
GJA5 (121013)	GJA5	121013	Cardiomiopatia atriale con blocco del cuore, digenica (GJA5/SCN5A) (108770)	Autosomal dominant	Unknown	AD/DIG
GJB2 (121011)	GJB2	121011	Sindrome di Bart-Pumphrey (149200)	Autosomal dominant	Unknown	AD/AR/DIG
GJB2 (121011)	GJB2	121011	Ittiosi istrice-simile - sordità  cheratite (602540)	Autosomal dominant	Unknown	AD/AR/DIG
GJB2 (121011)	GJB2	121011	Sindrome da cheratite, ittiosi, ipoacusia (148210)	Autosomal dominant	Unknown	AD/AR/DIG
GJB2 (121011)	GJB2	121011	Cheratoderma palmoplantare con ipoacusia (148350)	Autosomal dominant	Unknown	AD/AR/DIG
GJB2 (121011)	GJB2	121011	Sindrome di Vohwinkel  (124500)	Autosomal dominant	Unknown	AD/AR/DIG
GJB3 (603324)	GJB3	603324	Eritrocheratodermia variabilis et progressiva (133200)	Autosomal dominant; Autosomal recessive	Unknown	AD/DIG
GJB4 (605425)	GJB4	605425	Eritrocheratodermia variabilis et progressiva 2 (617524)	Autosomal dominant	Unknown	AD
GJB6 (604418)	GJB6	604418	Displasia ectodermica 2, tipo Clouston (129500)	Autosomal dominant	Unknown	AR/DIG
GLA (300644)	GLA	300644	Malattia di Fabry (301500)	X-linked	Unknown	XL
GLA (300644)	GLA	300644	Malattia di Fabry, variante cardiaca (301500)	X-linked	Unknown	XL
GNAS (139320)	GNAS	139320	Iperplasia surrenalica macronodulare indipendente dall'ACTH (219080)	Somatic	Unknown	AD
GNAS (139320)	GNAS	139320	Sindrome di McCune-Albright (somatica a mosaico) (174800)	Somatic	Unknown	AD
GNAS (139320)	GNAS	139320	Eteroplasia ossea progressiva (166350)	Autosomal dominant	Unknown	AD
GNAS (139320)	GNAS	139320	Pseudoipoparatiroidismo, tipo 1A (103580)	Autosomal dominant	Unknown	AD
GNAS (139320)	GNAS	139320	Pseudoipoparatiroidismo, tipo 1B (603233)	Autosomal dominant	Unknown	AD
GNAS (139320)	GNAS	139320	Pseudoipoparatiroidismo, tipo 1C (612462)	Autosomal dominant	Unknown	AD
GNAS (139320)	GNAS	139320	Pseudopseudoipoparatiroidismo (612463)	Autosomal dominant	Unknown	AD
GPD1 (138420)	GPD1	138420	Ipertrigliceridemia transitoria infantile (614480)	Autosomal recessive	Unknown	AR
GPD1L (611778)	GPD1L	611778	Sindrome di Brugada 2 (611777)	Autosomal dominant	Unknown	AD
GPIHBP1 (612757)	GPIHBP1	612757	Iperlipoproteinemia, tipo 1D (615947)	Autosomal recessive	Unknown	AR
GPR68 (601404)	GPR68	601404	Amelogenesi imperfetta, tipo immaturo IIA6 (617217)	Autosomal recessive	Unknown	AR
GREM2 (608832)	GREM2	608832	Agenesia dei denti selettiva 9 (617275)	Autosomal dominant	Unknown	AD
GTF2H5 (608780)	GTF2H5	608780	Tricotiodistrofia fotosensibile 3 (616395)	Autosomal recessive	Unknown	AR
GUCY2C (601330)	GUCY2C	601330	Diarrea 6 (614616)	Autosomal dominant	Unknown	AD/AR
GUCY2C (601330)	GUCY2C	601330	Ileo meconiale (614665)	Autosomal recessive	Unknown	AD/AR
HAMP (606464)	HAMP	606464	Emocromatosi tipo 2B (613313)	Autosomal recessive	Unknown	AR
HCN4 (605206)	HCN4	605206	Sindrome di Brugada 8 (613123)	Autosomal dominant	Unknown	AD
HCN4 (605206)	HCN4	605206	Sindrome familiare del seno malato 2 (163800)	Autosomal dominant	Unknown	AD
HESX1 (601802)	HESX1	601802	Displasia setto-ottica (182230)	Autosomal dominant; Autosomal recessive	Unknown	AR/AD
HESX1 (601802)	HESX1	601802	Deficit dell'ormone della crescita con anomalie ipofisarie (182230)	Autosomal dominant; Autosomal recessive	Unknown	AR/AD
HESX1 (601802)	HESX1	601802	Deficit combinato dell'ormone ipofisario 5 (182230)	Autosomal dominant; Autosomal recessive	Unknown	AR/AD
HFE (613609)	HFE	613609	Emocromatosi (235200)	Autosomal recessive	Unknown	AR/DIG
HJV (608374)	HJV	608374	Emocromatosi tipo 2A (602390)	Autosomal recessive	Unknown	AR
HNF1A (142410)	HNF1A	142410	Diabete MODY di tipo III (600496)	Autosomal dominant	Unknown	AD
HNF1A (142410)	HNF1A	142410	Diabete mellito insulino-dipendente 20 (612520)	Autosomal dominant	Unknown	AD
HNF1B (189907)	HNF1B	189907	Diabete mellito non insulino-dipendente (125853)	Autosomal dominant	Unknown	AD
HNF1B (189907)	HNF1B	189907	Sindrome con cisti renali e diabete (137920)	Autosomal dominant	Unknown	AD
HNF4A (600281)	HNF4A	600281	Sindrome renotubulare di Fanconi 4, con diabete MODY (616026)	Autosomal dominant	Unknown	AD
HNF4A (600281)	HNF4A	600281	Diabete MODY di tipo I (125850)	Autosomal dominant	Unknown	AD
HOXC13 (142976)	HOXC13	142976	Displasia ectodermica 9, tipo capelli/unghie (614931)	Autosomal recessive	Unknown	AR
HSPA1L (140559)	HSPA1L	140559	Malattia infiammatoria intestinale (Takahashi S et al. Genome Med. 2017)	Autosomal dominant	Takahashi S, Andreoletti G, Chen R, Munehira Y, Batra A, Afzal NA, Beattie RM, Bernstein JA, Ennis S, Snyder M.De novo and rare mutations in the HSPA1L heat shock gene associated with inflammatory bowel disease. Genome Med. 2017. [PMID: 28126021]	AD 
IGSF1 (300137)	IGSF1	300137	Ipotiroidismo centrale con ingrandimento testicolare (300888)	X-linked recessive	Unknown	XL
IL10 (124092)	IL10	124092	Malattia infiammatoria intestinale ad esordio precoce (Kotlarz et al. Gastroenterology. 2012)	Autosomal recessive	Kotlarz D, Beier R, Murugan D, Diestelhorst J, Jensen O, Boztug K, Pfeifer D, Kreipe H, Pfister ED, Baumann U, Puchalka J, Bohne J, Egritas O, Dalgic B, Kolho KL, Sauerbrey A, Buderus S, Güngör T, Enninger A, Koda YK, Guariso G, Weiss B, Corbacioglu S, Socha P, Uslu N, Metin A, Wahbeh GT, Husain K, Ramadan D, Al-Herz W, Grimbacher B, Sauer M, Sykora KW, Koletzko S, Klein C. Loss of interleukin-10 signaling and infantile inflammatory bowel disease: implications for diagnosis and therapy. Gastroenterology. 2012 [PMID: 22549091]	AD
IL10RA (146933)	IL10RA	146933	Malattia infiammatoria intestinale ad esordio precoce, 28 (613148)	Autosomal recessive	Unknown	AR
IL10RB (123889)	IL10RB	123889	Malattia infiammatoria intestinale ad esordio precoce, 25 (612567)	Autosomal recessive	Unknown	AR
IL21 (605384)	IL21	605384	Malattia infiammatoria intestinale ad esordio precoce (Salzer et al. J Allergy Clin Immunol. 2014)	Autosomal recessive	Salzer E, Kansu A, Sic H, Májek P, Ikincio?ullari A, Dogu FE, Prengemann NK, Santos-Valente E, Pickl WF, Bilic I, Ban SA, Kulo?lu Z, Demir AM, Ensari A, Colinge J, Rizzi M, Eibel H, Boztug K. Early-onset inflammatory bowel disease and common variable immunodeficiency-like disease caused by IL-21 deficiency. J Allergy Clin Immunol. 2014 [PMID: 24746753]	AR
ILK (602366)	ILK	602366	Cardiomiopatia dilatativa (Man et al. BMJ Case Rep. 2013)	Autosomal dominant	Man E, Lafferty KA, Funke BH, Lun KS, Chan SY, Chau AK, Chung BH. NGS identifies TAZ mutation in a family with X-linked dilated cardiomyopathy. BMJ Case Rep. 2013. [PMID: 23345479]	-999
INS (176730)	INS	176730	Diabete mellito insulino-dipendente 2 (125852)	Autosomal dominant	Unknown	AD
INS (176730)	INS	176730	Diabete mellito permanenete neonatale (606176)	Autosomal dominant	Unknown	AD
INS (176730)	INS	176730	Iperproinsulinemia (616214)	Autosomal dominant	Unknown	AD
INS (176730)	INS	176730	Diabete MODY di tipo 10 (613370)	Autosomal dominant	Unknown	AD
IYD (612025)	IYD	612025	Disormonogenesi tiroidea 4 (274800)	Autosomal recessive	Unknown	AR
JPH2 (605267)	JPH2	605267	Cardiomiopatia ipertrofica familiare 17 (613873)	Autosomal dominant	Unknown	AD
JUP (173325)	JUP	173325	Malattia di Naxos (601214)	Autosomal recessive	Unknown	AD/AR
JUP (173325)	JUP	173325	Displasia aritmogena ventricolare destra 12 (611528)	Autosomal dominant	Unknown	AD/AR
KAT6B (605880)	KAT6B	605880	Sindrome genitorotulea (606170)	Autosomal dominant	Unknown	AD
KAT6B (605880)	KAT6B	605880	Sindrome da ipotiroidismo, dismorfismi, polidattilia postassiale, disabilità intellettiva (603736)	Autosomal dominant	Unknown	AD
KCNA5 (176267)	KCNA5	176267	Fibrillazione atriale familiare 7 (612240)	Autosomal dominant	Unknown	AD
KCND3 (605411)	KCND3	605411	Sindrome di Brugada 9 (616399)	Autosomal dominant	Unknown	AD
KCNE1 (176261)	KCNE1	176261	Sindrome di Jervell e Lange-Nielsen 2 (612347)	Autosomal recessive	Unknown	AD/AR/DIG
KCNE1 (176261)	KCNE1	176261	Sindrome del QT lungo 5 (613695)	Autosomal dominant	Unknown	AD/AR/DIG
KCNE2 (603796)	KCNE2	603796	Fibrillazione atriale familiare 4 (611493)	Autosomal dominant	Unknown	AD
KCNE2 (603796)	KCNE2	603796	Sindrome del QT lungo 6 (613693)	Autosomal dominant	Unknown	AD
KCNE3 (604433)	KCNE3	604433	Sindrome di Brugada 6 (613119)	Autosomal dominant	Unknown	AD
KCNH1 (603305)	KCNH1	603305	Sindrome di Temple-Baraitser (611816)	Autosomal dominant	Unknown	AD/AR
KCNH1 (603305)	KCNH1	603305	Sindrome di Zimmermann-Laband 1 (135500)	Autosomal dominant	Unknown	AD/AR
KCNH2 (152427)	KCNH2	152427	Sindrome del QT lungo 2 (613688)	Autosomal dominant	Unknown	AD
KCNH2 (152427)	KCNH2	152427	Sindrome del QT corto 1 (609620)	Autosomal dominant	Unknown	AD
KCNJ10 (602208)	KCNJ10	602208	Acquedotto vestibolare allargato, anche digenico (600791)	Autosomal recessive	Unknown	AR/DIG
KCNJ11 (600937)	KCNJ11	600937	Ipoglicemia iperinsulinemica familiare 2 (601820)	Autosomal recessive	Unknown	AD/AR
KCNJ11 (600937)	KCNJ11	600937	Diabete mellito transiente neonatale 3 (610582)	Autosomal dominant	Unknown	AD/AR
KCNJ11 (600937)	KCNJ11	600937	Diabete permanente neonatale 2, con o senza deficit neurologici (618856)	Autosomal dominant	Unknown	AD/AR
KCNJ11 (600937)	KCNJ11	600937	Diabete MODY di tipo 13 (616329)	Autosomal dominant	Unknown	AD/AR
KCNJ2 (600681)	KCNJ2	600681	Sindrome di Andersen (170390)	Autosomal dominant	Unknown	AD
KCNJ2 (600681)	KCNJ2	600681	Fibrillazione atriale familiare 9 (613980)	Autosomal dominant	Unknown	AD
KCNJ2 (600681)	KCNJ2	600681	Sindrome del QT corto 3 (609622)	Autosomal dominant	Unknown	AD
KCNJ5 (600734)	KCNJ5	600734	Sindrome del QT lungo 13 (613485)	Autosomal dominant	Unknown	AD
KCNJ8 (600935)	KCNJ8	600935	Sindrome di Brugada ()	Autosomal dominant	Unknown	-999
KCNQ1 (607542)	KCNQ1	607542	Fibrillazione atriale familiare 3 (607554)	Autosomal dominant	Unknown	AD/AR/DIG
KCNQ1 (607542)	KCNQ1	607542	Sindrome di Jervell e Lange-Nielsen (220400)	Autosomal recessive	Unknown	AD/AR/DIG
KCNQ1 (607542)	KCNQ1	607542	Sindrome del QT lungo 1 (192500)	Autosomal dominant	Unknown	AD/AR/DIG
KCNQ1 (607542)	KCNQ1	607542	Sindrome del QT corto 2 (609621)	Autosomal dominant	Unknown	AD/AR/DIG
KDF1 (616758)	KDF1	616758	Displasia ectodermica 12, tipo ipoidrotica/capelli/denti/unghie (617337)	Autosomal dominant	Unknown	AD
KL (604824)	KL	604824	Sindrome familiare calcinosi tumorale iperfosfatemica-iperostosi iperfosfatemica (617994)	Autosomal recessive	Unknown	AR
KLF11 (603301)	KLF11	603301	Diabete MODY di tipo VII (610508)	Autosomal dominant	Unknown	AD
KLK4 (603767)	KLK4	603767	Amelogenesi imperfetta di tipo IIA1 (204700)	Autosomal recessive	Unknown	AR
KRT1 (139350)	KRT1	139350	Epidermolytic hyperkeratosis (113800)	Ipercheratosi epidermolitica (113800)	Autosomal dominant/Autosomal recessive	
KRT1 (139350)	KRT1	139350	Ichthyosis histrix, Curth-Macklin type (146590)	Ittiosi a istrice di Curth-Macklin (146590)	Autosomal dominant	
KRT1 (139350)	KRT1	139350	Ichthyosis, cyclic, with epidermolytic hyperkeratosis (607602)	Ittiosi ciclica con ipercheratosi epidermolitica (607602)	Autosomal dominant	
KRT1 (139350)	KRT1	139350	Keratosis palmoplantaris striata III (607654)	Cheratoderma palmoplantare striato III (607654)	Autosomal dominant	
KRT1 (139350)	KRT1	139350	Palmoplantar keratoderma, epidermolytic (144200)	Cheratoderma palmoplantare epidermolitico (144200)	Autosomal dominant	
KRT1 (139350)	KRT1	139350	Palmoplantar keratoderma, nonepidermolytic (600962)	Cheratoderma palmoplantare non epidermolitico (600962)	Autosomal dominant
KRT10 (148080)	KRT10	148080	Ipercheratosi epidermolitica (113800)	Autosomal dominant/Autosomal recessive	Unknown	AD/AR
KRT10 (148080)	KRT10	148080	Ittiosi a confetti (609165)	Autosomal dominant	Unknown	AD/AR
KRT10 (148080)	KRT10	148080	Ittiosi ciclica con ipercheratosi epidermolitica (607602)	Autosomal dominant	Unknown	AD/AR
KRT16 (148067)	KRT16	148067	Pachionichia congenita 1 (167200)	Autosomal dominant	Unknown	AD
KRT16 (148067)	KRT16	148067	Cheratoderma palmoplantare non epidermolitico focale (613000)	Autosomal dominant	Unknown	AD
KRT17 (148069)	KRT17	148069	Pachionichia congenita 2 (167210)	Autosomal dominant	Unknown	AD
KRT17 (148069)	KRT17	148069	Steatocistoma multiplo (184500)	Autosomal dominant	Unknown	AD
KRT2 (600194)	KRT2	600194	Ittiosi bollosa di Siemens (146800)	Autosomal dominant	Unknown	AD
KRT6A (148041)	KRT6A	148041	Pachionichia congenita 3 (167200)	Autosomal dominant	Unknown	AD
KRT6B (148042)	KRT6B	148042	Pachionichia congenita 4 (167210)	Autosomal dominant	Unknown	AD
KRT74 (608248)	KRT74	608248	Displasia ectodermica 7, tipo capelli/unghie (614929)	Autosomal recessive	Unknown	AD
KRT74 (608248)	KRT74	608248	Ipotricosi 3 (613981)	Autosomal dominant	Unknown	AD
KRT74 (608248)	KRT74	608248	Capelli lanosi (194300)	Autosomal dominant	Unknown	AD
KRT85 (602767)	KRT85	602767	Displasia ectodermica 4, tipo capelli/unghie (602032)	Autosomal recessive	Unknown	AR
KRT9 (607606)	KRT9	607606	Cheratoderma palmoplantare epidermolitico (144200)	Autosomal dominant	Unknown	AD
LAMA4 (600133)	LAMA4	600133	Cardiomiopatia dilatativa 1JJ (615235)	Autosomal dominant	Unknown	AD
LAMB3 (150310)	LAMB3	150310	Amelogenesi imperfetta di tipo IA (104530)	Autosomal dominant	Unknown	AR
LAMB3 (150310)	LAMB3	150310	Epidermolisi bollola giunzionale, tipo Herlitz (226700)	Autosomal recessive	Unknown	AR
LAMB3 (150310)	LAMB3	150310	Epidermolisi bollola giunzionale, tipo non-Herlitz (226650)	Autosomal recessive	Unknown	AR
LAMP2 (309060)	LAMP2	309060	Malattia di Danon (300257)	X-linked dominant	Unknown	XL
LCT (603202)	LCT	603202	Deficit congenito di lattasi (223000)	Autosomal recessive	Unknown	AR
LDB3 (605906)	LDB3	605906	Cardiomiopatia ipertrofica 24 (601493)	Autosomal dominant	Unknown	AD
LDB3 (605906)	LDB3	605906	Miopatia miofibrillare 4 (609452)	Autosomal dominant	Unknown	AD
LDB3 (605906)	LDB3	605906	Cardiomiopatia dilatativa 1C, con o senza LVNC (601493)	Autosomal dominant	Unknown	AD
LDB3 (605906)	LDB3	605906	Non compattazione del ventricolo sinistro 3 (601493)	Autosomal dominant	Unknown	AD
LHX3 (600577)	LHX3	600577	Deficit combinato dell'ormone ipofisario 3 (221750)	Autosomal recessive	Unknown	AR
LHX4 (602146)	LHX4	602146	Deficit combinato dell'ormone ipofisario 4 (262700)	Autosomal dominant	Unknown	AD
LIPN (613924)	LIPN	613924	Ittiosi congenita 8 (613943)	Autosomal recessive	Unknown	AR
LMNA (150330)	LMNA	150330	Cardiomiopatia dilatativa 1A (115200)	Autosomal dominant	Unknown	AD/AR 
LMNA (150330)	LMNA	150330	Sindrome cuore-mano, tipo Sloveno (610140)	Autosomal dominant	Unknown	AD/AR 
LMNA (150330)	LMNA	150330	Sindrome di Malouf (212112)	Autosomal dominant	Unknown	AD/AR 
LOX (153455)	LOX	153455	Aneurisma aortico toracico familiare 10 (617168)	Autosomal dominant	Unknown	AD
LRBA (606453)	LRBA	606453	Immunodeficienza comune variabile 8, con autoimmunita' (614700)	Autosomal recessive	Unknown	AR
LRMDA (614537)	LRMDA	614537	Albinismo oculocutaneo tipo VII (615179)	Autosomal recessive	Unknown	AR
LRP6 (603507)	LRP6	603507	Agenesia dei denti selettiva 7 (616724)	Autosomal dominant	Unknown	AD
LTBP3 (602090)	LTBP3	602090	Anomalie dei denti e bassa statura (601216)	Autosomal recessive	Unknown	AD/AR
MBTPS2 (300294)	MBTPS2	300294	Sindrome Olmsted (300918)	X-linked recessive	Unknown	XL
MBTPS2 (300294)	MBTPS2	300294	Ittiosi follicolare - alopecia  fotofobia (IFAP) con o senza sindrome BRESHECK (308205)	X-linked recessive	Unknown	XL
MBTPS2 (300294)	MBTPS2	300294	Cheratosi follicolare spinulosa decalvante (308800)	X-linked recessive	Unknown	XL
MBTPS2 (300294)	MBTPS2	300295	Osteogenesi imperfetta, tipo XIX (301014)	X-linked recessive	Unknown	XL
MIB1 (608677)	MIB1	608677	Non compattazione del ventricolo sinistro 7 (615092)	autosomal dominant	Unknown	AD
MITF (156845)	MITF	156845	Sindrome COMMAD (617306)	Autosomal recessive	Unknown	AD
MITF (156845)	MITF	156845	Sindrome albinismo  ipoacusia di Tietz (103500)	Autosomal dominant	Unknown	AD
MITF (156845)	MITF	156845	Sindrome di Waardenburg tipo 2A (193510)	Autosomal dominant	Unknown	AD
MITF (156845)	MITF	156845	Sindrome di Waardenburg  albinismo oculare, digenico (103470)	Autosomal dominant	Unknown	AD
MMP20 (604629)	MMP20	604629	Amelogenesi imperfetta di tipo IIA2 (612529)	Autosomal recessive	Unknown	AR
MPLKIP (609188)	MPLKIP	609188	Tricotiodistrofia non fotosensibile 4 (234050)	Autosomal recessive	Unknown	AR
MSX1 (142983)	MSX1	142983	Displasia ectodermica 3, tipo Witkop (189500)	Autosomal dominant	Unknown	AD
MSX1 (142983)	MSX1	142983	Labiopalatoschisi 5 (608874)	Autosomal dominant	Unknown	AD
MSX1 (142983)	MSX1	142983	Agenesia dei denti selettiva 1, con o senza labiopalatoschisi (106600)	Autosomal dominant	Unknown	AD
MUTYH (604933)	MUTYH	604933	Adenomi multipli colorettali (608456)	Autosomal recessive	Unknown	AR
MYBPC3 (600958)	MYBPC3	600958	Cardiomiopatia dilatativa 1MM (615396)	Autosomal dominant	Unknown	AD/AR
MYBPC3 (600958)	MYBPC3	600958	Cardiomiopatia ipertrofica 4 (115197)	Autosomal dominant/Autosomal recessive	Unknown	AD/AR
MYBPC3 (600958)	MYBPC3	600958	Non compattazione del ventricolo sinistro 10 (615396)	Autosomal dominant	Unknown	AD/AR
MYH6 (160710)	MYH6	160710	Difetto del setto atriale 3 (614089)	Autosomal dominant	Unknown	AD
MYH6 (160710)	MYH6	160710	Cardiomiopatia dilatativa 1EE (613252)	Autosomal dominant	Unknown	AD
MYH6 (160710)	MYH6	160710	Cardiomiopatia ipertrofica 14 (613251)	Autosomal dominant	Unknown	AD
MYH7 (160760)	MYH7	160760	Cardiomiopatia dilatativa 1S (613426)	Autosomal dominant	Unknown	AD/AR
MYH7 (160760)	MYH7	160760	Cardiomiopatia ipertrofica 1 (192600)	Autosomal dominant	Unknown	AD/AR
MYH7 (160760)	MYH7	160760	Miopatia distale di Liang (160500)	Autosomal dominant	Unknown	AD/AR
MYH7 (160760)	MYH7	160760	Miopatia con corpi ialini (608358)	Autosomal dominant	Unknown	AD/AR
MYH7 (160760)	MYH7	160760	Miopatia con corpi ialini (255160)	Autosomal recessive	Unknown	AD/AR
MYH7 (160760)	MYH7	160760	Non compattazione del ventricolo sinistro 5 (613426)	Autosomal dominant	Unknown	AD/AR
MYH7 (160760)	MYH7	160760	Sindrome scapolo-peroneale di tipo miopatico (181430)	Autosomal dominant	Unknown	AD/AR
MYL2 (160781)	MYL2	160781	Cardiomiopatia ipertrofica 10 (608758)	Autosomal dominant	Unknown	AD
MYL3 (160790)	MYL3	160790	Cardiomiopatia ipertrofica 8 (608751)	Autosomal dominant/Autosomal recessive	Unknown	AD/AR
MYL4 (160770)	MYL4	160770	Fibrillazione atriale familiare 18 (613780)	Autosomal dominant	Unknown	AD
MYLK2 (606566)	MYLK2	606566	Cardiomiopatia ipertrofica 1 (192600)	Autosomal dominant/Digenic	Unknown	AD/DIG
MYO5A (160777)	MYO5A	160777	Sindrome di Griscelli tipo 1 (214450)	Autosomal recessive	Unknown	AR
MYO5B (606540)	MYO5B	606540	Malattia da inclusioni microvillari (251850)	Autosomal recessive	Unknown	AR
MYOZ2 (605602)	MYOZ2	605602	Cardiomiopatia ipertrofica 16 (613838)	Autosomal dominant	Unknown	AD
MYPN (608517)	MYPN	608517	Cardiomiopatia restrittiva familiare 4 (615248)	Autosomal dominant	Unknown	AD
MYPN (608517)	MYPN	608517	Cardiomiopatia dilatativa 1KK (615248)	Autosomal dominant	Unknown	AD
MYPN (608517)	MYPN	608517	Cardiomiopatia ipertrofica 22 (615248)	Autosomal dominant	Unknown	AD
MYPN (608517)	MYPN	608517	Miopatia nemalinica 11 (617336)	Autosomal recessive	Unknown	AD
NEUROD1 (601724)	NEUROD1	601724	Diabete mellito non insulino-dipendente (125853)	Autosomal dominant	Unknown	AD
NEUROD1 (601724)	NEUROD1	601724	Diabete MODY di tipo 6 (606394)	Autosomal dominant	Unknown	AD
NEUROG3 (604882)	NEUROG3	604882	Diarrea congenita da malassorbimento 4 (610370)	Autosomal recessive	Unknown	AR
NEXN (613121)	NEXN	613121	Cardiomiopatia dilatativa 1CC (613122)	Autosomal dominant	Unknown	AD
NEXN (613121)	NEXN	613121	Cardiomiopatia ipertrofica 20 (613876)	Autosomal dominant	Unknown	AD
NF1 (613113)	NF1	613113	Neurofibromatosi  sindrome di Noonan (601321)	Autosomal dominant	Unknown	AD
NF1 (613113)	NF1	613113	Neurofibromatosi spinale familiare (162210)	Autosomal dominant	Unknown	AD
NF1 (613113)	NF1	613113	Neurofibromatosi di tipo 1 (162200)	Autosomal dominant	Unknown	AD
NF1 (613113)	NF1	613113	Sindrome di Watson (193520)	Autosomal dominant	Unknown	AD
NF2 (607379)	NF2	607379	Neurofibromatosi di tipo 2 (10100)	Autosomal dominant	Unknown	AD
NF2 (607379)	NF2	607379	Schwannomatosi (162091)	Somatic	Unknown	AD
NFKBIA (164008)	NFKBIA	164008	Displasia ectodermica anidrotica con immunodeficienza delle cellule T (612132)	Autosomal dominant	Unknown	AD
NHP2 (606470)	NHP2	606470	Discheratosi congenita 2 (613987)	Autosomal recessive	Unknown	AR
NHS (300457)	NHS	300457	Sindrome di Nabce-Horan (302350)	X-linked dominant	Unknown	XL
NIPAL4 (609383)	NIPAL4	609383	Ittiosi congenita 6 (612281)	Autosomal recessive	Unknown	AR
NKX2-1 (600635)	NKX2-1	600635	Coreatetosi, ipotiroidismo e distress respiratorio neonatale (610978)	Autosomal dominant	Unknown	AD
NKX2-5 (600584)	NKX2-5	600584	Difetto del setto atriale 7, con o senza difetti della conduzione (607941)	Autosomal dominant	Unknown	AD
NKX2-5 (600584)	NKX2-5	600584	Cardiopatie troncoconali variabili (217095)	Unknown	Unknown	AD
NKX2-5 (600584)	NKX2-5	600584	Ipoplasia del cuore sinistro 2 (614435)	Autosomal dominant	Unknown	AD
NKX2-5 (600584)	NKX2-5	600584	Ipotiroidismo congenito 5, con assenza di gozzo (225250)	Autosomal dominant	Unknown	AD
NKX2-5 (600584)	NKX2-5	600584	Tetralogia di Fallot (187500)	Autosomal dominant	Unknown	AD
NKX2-5 (600584)	NKX2-5	600584	Difetto del setto ventricolare 3 (614432)	Autosomal dominant	Unknown	AD
NOP10 (606471)	NOP10	606471	Discheratosi congenita 1 (224230)	Autosomal recessive	Unknown	AR
NPPA (108780)	NPPA	108780	Fibrillazione atriale familiare 6 (612201)	Autosomal dominant	Unknown	AD/AR
NPPA (108780)	NPPA	108780	Cardiomiopatia atriale con blocco del cuore 2 (615745)	Autosomal recessive	Unknown	AD/AR
NRG1 (142445)	NRG1	142445	Malattia di Hirschsprung (Gunadi et al. BMC Pediatr. 2018)	Autosomal dominant	Gunadi, Budi NYP, Sethi R, Fauzi AR, Kalim AS, Indrawan T, Iskandar K, Makhmudi A, Adrianto I, San LP. NRG1 variant effects in patients with Hirschsprung disease. BMC Pediatr. 2018. [PMID: 30180823]	-999
NRTN (602018)	NRTN	602018	Malattia di Hirschsprung (Luzon-Toro et al. BMC Med Genet. 2015)	Autosomal dominant	Luzón-Toro B, Espino-Paisán L, Fernández RM, Martín-Sánchez M, Antiñolo G, Borrego S. Next-generation-based targeted sequencing as an efficient tool for the study of the genetic background in Hirschsprung patients. BMC Med Genet. 2015. [PMID: 26437850]	-999
NSDHL (300275)	NSDHL	300275	Sindrome CHILD (308050)	X-linked dominant	Unknown	XL
NTHL1 (602656)	NTHL1	602656	Poliposi adenomatosa familiare 3 (616415)	Autosomal recessive	Unknown	AR
NUP155 (606694)	NUP155	606694	Fibrillazione atriale 15 (615770)	Autosomal recessive	Unknown	AR
OCA2 (611409)	OCA2	611409	Albinismo oculocutaneo tipo II (203200)	Autosomal recessive	Unknown	AD/AR
OTUD1 (612022)	OTUD1	612022	Colite ulcerosa (Lu et al. J Autoimmun. 2018)	Unknown	Lu D, Song J, Sun Y, Qi F, Liu L, Jin Y, McNutt MA, Yin Y. Mutations of deubiquitinase OTUD1 are associated with autoimmune disorders. J Autoimmun. 2018 [PMID: 30100102]	-999
PAX3 (606597)	PAX3	606597	Sindrome di Waardenburg tipo 1 (193500)	Autosomal dominant	Unknown	AD/AR  
PAX3 (606597)	PAX3	606597	Sindrome di Waardenburg tipo 3 (148820)	Autosomal dominant; Autosomal recessive	Unknown	AD/AR  
PAX4 (167413)	PAX4	167413	Diabete mellito di tipo 2 (125853)	Autosomal dominant	Unknown	AD
PAX4 (167413)	PAX4	167413	Diabete MODY di tipo IX (612225)	Autosomal dominant	Unknown	AD
PAX8 (167415)	PAX8	167415	Ipotiroidismo congenito da ipoplasia o disgenesi della tiroide (218700)	Autosomal dominant	Unknown	AD
PAX9 (167416)	PAX9	167416	Agenesia dei denti selettiva 3 (604625)	Autosomal dominant	Unknown	AD
PDX1 (600733)	PDX1	600733	Diabete mellito di tipo II, suscettibilità (125853)	Autosomal dominant	Unknown	AR
PDX1 (600733)	PDX1	600733	Diabete MODY di tipo IV (606392)	Autosomal dominant	Unknown	AR
PDX1 (600733)	PDX1	600733	Agenesia pancreatica 1 (260370)	Autosomal recessive	Unknown	AR
PHEX (300550)	PHEX	300550	Rachitismo ipofosfatemico (307800)	X-linked dominant	Unknown	XL
PITX2 (601542)	PITX2	601542	Sindrome di Axenfeld-Rieger di tipo 1 (180500)	Autosomal dominant	Unknown	AD
PITX2 (601542)	PITX2	601542	Fibrillazione atriale familiare (Chinchilla et al. Circ Cardiovasc Genet. 2011)	Unknown	Chinchilla A, Daimi H, Lozano-Velasco E, Dominguez JN, Caballero R, Delpón E, Tamargo J, Cinca J, Hove-Madsen L, Aranega AE, Franco D. PITX2 insufficiency leads to atrial electrical and structural remodeling linked to arrhythmogenesis. Circ Cardiovasc Genet. 2011. [PMID: 21511879]	AD
PKP1 (601975)	PKP1	601975	Displasia ectodermica -  sindrome della pelle fragile (604536)	Autosomal recessive	Unknown	AR
PKP2 (602861)	PKP2	602861	Displasia aritmogena ventricolare destra 9 (609040)	Autosomal dominant	Unknown	AD
PLEKHM2 (609613)	PLEKHM2	609613	Cardiomiopatia dilatativa con non compattazione del ventricolo sinistro (Muhammad E et al. Hum Mol Genet. 2015)	Autosomal recessive	Muhammad E, Levitas A, Singh SR, Braiman A, Ofir R, Etzion S, Sheffield VC, Etzion Y, Carrier L, Parvari R. PLEKHM2 mutation leads to abnormal localization of lysosomes, impaired autophagy flux and associates with recessive dilated cardiomyopathy and left ventricular noncompaction. Hum Mol Genet. 2015. [PMID: 26464484]	-999
PLN (172405)	PLN	172405	Cardiomiopatia dilatativa 1P (609909)	Autosomal dominant	Unknown	AD/AR
PLN (172405)	PLN	172405	Cardiomiopatia ipertrofica 18 (613874)	Autosomal dominant	Unknown	AD/AR
PLVAP (607647)	PLVAP	607647	Diarrea cronica congenita associata ad enteropatia con perdita di proteine (618183)	Autosomal recessive	Unknown	AR
PNPLA1 (612121)	PNPLA1	612121	Ittiosi congenita 10 (615024)	Autosomal recessive	Unknown	AR
POMP (613386)	POMP	613386	Cheratosi lineare, ittiosi congenita, cheratoderma sclerosante (601952)	Autosomal recessive	Unknown	AD
POMP (613386)	POMP	613386	Sindrome autoinfiammatoria proteasoma-correlata 2 (618048)	Autosomal dominant	Unknown	AD
POU1F1 (173110)	POU1F1	173110	Deficit combinato dell'ormone ipofisario 1 (613038)	Autosomal dominant; Autosomal recessive	Unknown	AR
PRDM16 (605557)	PRDM16	605557	Non compattazione del ventricolo sinistro 8 (615373)	Autosomal dominant	Unknown	AD
PRDM16 (605557)	PRDM16	605557	Cardiomiopatia dilatativa 1LL (615373)	Autosomal dominant	Unknown	AD
PRKAG2 (602743)	PRKAG2	602743	Cardiomiopatia ipertrofica 6 (600858)	Autosomal dominant	Unknown	AD
PRKAG2 (602743)	PRKAG2	602743	Cardiomiopatia ipertrofica congenita letale dovuta a malattia da deposito di glicogeno (261740)	Autosomal dominant	Unknown	AD
PRKAG2 (602743)	PRKAG2	602743	Sindrome di Wolff-Parkinson-White (194200)	Autosomal dominant	Unknown	AD
PRKAR1A (188830)	PRKAR1A	188830	Complesso di Carney di tipo 1 (160980)	Autosomal dominant	Unknown	AD
PROP1 (601538)	PROP1	601538	Deficit combinato dell'ormone ipofisario 2 (262600)	Autosomal recessive	Unknown	AR
PRSS1 (276000)	PRSS1	276000	Pancreatite ereditaria (167800)	Autosomal dominant	Unknown	AD
PSEN1 (104311)	PSEN1	104311	Cardiomiopatia dilatativa 1U (613694)	Autosomal dominant	Unknown	AD
PSEN2 (600759)	PSEN2	600759	Cardiomiopatia dilatativa 1V (613697)	Autosomal dominant	Unknown	AD
PTPN11 (176876)	PTPN11	176876	Sindrome LEOPARD 1 (151100)	Autosomal dominant	Unknown	AD
PTPN11 (176876)	PTPN11	176876	Sindrome di Noonan 1 (163950)	Autosomal dominant	Unknown	AD
PTRH2 (608625)	PTRH2	608625	Malattia pancreatica-endocrina-neurologica, multisistemica infantile (616263)	Autosomal recessive	Unknown	AR
RAB27A (603868)	RAB27A	603868	Sindrome di Griscelli tipo 2 (607624)	Autosomal recessive	Unknown	AR
RAF1 (164760)	RAF1	164760	Cardiomiopatia dilatativa 1NN (615916))	Autosomal dominant	Unknown	AD
RAF1 (164760)	RAF1	164760	Sindrome LEOPARD 2 (611554)	Autosomal dominant	Unknown	AD
RAF1 (164760)	RAF1	164760	Sindrome di Noonan 5 (611553)	Autosomal dominant	Unknown	AD
RBM20 (613171)	RBM20	613171	Cardiomiopatia dilatativa 1DD (613172)	Autosomal dominant	Unknown	AD
RHBDF2 (614404)	RHBDF2	614404	Sindrome cheratoderma palmoplantare-carcinoma esofageo (148500)	Autosomal dominant	Unknown	AD
RYR2 (180902)	RYR2	180902	Displasia aritmogena ventricolare destra 2 (600996)	Autosomal dominant	Unknown	AD
RYR2 (180902)	RYR2	180902	Tachicardia ventricolare polimorfa catecolaminergica 1 (604772)	Autosomal dominant	Unknown	AD
SCN10A (604427)	SCN10A	604427	Sindrome di Brugada (Brugada et al. GeneReviews)	Autosomal dominant	Unknown	AD
SCN1B (600235)	SCN1B	600235	Fibrillazione atriale familiare 13 (615377)	Autosomal dominant	Unknown	AD
SCN1B (600235)	SCN1B	600235	Sindrome di Brugada 5 (612838)	Autosomal dominant	Unknown	AD
SCN1B (600235)	SCN1B	600235	Difetti non specifici della conduzione cardiaca (612838)	Autosomal dominant	Unknown	AD
SCN2B (601327)	SCN2B	601327	Fibrillazione atriale familiare 14 (615378)	Autosomal dominant	Unknown	AD
SCN3B (608214)	SCN3B	608214	Sindrome di Brugada 7 (613120)	Autosomal dominant	Unknown	AD
SCN3B (608214)	SCN3B	608214	Fibrillazione atriale familiare 16 (613120)	Autosomal dominant	Unknown	AD
SCN4B (608256)	SCN4B	608256	Sindrome del QT lungo 10 (611819)	Autosomal dominant	Unknown	AD
SCN4B (608256)	SCN4B	608256	Fibrillazione atriale familiare 17 (611819)	Autosomal dominant	Unknown	AD
SCN5A (600163)	SCN5A	600163	Sindrome del QT lungo 3 (603830)	Autosomal dominant	Unknown	AD/AR/DIG
SCN5A (600163)	SCN5A	600163	Sindrome da morte improvvisa inspiegabile, suscettibilità (272120)	Autosomal recessive	Unknown	AD/AR/DIG
SCN5A (600163)	SCN5A	600163	Fibrillazione atriale familiare 10 (614022)	Autosomal dominant	Unknown	AD/AR/DIG
SCN5A (600163)	SCN5A	600163	Sindrome di Brugada 1 (601144)	Autosomal dominant	Unknown	AD/AR/DIG
SCN5A (600163)	SCN5A	600163	Cardiomiopatia dilatativa 1E (601154)	Autosomal dominant	Unknown	AD/AR/DIG
SCN5A (600163)	SCN5A	600163	Difetto non progressivo della conduzione cardiaca (113900)	Autosomal dominant	Unknown	AD/AR/DIG
SCN5A (600163)	SCN5A	600163	Difetto progressivo della conduzione cardiaca, tipo IA (113900)	Autosomal dominant	Unknown	AD/AR/DIG
SCN5A (600163)	SCN5A	600163	Sindrome familiare del seno malato 1 (608567)	Autosomal recessive	Unknown	AD/AR/DIG
SCN5A (600163)	SCN5A	600163	Fibrillazione ventricolare familiare 1 (603829)	Autosomal dominant	Unknown	AD/AR/DIG
SDHA (600857)	SDHA	600857	Sindrome di Leigh (256000)	Autosomal recessive; Mitochondrial	Unknown	AD/AR
SDHA (600857)	SDHA	600857	Cardiomiopatia dilatativa 1GG (613642)	Autosomal recessive	Unknown	AD/AR
SDHA (600857)	SDHA	600857	Paraganglioma 5 (614165)	Autosomal dominant	Unknown	AD/AR
SDHA (600857)	SDHA	600857	Deficit isolato del complesso II della catena respiratoria mitocondriale (252011)	Autosomal recessive	Unknown	AD/AR
SECISBP2 (607693)	SECISBP2	607693	Deficit del metabolismo dell'ormone tiroideo (609698)	Autosomal recessive	Unknown	AR
SERPINA1 (107400)	SERPINA1	107400	Enfisema da deficit di alfa-1-antitripsina (613490)	Autosomal recessive	Unknown	AR
SERPINA1 (107400)	SERPINA1	107400	Enfisema-cirrosi da deficit di alfa-1-antitripsina (613490)	Autosomal recessive	Unknown	AR
SERPINA1 (107400)	SERPINA1	107400	Malattia emorragica da mutazione di alfa-1 antitripsina Pittsburgh (613490)	Autosomal recessive	Unknown	AR
SERPINB7 (603357)	SERPINB7	603357	Cheratoderma palmoplantare tipo Nagashima (615598)	Autosomal recessive	Unknown	AR
SGCD (601411)	SGCD	601411	Cardiomiopatia dilatativa 1L (606685)	Autosomal dominant	Unknown	AR
SHOX2 (602504)	SHOX2	602504	Fibrillazione atriale (Hoffmann et al. Basic Res Cardiol. 2016)	Autosomal dominant	Hoffmann S, Clauss S, Berger IM, Weiß B, Montalbano A, Röth R, Bucher M, Klier I, Wakili R, Seitz H, Schulze-Bahr E, Katus HA, Flachsbart F, Nebel A, Guenther SP, Bagaev E, Rottbauer W, Kääb S, Just S, Rappold GA. Coding and non-coding variants in the SHOX2 gene in patients with early-onset atrial fibrillation. Basic Res Cardiol. 2016 [PMID: 27138930]	-999
SKIV2L (600478)	SKIV2L	600478	Sindrome tricoepatoenterica 2 (614602)	Autosomal recessive	Unknown	AR
SLC16A2 (300095)	SLC16A2	300095	Sindrome di Allan-Herndon-Dudley (300523)	X-linked	Unknown	XL
SLC25A4 (103220)	SLC25A4	103220	Oftalmoplegia esterna progressiva con delezioni del DNA mitocondriale (609283)	Autosomal dominant	Unknown	AD/AR
SLC25A4 (103220)	SLC25A4	103220	Sindrome da deplezione del DNA mitocondriale 12A (tipo cardiomiopatico) (617184)	Autosomal dominant	Unknown	AD/AR
SLC25A4 (103220)	SLC25A4	103220	Sindrome da deplezione del DNA mitocondriale 12B (tipo cardiomiopatico) (615418)	Autosomal recessive	Unknown	AD/AR
SLC26A3 (126650)	SLC26A3	126650	Diarrea congenita da cloruri (214700)	Autosomal recessive	Unknown	AR
SLC26A4 (605646)	SLC26A4	605646	Sindrome di Pendred (274600)	Autosomal recessive;Autosomal dominant, digenic	Unknown	AR
SLC27A4 (604194)	SLC27A4	604194	Sindrome ittiosi-prematurità (608649)	Autosomal recessive	Unknown	AR
SLC40A1 (604653)	SLC40A1	604653	Emocromatosi di tipo 4 (606069)	Autosomal dominant	Unknown	AD
SLC45A2 (606202)	SLC45A2	606202	Albinismo oculocutaneo tipo IV (606574)	Autosomal recessive	Unknown	AD/AR
SLC51B (612085)	SLC51B	612085	Diarrea e colestasi (Sultan et al. Hepatology. 2018)	Autosomal recessive	Sultan M, Rao A, Elpeleg O, Vaz FM, Abu-Libdeh B, Karpen SJ, Dawson PA. Organic solute transporter-? (SLC51B) deficiency in two brothers with congenital diarrhea and features of cholestasis. Hepatology. 2018 [PMID: 28898457]	-999
SLC5A1 (182380)	SLC5A1	182380	Malassorbimento di glucosio-galattosio (606824)	Autosomal recessive	Unknown	AR
SLC5A5 (601843)	SLC5A5	601843	Disormonogenesi tiroidea 1 (274400)	Autosomal recessive	Unknown	AR
SLC9A3 (182307)	SLC9A3	182307	Diarrea congenita con malassorbimento del sodio 8 (616868)	Autosomal recessive	Unknown	AR
SLCO1B1 (604843)	SLCO1B1	604843	Iperbilirubinemia tipo Rotor (237450)	Digenic recessive	Unknown	AD
SLCO1B3 (605495)	SLCO1B3	605495	Iperbilirubinemia tipo Rotor (237450)	Digenic recessive	Unknown	DIG
SLMAP (602701)	SLMAP	602701	Sindrome di Brugada (Brugada et al. GeneReviews)	Autosomal dominant	(Brugada R, Campuzano O, Sarquella-Brugada G, et al. Brugada Syndrome. 2005 Mar 31 [Updated 2016 Nov 17]. In: Adam MP, Ardinger HH, Pagon RA, et al., editors. GeneReviewsÂ® [Internet]. Seattle (WA): University of Washington, Seattle; 1993-2020)	-999
SLURP1 (606119)	SLURP1	606119	Malattia di Meleda (248300)	Autosomal recessive	Unknown	AD/AR
SMARCAD1 (612761)	SMARCAD1	612761	Adermatoglifia (136000)	Autosomal dominant	Unknown	AD
SMARCAD1 (612761)	SMARCAD1	612761	Sindrome di Basan (129200)	Autosomal dominant	Unknown	AD
SMARCAD1 (612761)	SMARCAD1	612761	Sindrome di Huriez (181600)	Autosomal dominant	Unknown	AD
SNAI2 (602150)	SNAI2	602150	Piebaldismo (172800)	Autosomal dominant	Unknown	AR
SNAI2 (602150)	SNAI2	602150	Sindrome di Waardenburg tipo 2D (608890)	Autosomal recessive	Unknown	AR
SNAP29 (604202)	SNAP29	604202	Sindrome disgenesia cerebrale-neuropatia-ittiosi-cheratoderma palmoplantare (609528)	Autosomal recessive	Unknown	AR
SNTA1 (601017)	SNTA1	601017	Sindrome del QT lungo 12 (612955)	Autosomal dominant	Unknown	AD
SOS1 (182530)	SOS1	182530	Fibromatosi gengivale 1 (135300)	Autosomal dominant	Unknown	AD
SOS1 (182530)	SOS1	182530	Sindrome di Noonan 4 (610733)	Autosomal dominant	Unknown	AD
SOX10 (602229)	SOX10	602229	Sindrome PCWH (609136)	Autosomal dominant	Unknown	AD
SOX10 (602229)	SOX10	602229	Sindrome di Waardenburg tipo 2E con o senza coinvolgimento neurologico (611584)	Autosomal dominant	Unknown	AD
SOX10 (602229)	SOX10	602229	Sindrome di Waardenburg tipo 4C (613266)	Autosomal dominant	Unknown	AD
SOX6 (607257)	SOX6	607257	Sindrome di Tolchin-Le Caignec (618971)	Autosomal dominant	Unknown	AD
SOX6 (607257)	SOX6	607257	Non compattazione del ventricolo sinistro (Taglietti V et al. Cell Rep. 2016)	Unknown	Taglietti V, Maroli G, Cermenati S, Monteverde S, Ferrante A, Rossi G, Cossu G, Beltrame M, Messina G. Nfix Induces a Switch in Sox6 Transcriptional Activity to Regulate MyHC-I Expression in Fetal Muscle. Cell Rep. 2016 [PMID: 27880909]	AD
SPINK1 (167790)	SPINK1	167790	Diabete pancreatico fibrocalcoloso, suscettibilità (608189)	Autosomal dominant; Autosomal recessive	Unknown	AD
SPINK1 (167790)	SPINK1	167790	Pancreatite ereditaria (167800)	Autosomal dominant	Unknown	AD
SPINK1 (167790)	SPINK1	167790	Pancreatite calcificante tropicale (608189)	Autosomal dominant; Autosomal recessive	Unknown	AD
SPINK5 (605010)	SPINK5	605010	Sindrome di Netherton (256500)	Autosomal recessive	Unknown	AR
SPINT2 (605124)	SPINT2	605124	Diarrea sodica congenita sindromica (270420)	Autosomal recessive	Unknown	AD
SPRED1 (609291)	SPRED1	609291	Sindrome di Legius (611431)	Autosomal dominant	Unknown	AD
ST14 (606797)	ST14	606797	Ittiosi congenita 11 (602400)	Autosomal recessive	Unknown	AR
STS (300747)	STS	300747	Ittiosi (308100)	X-linked recessive	Unknown	XL
STX3 (600876)	STX3	600876	Malattia da inclusioni microvillari (Julia J et al. J Neonatal Perinatal Med. 2019)	Autosomal recessive	Julia J, Shui V, Mittal N, Heim-Hall J, Blanco CL. Microvillus inclusion disease, a diagnosis to consider when abnormal stools and neurological impairments run together due to a rare syntaxin 3 gene mutation. J Neonatal Perinatal Med. 2019. [PMID: 30909251]	-999
SUMF1 (607939)	SUMF1	607939	Deficit multiplo di solfatasi (272200)	Autosomal recessive	Unknown	AR
TAT (613018)	TAT	613018	Tirosinemia di tipo II (276600)	Autosomal recessive	Unknown	AR
TBX5 (601620)	TBX5	601620	Sindrome di Holt-Oram (142900)	Autosomal dominant	Unknown	AD
TBX20 (606061)	TBX20	606061	Atrial septal defect 4 (611363)	Difetto del setto atriale 4 (611363)	Autosomal dominant	
TCAP (604488)	TCAP	604488	Cardiomiopatia ipertrofica 25 (607487)	Autosomal dominant	Unknown	AD/AR
TECRL (617242)	TECRL	617242	Tachicardia ventricolare polimorfa catecolaminergica 3 (614021)	Autosomal recessive	Unknown	AR
TERC (602322)	TERC	602322	Discheratosi congenita 1 (127550)	Autosomal dominant	Unknown	AD
TERT (187270)	TERT	187270	Discheratosi congenita 4 (613989)	Autosomal recessive	Unknown	AD/AR
TERT (187270)	TERT	187270	Discheratosi congenita 2 (613989)	Autosomal dominant	Unknown	AD/AR
TFR2 (604720)	TFR2	604720	Emocromatosi di tipo 3 (604250)	Autosomal recessive	Unknown	AR
TG (188450)	TG	188450	Disormonogenesi tiroidea 3 (274700)	Autosomal recessive	Unknown	AR
TGFB3 (190230)	TGFB3	190230	Displasia aritmogena ventricolare destra 1 (107970)	Autosomal dominant	Unknown	AD
TGM1 (190195)	TGM1	190195	Ittiosi congenita 1 (242300)	Autosomal recessive	Unknown	AR
TGM5 (603805)	TGM5	603805	Sindrome da desquamazione cutanea 2 (609796)	Autosomal recessive	Unknown	AR
THRA (190120)	THRA	190120	Ipotiroidismo congenito 6 (614450)	Autosomal dominant	Unknown	AD
THRB (190160)	THRB	190160	Resistenza all'ormone tiroideo (188570)	Autosomal dominant	Unknown	AD/AR
THRB (190160)	THRB	190160	Resistenza all'ormone tiroideo (274300)	Autosomal recessive	Unknown	AD/AR
THRB (190160)	THRB	190160	Resistenza all'ormone tiroideo, selettivo ipofisario (145650)	Autosomal dominant	Unknown	AD/AR
TINF2 (604319)	TINF2	604319	Discheratosi congenita 3 (613990)	Autosomal dominant	Unknown	AD
TINF2 (604319)	TINF2	604319	Sindrome di Revesz (268130)	Autosomal dominant	Unknown	AD
TLL1 (606742)	TLL1	606742	Difetto del setto atriale 6 (613087)	Autosomal dominant	Unknown	AD
TMEM43 (612048)	TMEM43	612048	Displasia aritmogena ventricolare destra 5 (604400)	Autosomal dominant	Unknown	AD
TMPO (188380)	TMPO	188380	Cardiomiopatia dilatativa (Hershberger e Jordan, GeneReviews)	Autosomal dominant	Hershberger RE, Jordan E. Dilated Cardiomyopathy Overview. 2007 Jul 27 [updated 2021 Jul 29]. In: Adam MP, Ardinger HH, Pagon RA, Wallace SE, Bean LJH, Gripp KW, Mirzaa GM, Amemiya A, editors. GeneReviews® [Internet]. Seattle (WA): University of Washington, Seattle; 19932022. [PMID: 20301486]	AD
TNNC1 (191040)	TNNC1	191040	Cardiomiopatia dilatativa 1Z (611879)	Autosomal dominant	Unknown	AD
TNNC1 (191040)	TNNC1	191040	Cardiomiopatia ipertrofica 13 (613243)	Autosomal dominant	Unknown	AD
TNNI3 (191044)	TNNI3	191044	Cardiomiopatia dilatativa 2A (611880)	Autosomal recessive	Unknown	AD/AR
TNNI3 (191044)	TNNI3	191044	Cardiomiopatia dilatativa 1FF (613286)	Autosomal dominant	Unknown	AD/AR
TNNI3 (191044)	TNNI3	191044	Cardiomiopatia restrittiva familiare 1 (115210)	Autosomal dominant	Unknown	AD/AR
TNNI3 (191044)	TNNI3	191044	Cardiomiopatia ipertrofica 7 (613690)	Autosomal dominant	Unknown	AD/AR
TNNT2 (191045)	TNNT2	191045	Cardiomiopatia dilatativa 1D (601494)	Autosomal dominant	Unknown	AD
TNNT2 (191045)	TNNT2	191045	Cardiomiopatia restrittiva familiare 3 (612422)	Autosomal dominant	Unknown	AD
TNNT2 (191045)	TNNT2	191045	Cardiomiopatia ipertrofica 2 (115195)	Autosomal dominant	Unknown	AD
TNNT2 (191045)	TNNT2	191045	Non compattazione del ventricolo sinistro 6 (601494)	Autosomal dominant	Unknown	AD
TPM1 (191010)	TPM1	191010	Cardiomiopatia dilatativa 1Y (611878)	Autosomal dominant	Unknown	AD
TPM1 (191010)	TPM1	191010	Cardiomiopatia ipertrofica 3 (115196)	Autosomal dominant	Unknown	AD
TPM1 (191010)	TPM1	191010	Non compattazione del ventricolo sinistro 9 (611878)	Autosomal dominant	Unknown	AD
TPO (606765)	TPO	606765	Disormonogenesi tiroidea 2A (274500)	Autosomal recessive	Unknown	AR
TRDN (603283)	TRDN	603283	Tachicardia ventricolare polimorfa catecolaminergica 5, con o senza debolezza muscolare (615441)	Autosomal recessive	Unknown	AR
TRHR (188545)	TRHR	188545	Ipotiroidismo congenito 7, con assenza di gozzo (618573)	Autosomal recessive	Unknown	AR
TRPM4 (606936)	TRPM4	606936	Difetto progressivo familiare della conduzione cardiaca, tipo IB (604559)	Autosomal dominant	Unknown	AD
TSHB (188540)	TSHB	188540	Ipotiroidismo congenito 4, con assenza di gozzo (275100)	Autosomal recessive	Unknown	AR
TSHR (603372)	TSHR	603372	Ipertiroidismo gestazionale familiare (603373)	Autosomal dominant	Unknown	AD/AR
TSHR (603372)	TSHR	603372	Ipertiroidismo non autoimmune (609152)	Autosomal dominant	Unknown	AD/AR
TSHR (603372)	TSHR	603372	Ipotiroidismo congenito 1, con assenza di gozzo (275200)	Autosomal recessive	Unknown	AD/AR
TSPEAR (612920)	TSPEAR	612920	Displasia ectodermica 14, tipo capelli/denti con o senza ipoidrosi (618180)	Autosomal recessive	Unknown	AR
TTC37 (614589)	TTC37	614589	Sindrome tricoepatoenterica 1 (222470)	Autosomal recessive	Unknown	AR
TTC7A (609332)	TTC7A	609332	Sindrome immunodeficienza combinata-enteropatia (243150)	Autosomal recessive	Unknown	AR
TTN (188840)	TTN	188840	Cardiomiopatia dilatativa 1G (604145)	Autosomal dominant	Unknown	AD
TTN (188840)	TTN	188840	Cardiomiopatia ipertrofica familiare 9 (613765)	Autosomal dominant	Unknown	AD
TYR (606933)	TYR	606933	Albinismo oculocutaneo tipo IA (203100)	Autosomal recessive	Unknown	AR
TYR (606933)	TYR	606933	Albinismo oculocutaneo tipo IB (606952)	Autosomal recessive	Unknown	AR
TYRP1 (115501)	TYRP1	115501	Albinismo oculocutaneo tipo III (203290)	Autosomal recessive	Unknown	AR
UBR1 (605981)	UBR1	605981	Sindrome du Johanson-Blizzard (243800)	Autosomal recessive	Unknown	AR
UGT1A1 (191740)	UGT1A1	191740	Sindrome di Crigler-Najjar tipo I (218800)	Autosomal recessive	Unknown	AD/AR
UGT1A1 (191740)	UGT1A1	191740	Sindrome di Crigler-Najjar tipo II (606785)	Autosomal recessive	Unknown	AD/AR
UGT1A1 (191740)	UGT1A1	191740	Iperbilirubinemia transiente neonatale familiare (237900)	Autosomal recessive	Unknown	AD/AR
UGT1A1 (191740)	UGT1A1	191740	Sindrome di Gilbert (143500)	Autosomal recessive	Unknown	AD/AR
VCL (193065)	VCL	193065	Cardiomiopatia dilatativa 1W (611407)	Autosomal dominant	Unknown	AD
VCL (193065)	VCL	193065	Cardiomiopatia ipertrofica 15 (613255)	Autosomal dominant	Unknown	AD
WNT10A (606268)	WNT10A	606268	Displasia odonto-onico-dermica (257980)	Autosomal recessive	Unknown	AR
WNT10A (606268)	WNT10A	606268	Sindrome di Schöpf-Schulz-Passarge (224750)	Autosomal recessive	Unknown	AR
WNT10A (606268)	WNT10A	606268	Agenesia dei denti selettiva 4 (150400)	Autosomal dominant; Autosomal recessive	Unknown	AR
WNT2B (601968)	WNT2B	601968	Diarrea 9 (618168)	Autosomal recessive	Unknown	AR
WRAP53 (612661)	WRAP53	612661	Discheratosi congenita 3 (613988)	Autosomal recessive	Unknown	AR
XIAP (300079)	XIAP	300079	Malattia infiammatoria intestinale (Worthey EA et al. Genet Med. 2011)	X-linked recessive	Worthey EA, Mayer AN, Syverson GD, Helbling D, Bonacci BB, Decker B, Serpe JM, Dasu T, Tschannen MR, Veith RL, Basehore MJ, Broeckel U, Tomita-Mitchell A, Arca MJ, Casper JT, Margolis DA, Bick DP, Hessner MJ, Routes JM, Verbsky JW, Jacob HJ, Dimmock DP. Making a definitive diagnosis: successful clinical application of whole exome sequencing in a child with intractable inflammatory bowel disease. Genet Med. 2011 [PMID: 21173700].	XL
