GENE	Citation	frase
ABCA4	Unknown	Varianti nel gene ABCA4 sono associate a Distrofia dei coni e dei bastoncelli 3 (OMIM 604116), a Retinite pigmentosa 19 (OMIM 601718), a Malattia di Stargardt 1 (OMIM 248200), a Fundus flavimaculatus (OMIM 248200), a Distrofia retinica, a esordio precoce e severo (OMIM 248200) a trasmissione autosomica recessiva.
ABCB6	Unknown	Varianti nel gene ABCB6 sono associate a Microftalmia isolata con coloboma 7 (OMIM 614497), a Discromatosi universale ereditaria 3 (OMIM 615402) e a Pseudoiperkaliemia familiare 2 (OMIM 609153)  a trasmissione autosomica dominante.
ACO2	Unknown	Varianti nel gene ACO2 sono associate a Atrofia ottica 9 (OMIM 616289) e a Degenerazione cerebellare-retinica infantile (OMIM 614559) a trasmissione autosomica recessiva.
ADAM9	Unknown	Varianti nel gene ADAM9 sono associate a Distrofia dei coni e dei bastoncelli 9 (OMIM 612775) a trasmissione autosomica recessiva.
ADGRV1	Unknown	Varianti nel gene ADGRV1 sono associate a Sindrome Usherd tipo 2C, GPR98/PDZD7 digenica (OMIM 605472) e a Sindrome di Usher di tipo 2C (OMIM 605472), a trasmissione autosomica recessiva e digenica.
AGBL1	Unknown	Varianti nel gene AGBL1 sono associate a Distrofia corneale endoteliale di Fuchs 8 (OMIM 615523) a trasmissione autosomica dominante.
AGBL5	Unknown	Varianti nel gene AGBL5 sono associate a Retinite pigmentosa 75 (OMIM 617023) a trasmissione autosomica recessiva.
AGK	Unknown	Varianti nel gene AGK sono associate a Cataratta 38 (OMIM 614691) e a Sindrome di Sengers (OMIM 212350) a trasmissione autosomica recessiva.
AHI1	Unknown	Varianti nel gene AHI1 sono associate a Sindrome di Joubert 3 (OMIM 608629) e a Retinite Pigmentosa non sindromica, (PMID: 28041643 e 28442542). a trasmissione autosomica recessiva.
AIPL1	Unknown	Varianti nel gene AIPL1 sono associate a Retinitie Pigmentosa giovanile (OMIM 604393), a trasmissione autosomica recessiva e autososmica dominante, a Amaurosi congenita di Leber 4 (OMIM 604393) e a Distrofia dei coni e dei bastoncelli (OMIM 604393) a trasmissione autosomica recessiva e autosomica dominante.
ARHGEF18	Unknown	Varianti nel gene ARHGEF18 sono associate a Retinite pigmentosa 78 (OMIM 617433) a trasmissione autosomica recessiva.
ARL2BP	Unknown	Varianti nel gene ARL2BP sono associate a Retinite pigmentosa, con o senza situs inversus (OMIM 615434) a trasmissione autosomica recessiva.
ARL3	Unknown	Varianti nel gene ARL3 sono associate a Sindrome Joubert 35 (OMIM 618161), a trasmissione autosomica recessiva e a Retinite pigmentosa 83 (OMIM 618173), a trasmissione autosomica dominante.
ARL6	Unknown	Varianti nel gene ARL6 sono associate a Retinite pigmentosa 55 (OMIM 613575) e a Sindrome di Bardet-Biedl 3 (OMIM 600151) a trasmissione autosomica recessiva.
ASB10	Unknown	Varianti nel gene ASB10 sono associate a Glaucoma ad angolo aperto, 1F (OMIM 603383) a trasmissione autosomica dominante.
ATF6	Unknown	Varianti nel gene ATF6 sono associate a Acromatopsia 7 (OMIM 616517) a trasmissione autosomica recessiva.
BBIP1	Unknown	Varianti nel gene BBIP1 sono associate a Sindrome di Bardet-Biedl 18 (OMIM 615995) a trasmissione autosomica recessiva.
BBS1	Unknown	Varianti nel gene BBS1 sono associate a Sindrome di Bardet-Biedl 1 (OMIM 209900) a trasmissione digenic recessive; autosomal recessive.
BBS10	Unknown	Varianti nel gene BBS10 sono associate a Sindrome di Bardet-Biedl 10 (OMIM 615987) a trasmissione autosomica recessiva.
BBS12	Unknown	Varianti nel gene BBS12 sono associate a Sindrome di Bardet-Biedl 12 (OMIM 615989) a trasmissione autosomica recessiva.
BBS2	Unknown	Varianti nel gene BBS2 sono associate a Sindrome di Bardet-Biedl 2 (OMIM 615981) e a Retinite pigmentosa 74 (OMIM 616562) a trasmissione autosomica recessiva.
BBS4	Unknown	Varianti nel gene BBS4 sono associate a Sindrome di Bardet-Biedl 4 (OMIM 615982) a trasmissione autosomica recessiva.
BBS5	Unknown	Varianti nel gene BBS5 sono associate a Sindrome di Bardet-Biedl 5 (OMIM 615983) a trasmissione autosomica recessiva.
BBS7	Unknown	Varianti nel gene BBS7 sono associate a Sindrome di Bardet-Biedl 7 (OMIM 615984) a trasmissione autosomica recessiva.
BBS9	Unknown	Varianti nel gene BBS9 sono associate a Sindrome di Bardet-Biedl 9 (OMIM 615986) a trasmissione autosomica recessiva.
BEST1	Unknown	Varianti nel gene BEST1 sono associate a Distrofia maculare vitelliforme 2 (OMIM 153700), a Microcornea, distrofia dei coni e dei bastoncelli, cataratta, e stafiloma posteriore (OMIM 193220), a Retinite pigmentosa concentrica (OMIM 613194),, a Retinite pigmentosa 50 (OMIM 613194) e a Vitreoretinocoroidopatia (OMIM 193220) a trasmissione autosomica dominante e a Bestrofinopatia (OMIM 611809) , a trasmissione autosomica recessiva.
BFSP1	Unknown	Varianti nel gene BFSP1 sono associate a Cataratta 33 (OMIM 611391) a trasmissione autosomica recessiva e autosomica dominante.
BFSP2	Unknown	Varianti nel gene BFSP2 sono associate a Cataratta 12, tipi multipli (OMIM 611597) a trasmissione autosomica dominante.
C1QTNF5	Unknown	Varianti nel gene C1QTNF5 sono associate a Degenerazione retinica a esordio tardivo (OMIM 605670) a trasmissione autosomica dominante.
C8orf37	Unknown	Varianti nel gene C8orf37 sono associate a Retinite pigmentosa 64 (OMIM 614500) a trasmissione autosomica recessiva.
CA4	Unknown	Varianti nel gene CA4 sono associate a Retinite pigmentosa 17 (OMIM 600852) a trasmissione autosomica dominante.
CABP4	Unknown	Varianti nel gene CABP4 sono associate a Disturbi sinaptici dei coni e dei bastoncelli, congeniti nonprogressivi (OMIM 610427) a trasmissione autosomica recessiva.
CACNA1F	Unknown	Varianti nel gene CACNA1F sono associate a Malattia oculare dell'isola di Åland (OMIM 300600), a Cecità notturna congenita stazionaria (OMIM incompleta), 2A (300071) a trasmissione X-linked, a Distrofia dei coni e dei bastoncelli, 3 (OMIM 300476), a trasmissione X-linked recessiva.
CACNA2D4	Unknown	Varianti nel gene CACNA2D4 sono associate a Distrofia retinica dei coni 4 (OMIM 610478) a trasmissione autosomica recessiva.
CDH23	Unknown	Varianti nel gene CDH23 sono associate a Ipoacusia 12 (OMIM 601386), a trasmissione autosomica recessiva e a Sindrome di Usher, tipo 1D/F digenica (OMIM 601067) e a Sindrome di Usher, tipo 1D (OMIM 601067) a trasmissione digenic recessive; autosomal recessive.
CDH3	Unknown	Varianti nel gene CDH3 sono associate a Ipotricosi congenita con distrofia maculare giovanile (OMIM 601553) e a Displasia ectodermica, ectrodattilia, e distrofia maculare  (OMIM 225280) a trasmissione autosomica recessiva.
CDHR1	Unknown	Varianti nel gene CDHR1 sono associate a Retinite pigmentosa 65 (OMIM 613660) e a Distrofia dei coni e dei bastoncelli 15 (OMIM 613660) a trasmissione autosomica recessiva.
CEP164	Unknown	Varianti nel gene CEP164 sono associate a Nefronoftisi 15 (OMIM 614845) a trasmissione autosomica recessiva.
CEP19	Unknown	Varianti nel gene CEP19 sono associate a Obesità e difetto della spermatogenesi (OMIM 615703) a trasmissione autosomica recessiva.
CEP250	Unknown	Varianti nel gene CEP250 sono associate a Distrofia dei coni e dei bastoncelli e perdita dell'udito 2 (OMIM 618358) a trasmissione autosomica recessiva.
CEP290	Unknown	Varianti nel gene CEP290 sono associate a Sindrome di Bardet-Biedl 14 (OMIM 615991) e a Sindrome di Joubert 5 (OMIM 610188) e a Amaurosi congenita di Leber 10 (OMIM 611755) e a Sindrome di Meckel 4 (OMIM 611134) e a Sindrome di Senior-Loken 6 (OMIM 610189) a trasmissione autosomica recessiva.
CEP41	Unknown	Varianti nel gene CEP41 sono associate a Sindrome di Joubert 15 (OMIM 614464) a trasmissione autosomica recessiva.
CEP78	Unknown	Varianti nel gene CEP78 sono associate a Distrofia dei coni e dei bastoncelli e perdita dell'udito (OMIM 617236) a trasmissione autosomica recessiva.
CERKL	Unknown	Varianti nel gene CERKL sono associate a Retinite pigmentosa 26 (OMIM 608380) a trasmissione autosomica recessiva.
CFAP410	Unknown	Varianti nel gene CFAP410 sono associate a Distrofia retinica con stafiloma maculare (OMIM 617547) e a Displasia spondilometafisaria assiale (OMIM 602271) a trasmissione autosomica recessiva.
CFAP418	Unknown	Varianti nel gene CFAP418 sono associate a Sindrome di Bardet-Biedl 21 (OMIM 617406) e a Distrofia dei coni e dei bastoncelli 16 e retinite pigmentosa 64 (OMIM 614500), a trasmissione autosomica recessiva.
CFH	Unknown	Varianti nel gene CFH sono associate a Drusen laminare basale (OMIM 126700), a trasmissione autosomica dominante e a Deficit del fattore H del complemento (OMIM 609814), a trasmissione autosomica dominante e autosomica recessiva.
CFI	Unknown	Varianti nel gene CFI sono associate a Degenerazione maculare a esordio tardivo (PMID: 24036952, 25788521, 34153144) a trasmissione -999 ().
CHM	Unknown	Varianti nel gene CHM sono associate a Coroideremia (OMIM 303100) a trasmissione X-linked dominante.
CHMP4B	Unknown	Varianti nel gene CHMP4B sono associate a Cataratta 31, tipi multipli (OMIM 605387) a trasmissione autosomica dominante.
CHN1	Unknown	Varianti nel gene CHN1 sono associate a Sindrome della retrazione di Duane 2 (OMIM 604356) a trasmissione autosomica dominante.
CHST6	Unknown	Varianti nel gene CHST6 sono associate a Distrofia maculare corneale (OMIM 217800) a trasmissione autosomica recessiva.
CIB2	Unknown	Varianti nel gene CIB2 sono associate a Ipoacusia 48 (OMIM 609439) e a Sindrome di Usher, tipo IJ  (OMIM 614869) a trasmissione autosomica recessiva.
CLN3	Unknown	Varianti nel gene CLN3 sono associate a Ceroidolipofuscinosi neuronale 3 (OMIM 204200) a trasmissione autosomica recessiva.
CLRN1	Unknown	Varianti nel gene CLRN1 sono associate a Retinite pigmentosa 61 (OMIM 614180) e a Sindrome di Usher, tipo 3A (OMIM 276902) a trasmissione autosomica recessiva.
CNGA1	Unknown	Varianti nel gene CNGA1 sono associate a Retinite pigmentosa 49 (OMIM 613756) a trasmissione autosomica recessiva.
CNGA3	Unknown	Varianti nel gene CNGA3 sono associate a Acromatopsia 2 (OMIM 216900) a trasmissione autosomica recessiva.
CNGB1	Unknown	Varianti nel gene CNGB1 sono associate a Retinite pigmentosa 45 (OMIM 613767) a trasmissione autosomica recessiva.
CNGB3	Unknown	Varianti nel gene CNGB3 sono associate a Acromatopsia 3 (OMIM 262300) a trasmissione autosomica recessiva.
COL11A1	Unknown	Varianti nel gene COL11A1 sono associate a Fibrocondrogenesi 1 (OMIM 228520), a trasmissione autosomica recessiva e a Sindrome di Marshall (OMIM 154780) e a Sindrome di Stickler, tipo II (OMIM 604841) e a Ipoacusia 37 (OMIM 618533) a trasmissione autosomica dominante.
COL2A1	Unknown	Varianti nel gene COL2A1 sono associate a Acondrogenesi tipo II, o ipocondrogenesi (OMIM 200610) e a Necrosi avascolare della testa del femore (OMIM 608805) e a Displasia Ceca, tipo metatarsico (OMIM 609162) e a Displasia epifisaria multipla, con miopia e ipoacusia (OMIM 132450) e a Displasia di Kniest (OMIM 156550) e a Malattia di Legg-Calvé-Perthes (OMIM 150600) e a Osteoartrite a esordio precoce con lieve displasia spondiloepifisaria (OMIM 604864) e a Displasia scheletrica platispondilica, tipo Torrance (OMIM 151210) e a Displasia spondiloepifisaria congenita (OMIM 183900) e a Displasia spondiloepimetafisaria, tipo Strudwick (OMIM 184250) e a Displasia spondiloepifisaria, tipo Stanescu (OMIM 616583) e a Displasia spondiloperiferica (OMIM 271700) e a Sindrome di Stickler, tipo I, oculare nonsindromica (OMIM 609508) e a Sindrome di Stickler, tipo I (OMIM 108300) a trasmissione autosomica dominante e a Displasia otospondilomegaepifisaria (OMIM 215150), a trasmissione autosomica recessiva.
COL8A2	Unknown	Varianti nel gene COL8A2 sono associate a Distrofia corneale endoteliale di Fuchs 1 (OMIM 136800) e a Distrofia corneale polimorfica posteriore 2 (OMIM 609140) a trasmissione autosomica dominante.
CRB1	Unknown	Varianti nel gene CRB1 sono associate a Atrofia corioretinica paravenosa pigmentata (OMIM 172870), a trasmissione autosomica dominante e a Amaurosi congenita di Leber 8 (OMIM 613835) e a Retinite pigmentosa 12 (OMIM 600105) a trasmissione autosomica recessiva.
CRX	Unknown	Varianti nel gene CRX sono associate a Amaurosi congenita di Leber 7 (OMIM 613829), a trasmissione autosomica dominante e autosomica recessiva e a Distrofia retinica dei coni e dei bastoncelli 2 (OMIM 120970), a trasmissione autosomica dominante.
CRYAA	Unknown	Varianti nel gene CRYAA sono associate a Cataratta 9, tipi multipli (OMIM 604219) a trasmissione autosomica dominante e autosomica recessiva.
CRYAB	Unknown	Varianti nel gene CRYAB sono associate a Cardiomiopatia dilatativa 1II (OMIM 615184) e a Miopatia miofibrillare 2 (OMIM 608810) a trasmissione autosomica dominante e a Cataratta 16, tipi multipli (OMIM 613763), a trasmissione autosomica dominante e autosomica recessiva e a Miopatia a esordio tardivo correlata alla alfa - B cristallina (OMIM 613869), a trasmissione autosomica recessiva.
CRYBA1	Unknown	Varianti nel gene CRYBA1 sono associate a Cataratta 10, tipi multipli (OMIM 600881) a trasmissione autosomica dominante.
CRYBA2	Unknown	Varianti nel gene CRYBA2 sono associate a Cataratta 42 (OMIM 115900) a trasmissione autosomica dominante.
CRYBA4	Unknown	Varianti nel gene CRYBA4 sono associate a Cataratta 23 (OMIM 610425) a trasmissione autosomica dominante.
CRYBB1	Unknown	Varianti nel gene CRYBB1 sono associate a Cataratta 17, tipi multipli (OMIM 611544) a trasmissione autosomica dominante e autosomica recessiva.
CRYBB2	Unknown	Varianti nel gene CRYBB2 sono associate a Cataratta 3, tipi multipli (OMIM 601547) a trasmissione autosomica dominante.
CRYBB3	Unknown	Varianti nel gene CRYBB3 sono associate a Cataratta 22 (OMIM 609741) a trasmissione autosomica dominante e autosomica recessiva.
CRYGB	Unknown	Varianti nel gene CRYGB sono associate a Cataratta 39, tipi multipli (OMIM 615188) a trasmissione autosomica dominante.
CRYGC	Unknown	Varianti nel gene CRYGC sono associate a Cataratta 2 tipi multipli (OMIM 604307) a trasmissione autosomica dominante.
CRYGD	Unknown	Varianti nel gene CRYGD sono associate a Cataratta 4, tipi multipli (OMIM 115700) a trasmissione autosomica dominante.
CRYGS	Unknown	Varianti nel gene CRYGS sono associate a Cataratta 20, tipi multipli (OMIM 116100) a trasmissione autosomica dominante.
CTNNA1	Unknown	Varianti nel gene CTNNA1 sono associate a Distrofia maculare a pattern 2 (OMIM 608970) a trasmissione autosomica dominante.
CWC27	Unknown	Varianti nel gene CWC27 sono associate a Retinite pigmentosa con o senza anomalie scheletriche (OMIM 250410) a trasmissione autosomica recessiva.
CYP1B1	Unknown	Varianti nel gene CYP1B1 sono associate a Glaucoma ad angolo aperto primitivo 3A, congenito, giovanile, o ad insorgenza tardiva (OMIM 231300) e a Disgenesia del segmento anteriore 6, sottotipi multipli (OMIM 617315) a trasmissione autosomica recessiva.
CYP4V2	Unknown	Varianti nel gene CYP4V2 sono associate a Distrofia corneo-retinica del cristallino di Bietti (OMIM 210370) a trasmissione autosomica recessiva.
DCN	Unknown	Varianti nel gene DCN sono associate a Distrofia corneale stromale congenita (OMIM 610048) a trasmissione autosomica dominante.
DHDDS	Unknown	Varianti nel gene DHDDS sono associate a Retinite pigmentosa 59 (OMIM 613861) e a Difetto congenito della glicosilazione, tipo 1bb (OMIM 613861) a trasmissione autosomica recessiva e a Ritardo dello sviluppo ed epilessia, con o senza anormalità del movimento (OMIM 617836), a trasmissione autosomica dominante.
DNM1L	Unknown	Varianti nel gene DNM1L sono associate a Encefalopatia letale da difetto della fissione dei mitocondri e dei perossisomi (OMIM 614388), a trasmissione autosomica dominante e autosomica recessiva e a Atrofia ottica 5 (OMIM 610708), a trasmissione autosomica dominante.
DRAM2	Unknown	Varianti nel gene DRAM2 sono associate a Distrofia dei coni e dei bastoncelli 21 (OMIM 616502) a trasmissione autosomica recessiva.
EFEMP1	Unknown	Varianti nel gene EFEMP1 sono associate a Distrofia retinica a nido d'ape di Doyne (OMIM 126600) a trasmissione autosomica dominante.
ELOVL4	Unknown	Varianti nel gene ELOVL4 sono associate a Ittiosi, tetraplegia spastica, e disabilità intellettiva (OMIM 614457), a trasmissione autosomica recessiva e a Atassia spinocerebellare 34 (OMIM 133190) e a Malattia di Stargardt 3 (OMIM 600110) a trasmissione autosomica dominante.
EPHA2	Unknown	Varianti nel gene EPHA2 sono associate a Cataratta 6, tipi multipli (OMIM 116600) a trasmissione autosomica dominante.
EYA1	Unknown	Varianti nel gene EYA1 sono associate a Sindrome branchio-oto-renale 1, con o senza cataratta (OMIM 113650) e a Sindrome brachio-auricolare 1 (OMIM 602588) e a Anomalie del segmento anteriore dell'occhio con o senza cataratta (OMIM 602588) e a Sindrome oto-facio-cervicale (OMIM 166780) a trasmissione autosomica dominante.
EYS	Unknown	Varianti nel gene EYS sono associate a Retinite pigmentosa 25 (OMIM 602772) a trasmissione autosomica recessiva.
FAM161A	Unknown	Varianti nel gene FAM161A sono associate a Retinite pigmentosa 28 (OMIM 606068) a trasmissione autosomica recessiva.
FLVCR1	Unknown	Varianti nel gene FLVCR1 sono associate a Atassia del cordone posteriore con retinite pigmentosa (OMIM 609033) a trasmissione autosomica recessiva.
FOXE3	Unknown	Varianti nel gene FOXE3 sono associate a Disgenesia mesenchimale del segmento anteriore dell'occhio (OMIM 107250) e a Cataratta 34, tipi multipli (OMIM 612968) a trasmissione autosomica recessiva.
FRMD7	Unknown	Varianti nel gene FRMD7 sono associate a Nistagmo infantile periodico alterno (OMIM 310700) e a Nistagmo congenito 1 (OMIM 310700) a trasmissione X-linked.
FSCN2	Unknown	Varianti nel gene FSCN2 sono associate a Retinite pigmentosa 30 (OMIM 607921) a trasmissione autosomica dominante.
FTL	Unknown	Varianti nel gene FTL sono associate a Deficit di L-ferritina (OMIM 615604), a trasmissione autosomica dominante e autosomica recessiva e a Iperferritinemia ereditaria con cataratte congenite (OMIM 600886) e a Neuroferritinopatia (OMIM 606159) a trasmissione autosomica dominante.
FYCO1	Unknown	Varianti nel gene FYCO1 sono associate a Cataratta 18 (OMIM 610019) a trasmissione autosomica recessiva.
FZD4	Unknown	Varianti nel gene FZD4 sono associate a Vitreoretinopatia essudativa (OMIM 133780) e a Retinopatia del prematuro (OMIM 133780) a trasmissione autosomica dominante.
FZD5	Unknown	Varianti nel gene FZD5 sono associate a Coloboma (OMIM [PMID: 26908622]) a trasmissione autosomica dominante.
GALK1	Unknown	Varianti nel gene GALK1 sono associate a Deficit di galattochinasi con cataratta (OMIM 230200) a trasmissione autosomica recessiva.
GCNT2	Unknown	Varianti nel gene GCNT2 sono associate a Cataratta 13, con fenotipo i dell'adulto (OMIM 116700) a trasmissione autosomica dominante.
GDF6	Unknown	Varianti nel gene GDF6 sono associate a Sindrome di Klippel-Feil 1 (OMIM 118100) e a Microftalmia isolata 4 (OMIM 613094) e a Sindrome da sinostosi multiple 4 (OMIM 617898) a trasmissione autosomica dominante e a Amaurosi congenita di Leber 17 (OMIM 615360), a trasmissione autosomica recessiva e a Microftalmia con coloboma 6 (OMIM 613703), a trasmissione autosomal dominant; digenic.
GJA3	Unknown	Varianti nel gene GJA3 sono associate a Cataratta 14, tipi multipli (OMIM 601885) a trasmissione autosomica dominante.
GJA8	Unknown	Varianti nel gene GJA8 sono associate a Cataratta 1, tipi multipli (OMIM 116200) a trasmissione autosomica dominante.
GNAT1	Unknown	Varianti nel gene GNAT1 sono associate a Cecità notturna congenita stazionaria 3 (OMIM 610444), a trasmissione autosomica dominante e a Cecità notturna congenita stazionaria tipo 1G (OMIM 616389), a trasmissione autosomica recessiva.
GNAT2	Unknown	Varianti nel gene GNAT2 sono associate a Acromatopsia 4 (OMIM 613856) a trasmissione autosomica recessiva.
GNB3	Unknown	Varianti nel gene GNB3 sono associate a Cecità notturna congenita stazionaria type 1H (OMIM 617024) a trasmissione autosomica recessiva.
GPR143	Unknown	Varianti nel gene GPR143 sono associate a Nistagmo congenito 6 (OMIM 300814), a trasmissione X-linked recessiva e a Albinismo oculare, tipo Nettleship-Falls (OMIM 300500), a trasmissione X-linked.
GPR179	Unknown	Varianti nel gene GPR179 sono associate a Cecità notturna congenita stazionaria congenita (OMIM completa), 1E (614565) a trasmissione autosomica recessiva.
GRK1	Unknown	Varianti nel gene GRK1 sono associate a Malattia di Oguchi-2 (OMIM 613411) a trasmissione autosomica recessiva.
GRM6	Unknown	Varianti nel gene GRM6 sono associate a Cecità notturna congenita stazionaria (OMIM completa), 1B (257270) a trasmissione autosomica recessiva.
GSN	Unknown	Varianti nel gene GSN sono associate a Amiloidosi, tipo finlandese (OMIM 105120) a trasmissione autosomica dominante.
GUCA1A	Unknown	Varianti nel gene GUCA1A sono associate a Distrofia dei coni e dei bastoncelli 14 (OMIM 602093) e a Distrofia dei coni 3 (OMIM 602093) a trasmissione autosomica dominante.
GUCA1B	Unknown	Varianti nel gene GUCA1B sono associate a Retinite pigmentosa 48 (OMIM 613827) a trasmissione autosomica dominante.
GUCY2D	Unknown	Varianti nel gene GUCY2D sono associate a Distrofia dei coni 6 (OMIM 601777), a trasmissione autosomica dominante e autosomica recessiva e a Distrofia coroidale areolare centrale 1 (OMIM 215500), a trasmissione autosomica dominante e a Amaurosi congenita di Leber 1 (OMIM 204000) e a Cecità notturna congenita stazionaria, tipo 1I (OMIM 618555) a trasmissione autosomica recessiva.
HARS1	Unknown	Varianti nel gene HARS1 sono associate a Malattia di Charcot-Marie-Tooth assonale, tipo 2W (OMIM 616625), a trasmissione autosomica dominante e a Sindrome di Usher tipo 3B (OMIM 614504), a trasmissione autosomica recessiva.
HGSNAT	Unknown	Varianti nel gene HGSNAT sono associate a Mucopolisaccaridosi tipo IIIC (OMIM Sanfilippo C) (252930) e a Retinite pigmentosa 73 (OMIM 616544) a trasmissione autosomica recessiva.
HK1	Unknown	Varianti nel gene HK1 sono associate a Anemia emolitica non sferocitica da deficit di esochinasi (OMIM 235700) e a Neuropatia motoria e sensoriale ereditaria, tipo Russe (OMIM 605285) a trasmissione autosomica recessiva e a Retinite pigmentosa 79 (OMIM 617460) e a Disturbo del neurosviluppo con difetti visivi e anomalie cerebrali (OMIM 618547) a trasmissione autosomica dominante.
HOXA1	Unknown	Varianti nel gene HOXA1 sono associate a Sindrome di Bosley-Salih-Alorainy (OMIM 601536) a trasmissione autosomica recessiva.
HOXB1	Unknown	Varianti nel gene HOXB1 sono associate a Paresi facciale ereditaria congenita, 3 (OMIM 614744) a trasmissione autosomica recessiva.
HSF4	Unknown	Varianti nel gene HSF4 sono associate a Cataratta 5, tipi multipli (OMIM 116800) a trasmissione autosomica dominante.
IDH3A	Unknown	Varianti nel gene IDH3A sono associate a Retinite Pigmentosa con Pseudocoloboma (OMIM 619007) a trasmissione autosomica recessiva.
IDH3B	Unknown	Varianti nel gene IDH3B sono associate a Retinite pigmentosa 46 (OMIM 612572) a trasmissione autosomica recessiva.
IFT140	Unknown	Varianti nel gene IFT140 sono associate a Displasia toracica costa-corta 9, con o senza polidattilia (OMIM 266920) e a Retinite pigmentosa 80 (OMIM 617781) a trasmissione autosomica recessiva.
IFT172	Unknown	Varianti nel gene IFT172 sono associate a Retinite pigmentosa 71 (OMIM 616394) e a Displasia toracica costa-corta 10, con o senza polidattilia (OMIM 615630) a trasmissione autosomica recessiva.
IFT27	Unknown	Varianti nel gene IFT27 sono associate a Sindrome di Bardet-Biedl 19 (OMIM 615996) a trasmissione autosomica recessiva.
IFT74	Unknown	Varianti nel gene IFT74 sono associate a Sindrome di Bardet-Biedl 22 (OMIM 617119) a trasmissione autosomica recessiva.
IFT81	Unknown	Varianti nel gene IFT81 sono associate a Displasia toracica costa-corta 19, con o senza polidattilia (OMIM 617895) a trasmissione autosomica recessiva.
IMPDH1	Unknown	Varianti nel gene IMPDH1 sono associate a Amaurosi congenita di Leber 11 (OMIM 613837) e a Retinite pigmentosa 10 (OMIM 180105) a trasmissione autosomica dominante.
IMPG1	Unknown	Varianti nel gene IMPG1 sono associate a Distrofia maculare vitelliforme, 4 (OMIM 616151) a trasmissione autosomica dominante.
IMPG2	Unknown	Varianti nel gene IMPG2 sono associate a Retinite pigmentosa 56 (OMIM 613581), a trasmissione autosomica recessiva e a Distrofia maculare vitelliforme, 5 (OMIM 616152), a trasmissione autosomica dominante.
INPP5E	Unknown	Varianti nel gene INPP5E sono associate a Deficit cognitivo - obesità del tronco - distrofia retinica - micropene (OMIM 610156) e a Sindrome di Joubert 1 (OMIM 213300) a trasmissione autosomica recessiva.
INVS	Unknown	Varianti nel gene INVS sono associate a Nefronoftisi 2, infantile (OMIM 602088) a trasmissione autosomica recessiva.
IQCB1	Unknown	Varianti nel gene IQCB1 sono associate a Sindrome di Senior-Loken 5 (OMIM 609254) a trasmissione autosomica recessiva.
KCNJ13	Unknown	Varianti nel gene KCNJ13 sono associate a Amaurosi congenita di Leber 16 (OMIM 614186), a trasmissione autosomica recessiva e a Degenerazione vitreoretinica a fiocchi di neve (OMIM 193230), a trasmissione autosomica dominante.
KCNV2	Unknown	Varianti nel gene KCNV2 sono associate a Distrofia dei coni 3B (OMIM 610356) a trasmissione autosomica recessiva.
KIAA1549	Unknown	Varianti nel gene KIAA1549 sono associate a Retinite pigmentosa 86 (OMIM 618613) a trasmissione autosomica recessiva.
KIF21A	Unknown	Varianti nel gene KIF21A sono associate a Fibrosi congenita dei muscoli extraoculari,1 e 3B (OMIM 135700) a trasmissione autosomica dominante.
KIZ	Unknown	Varianti nel gene KIZ sono associate a Retinite pigmentosa 69 (OMIM 615780) a trasmissione autosomica recessiva.
KLHL7	Unknown	Varianti nel gene KLHL7 sono associate a Retinite pigmentosa 42 (OMIM 612943), a trasmissione autosomica dominante e a Sindrome di PERCHING (OMIM 617055), a trasmissione autosomica recessiva.
KRT12	Unknown	Varianti nel gene KRT12 sono associate a Distrofia corneale di Meesmann 1 (OMIM 122100) a trasmissione autosomica dominante.
KRT3	Unknown	Varianti nel gene KRT3 sono associate a Distrofia corneale di Meesmann 2 (OMIM 122100) a trasmissione autosomica dominante.
LCA5	Unknown	Varianti nel gene LCA5 sono associate a Amaurosi congenita di Leber 5 (OMIM 604537) a trasmissione autosomica recessiva.
LEMD2	Unknown	Varianti nel gene LEMD2 sono associate a Cataratta 46, ad esordio giovanile (OMIM 212500) a trasmissione autosomica recessiva.
LIM2	Unknown	Varianti nel gene LIM2 sono associate a Cataratta 19, tipi multipli (OMIM 615277) a trasmissione autosomica recessiva.
LRAT	Unknown	Varianti nel gene LRAT sono associate a Retinite pigmentosa ed esordio giovanile (OMIM 613341) e a Distrofia retinica ad insorgenza precoce severa (OMIM 613341) e a Amaurosi congenita di Leber 14 (OMIM 613341) a trasmissione autosomica recessiva.
LRIT3	Unknown	Varianti nel gene LRIT3 sono associate a Cecità notturna congenita stazionaria (OMIM completa), 1F (615058) a trasmissione autosomica recessiva.
LRMDA	Unknown	Varianti nel gene LRMDA sono associate a Albinismo occulocutaneo, tipo VII (OMIM 615179) a trasmissione autosomica recessiva.
LRP2	Unknown	Varianti nel gene LRP2 sono associate a Sindrome di Donnai-Barrow (OMIM 222448) a trasmissione autosomica recessiva.
LRP5	Unknown	Varianti nel gene LRP5 sono associate a Vitreoretinopatia essudativa 4 (OMIM 601813), a trasmissione autosomica dominante e autosomica recessiva e a Osteopetrosi 1 (OMIM 607634) e a Suscettibilità a Osteoporosi (OMIM 166710),  e a Osteosclerosi (OMIM 144750) e a Iperostosi endostale  (OMIM 144750) e a Malattia epatica policistica 4, con o senza cisti renali (OMIM 617875) e a Malattia di van Buchem, tipo 2 (OMIM 607636) a trasmissione autosomica dominante e a Sindrome osteoporosi-pseudoglioma (OMIM 259770), a trasmissione autosomica recessiva.
LRPAP1	Unknown	Varianti nel gene LRPAP1 sono associate a Miopia 23 (OMIM 615431) a trasmissione autosomica recessiva.
LSS	Unknown	Varianti nel gene LSS sono associate a Cataratta 44 (OMIM 616509) e a Sindrome Alopecia-disabilità intellettiva 4 (OMIM 618840) e a Ipotricosi 14 (OMIM 618275) a trasmissione autosomica recessiva.
LTBP2	Unknown	Varianti nel gene LTBP2 sono associate a Glaucoma 3 primitivo congenito D (OMIM 613086) e a Sindrome di Weill-Marchesani 3 (OMIM 614819) e a Glaucoma secondario a sferofachia/dislocazione del cristallino e megalocornea (OMIM 251750) a trasmissione autosomica recessiva.
LZTFL1	Unknown	Varianti nel gene LZTFL1 sono associate a Sindrome di Bardet-Biedl 17 (OMIM 615994) a trasmissione autosomica recessiva.
MAF	Unknown	Varianti nel gene MAF sono associate a Sindorme di Ayme-Gripp (OMIM 601088) e a Cataratta 21, tipi multipli (OMIM 610202) a trasmissione autosomica dominante.
MAK	Unknown	Varianti nel gene MAK sono associate a Reinite pigmentosa 62 (OMIM 614181) a trasmissione autosomica recessiva.
MAPKAPK3	Unknown	Varianti nel gene MAPKAPK3 sono associate a Distrofia Maculare a pattern, 3 (OMIM 617111) a trasmissione autosomica dominante.
MERTK	Unknown	Varianti nel gene MERTK sono associate a Retinite pigmentosa 38 (OMIM 613862) a trasmissione autosomica recessiva.
MFRP	Unknown	Varianti nel gene MFRP sono associate a Microftalmia isolata 5 (OMIM 611040) e a Nanoftalmia 2 (OMIM 609549) a trasmissione autosomica recessiva.
MIP	Unknown	Varianti nel gene MIP sono associate a Cataratta 15, tipi multipli (OMIM 615274) a trasmissione autosomica dominante.
MKKS	Unknown	Varianti nel gene MKKS sono associate a Sindrome di McKusick-Kaufman (OMIM 236700) e a Sindrome di Bardet-Biedl 6 (OMIM 605231) a trasmissione autosomica recessiva.
MKS1	Unknown	Varianti nel gene MKS1 sono associate a Sindrome di Bardet-Biedl 13 (OMIM 615990) e a Sindrome di Meckel 1 (OMIM 249000) e a Sindrome di Joubert 28 (OMIM 617121) a trasmissione autosomica recessiva.
MYO7A	Unknown	Varianti nel gene MYO7A sono associate a Ipoacusia 11 (OMIM 601317), a trasmissione autosomica dominante e a Ipoacusia 2 (OMIM 600060) e a Sindrome di Usher, tipo 1B (OMIM 276900) a trasmissione autosomica recessiva.
MYOC	Unknown	Varianti nel gene MYOC sono associate a Glaucoma primitivo ad angolo aperto 1A (OMIM 137750) a trasmissione autosomica dominante.
NDP	Unknown	Varianti nel gene NDP sono associate a Malattia di Norrie (OMIM 310600), a trasmissione X-linked recessiva e a Vitreoretinopatia essudativa 2 (OMIM 305390), a trasmissione X-linked dominante e X-linked recessiva.
NEK2	Unknown	Varianti nel gene NEK2 sono associate a Retinite pigmentosa 67 (OMIM 615565) a trasmissione autosomica recessiva.
NHS	Unknown	Varianti nel gene NHS sono associate a Sindrome di Nance-Horan (OMIM 302350), a trasmissione X-linked dominante e a Cataratta 40 (OMIM 302200), a trasmissione X-linked.
NLRP1	Unknown	Varianti nel gene NLRP1 sono associate a Malattia autoinfiammatoria con artrite e discheratosi (OMIM 617388), a trasmissione autosomica dominante e autosomica recessiva e a Papillomatosi respiratoria congenita giovanile ricorrente  (OMIM 618803), a trasmissione autosomica recessiva e a Sindrome da discheratosi intraepiteliale corneale, ipercheratosi palmoplantare e discheratosi laringea (OMIM 615225), a trasmissione autosomica dominante.
NMNAT1	Unknown	Varianti nel gene NMNAT1 sono associate a Amaurosi congenita di Leber 9 (OMIM 608553) a trasmissione autosomica recessiva.
NPHP1	Unknown	Varianti nel gene NPHP1 sono associate a Sindrome di Joubert 4 (OMIM 609583) e a Nefronoftisi 1 ad esordio giovanile (OMIM 256100) e a Sindorme di Senior-Loken-1 (OMIM 266900) a trasmissione autosomica recessiva.
NPHP3	Unknown	Varianti nel gene NPHP3 sono associate a Sindrome di Meckel 7 (OMIM 267010) e a Nefronoftisi 3 (OMIM 604387) e a Displasia renale-epatico-pancreatica 1 (OMIM 208540) a trasmissione autosomica recessiva.
NPHP4	Unknown	Varianti nel gene NPHP4 sono associate a Nefronoftisi 4 (OMIM 606966) e a Sindrome di Senior-Loken 4 (OMIM 606996) a trasmissione autosomica recessiva.
NR2E3	Unknown	Varianti nel gene NR2E3 sono associate a Sindrome da aumento dei coni S (OMIM 268100), a trasmissione autosomica recessiva e a Retinite pigmentosa 37 (OMIM 611131), a trasmissione autosomica dominante e autosomica recessiva.
NRL	Unknown	Varianti nel gene NRL sono associate a Retinite pigmentosa 27 (OMIM 613750) a trasmissione autosomica dominante.
NTF4	Unknown	Varianti nel gene NTF4 sono associate a Glaucoma 1, ad angolo aperto, 1O (OMIM 613100) a trasmissione autosomica dominante.
NYX	Unknown	Varianti nel gene NYX sono associate a Cecità notturna congenita stazionaria (OMIM completa), 1A (310500) a trasmissione X-linked recessiva.
OAT	Unknown	Varianti nel gene OAT sono associate a Atrofia girata della coroide e della retina con o senza iperornitinemia (OMIM 258870) a trasmissione autosomica recessiva.
OCA2	Unknown	Varianti nel gene OCA2 sono associate a Albinismo occulocutaneo tipo II (OMIM 203200) a trasmissione autosomica recessiva.
OFD1	Unknown	Varianti nel gene OFD1 sono associate a Retinite pigmentosa 23 (OMIM 300424) e a Sindorme di Joubert 10 (OMIM 300804) e a Sindrome di Simpson-Golabi-Behmel, type 2 (OMIM 300209) a trasmissione X-linked recessiva e a Sindrome oro-facio-digitale I (OMIM 311200), a trasmissione X-linked dominante.
OPA1	Unknown	Varianti nel gene OPA1 sono associate a Atrofia ottica 1 (OMIM 165500) e a Sindrome dell'atrofia ottica plus (OMIM 125250) a trasmissione autosomica dominante e a Sindorme di Behr (OMIM 210000), a trasmissione autosomica recessiva.
OPA3	Unknown	Varianti nel gene OPA3 sono associate a Atrofia ottica 3 con Cataratta (OMIM 165300), a trasmissione autosomica dominante e a Aciduria 3-metilglutaconica, tipo III (OMIM 258501), a trasmissione autosomica recessiva.
OPTN	Unknown	Varianti nel gene OPTN sono associate a Sclerosi amiotrofica laterale 12 (OMIM 613435), a trasmissione autosomica dominante e autosomica recessiva e a Glaucoma 1 ad angolo aperto E (OMIM 137760), a trasmissione autosomica dominante.
OTX2	Unknown	Varianti nel gene OTX2 sono associate a Microftalmia sindromica 5 (OMIM 610125) e a Deficit combinato dell'ormone pituitario, 6 (OMIM 613986) e a Distrofia retinica ad esordio precoce, con o senza disfunzione pituitaria (OMIM 610125) a trasmissione autosomica dominante.
P3H2	Unknown	Varianti nel gene P3H2 sono associate a Miopia elevata con cataratta e degenerazione vitreoretinica (OMIM 614292) a trasmissione autosomica recessiva.
PAX6	Unknown	Varianti nel gene PAX6 sono associate a Sindrome di Gillespie (OMIM 206700), a trasmissione autosomica recessiva e a Anomalia del disco ottico “Morning glory” (OMIM 120430) e a Aniridia (OMIM 106210) e a Coloboma oculare (OMIM 120200) e a Ipoplasia della fovea 1 (OMIM 136520) e a Cheratite (OMIM 148190) e a Ipoplasia del nervo ottico (OMIM 165550) e a Disgenesia del segmento anteriore dell'occhio 5, sottotipi multipli (OMIM 604229) e a Cataratta con distrofia corneale a esordio tardivo (OMIM 106210) a trasmissione autosomica dominante.
PCARE	Unknown	Varianti nel gene PCARE sono associate a Retinite pigmentosa 54 (OMIM 613428) a trasmissione autosomica recessiva.
PCDH15	Unknown	Varianti nel gene PCDH15 sono associate a Sindrome di Usher, tipo 1D/F digenica (OMIM 601067), a trasmissione digenic recessive; autosomal recessive e a Ipoacusia 23 (OMIM 609533) e a Sindrome di Usher, tipo 1F (OMIM 602083) a trasmissione autosomica recessiva.
PCYT1A	Unknown	Varianti nel gene PCYT1A sono associate a Displasia spondilometafisaria con distrofia dei coni e dei bastoncelli (OMIM 608940) a trasmissione autosomica recessiva.
PDE6A	Unknown	Varianti nel gene PDE6A sono associate a Retinite pigmentosa 43 (OMIM 613810) a trasmissione autosomica recessiva.
PDE6B	Unknown	Varianti nel gene PDE6B sono associate a Cecità notturna congenita stazionaria 2 (OMIM 163500), a trasmissione autosomica dominante e a Retinite pigmentosa 40 (OMIM 613801), a trasmissione autosomica recessiva.
PDE6C	Unknown	Varianti nel gene PDE6C sono associate a Distrofia dei coni 4 (OMIM 613093) a trasmissione autosomica recessiva.
PDE6G	Unknown	Varianti nel gene PDE6G sono associate a Retinite pigmentosa 57 (OMIM 613582) a trasmissione autosomica recessiva.
PDE6H	Unknown	Varianti nel gene PDE6H sono associate a Acromatopsia 6 (OMIM 610024) e a Distrofia retinica dei coni 3 (OMIM 610024) a trasmissione autosomica dominante e autosomica recessiva.
PDZD7	Unknown	Varianti nel gene PDZD7 sono associate a Ipoacusia 57 (OMIM 618003), a trasmissione autosomica recessiva e a Sindrome di Usher, tipo IIC, GPR98/PDZD7 digenica (OMIM 605472), a trasmissione autosomica recessiva e digenica.
PEX7	Unknown	Varianti nel gene PEX7 sono associate a Difetto della biogenesi dei perossisomi 9B (OMIM 614879) → non mi torna l’omim --> è corretto l'OMIM e a Condrodisplasia puntata rizomelica, di tipo 1 (OMIM 215100) a trasmissione autosomica recessiva.
PHOX2A	Unknown	Varianti nel gene PHOX2A sono associate a Fibrosi congenita dei muscoli extraoculari 2 (OMIM 602078) a trasmissione autosomica recessiva.
PHYH	Unknown	Varianti nel gene PHYH sono associate a Malattia di Refsum (OMIM 266500) a trasmissione autosomica recessiva.
PIKFYVE	Unknown	Varianti nel gene PIKFYVE sono associate a Distrofia corneale a macchie (OMIM 121850) a trasmissione autosomica dominante.
PITPNM3	Unknown	Varianti nel gene PITPNM3 sono associate a Distrofia dei coni e dei bastoncelli 5 (OMIM 600977) a trasmissione autosomica dominante.
PITX3	Unknown	Varianti nel gene PITX3 sono associate a Cataratta 11, tipi multipli (OMIM 610623) e a Cataratta 11, sindromica (OMIM 610623) a trasmissione autosomica dominante e autosomica recessiva e a Disgenesia mesenchimale del segmento anteriore dell'occhio (OMIM 107250), a trasmissione autosomica dominante.
POC1B	Unknown	Varianti nel gene POC1B sono associate a Distrofia dei coni e dei bastoncelli 20 (OMIM 615973) a trasmissione autosomica recessiva.
POMGNT1	Unknown	Varianti nel gene POMGNT1 sono associate a Distrofia muscolare da distroglicanopatia (OMIM congenita con anomalie del cervello e degli arti), tipo A, 3 (253280) e a Distrofia muscolare da distroglicanopatia (OMIM congenita con disabilità intellettiva), tipo B, 3 (613151) e a Distrofia muscolare distroglicanopatia dei cingoli, tipo C, 3 (OMIM 613157) e a Retinite pigmentosa 76 (OMIM 617123) a trasmissione autosomica recessiva.
PRCD	Unknown	Varianti nel gene PRCD sono associate a Retinite pigmentosa 36 (OMIM 610599) a trasmissione autosomica recessiva.
PRDM5	Unknown	Varianti nel gene PRDM5 sono associate a Sindrome della cornea fragile 2 (OMIM 614170) a trasmissione autosomica recessiva.
PROM1	Unknown	Varianti nel gene PROM1 sono associate a Retinite pigmentosa 41 (OMIM 612095), a trasmissione autosomica recessiva e a Distrofia dei coni e dei bastoncelli 12 (OMIM 612657), a trasmissione autosomica dominante e autosomica recessiva e a Distrofia maculare retinica, 2 (OMIM 608051) e a Malattia di Stargardt 4 (OMIM 603786) a trasmissione autosomica dominante.
PRPF3	Unknown	Varianti nel gene PRPF3 sono associate a Retinite pigmentosa 18 (OMIM 601414) a trasmissione autosomica dominante.
PRPF31	Unknown	Varianti nel gene PRPF31 sono associate a Retinite pigmentosa 11 (OMIM 600138) a trasmissione autosomica dominante.
PRPF4	Unknown	Varianti nel gene PRPF4 sono associate a Retinite pigmentosa 70 (OMIM 615922) a trasmissione autosomica dominante.
PRPF6	Unknown	Varianti nel gene PRPF6 sono associate a Retinite pigmentosa 60 (OMIM 613983) a trasmissione autosomica dominante.
PRPF8	Unknown	Varianti nel gene PRPF8 sono associate a Retinite pigmentosa 13 (OMIM 600059) a trasmissione autosomica dominante.
PRPH2	Unknown	Varianti nel gene PRPH2 sono associate a Distrofia coroidale areolare centrale 2 (OMIM 613105) e a Malattia di Stargardt atipica (OMIM PMID: 22863181) e a Distrofia maculare a pattern, 1 (OMIM 169150) e a Distrofia maculare vitelliforme, 3 (OMIM 608161) a trasmissione autosomica dominante e a Retinite pigmentosa 7 e forma digenica (OMIM 608133), a trasmissione digenica e a Amaurosi congenita di Leber 18 (OMIM 608133) e a Retinite punctata albescens (OMIM 136880) a trasmissione autosomica recessiva.
PXDN	Unknown	Varianti nel gene PXDN sono associate a Disgenesia del segmento anteriore dell'occhio 7, con sclerocornea (OMIM 269400) a trasmissione autosomica recessiva.
RAB28	Unknown	Varianti nel gene RAB28 sono associate a Distrofia dei coni e dei bastoncelli 18 (OMIM 615374) a trasmissione autosomica recessiva.
RAX2	Unknown	Varianti nel gene RAX2 sono associate a Distrofia dei coni e dei bastoncelli 11 (OMIM 610381) a trasmissione autosomica dominante.
RBP3	Unknown	Varianti nel gene RBP3 sono associate a Retinite pigmentosa 66 (OMIM 615233) a trasmissione autosomica recessiva.
RCBTB1	Unknown	Varianti nel gene RCBTB1 sono associate a Distrofia retinica con o senza anomalie extraoculari (OMIM 617175) a trasmissione autosomica recessiva.
RD3	Unknown	Varianti nel gene RD3 sono associate a Amaurosi congenita di Leber 12 (OMIM 610612) a trasmissione autosomica recessiva.
RDH12	Unknown	Varianti nel gene RDH12 sono associate a Amaurosi congenita di Leber 13 (OMIM 612712), a trasmissione autosomica recessiva e a Retinite pigmentosa 53 (OMIM 612712), a trasmissione autosomica dominante e autosomica recessiva.
RDH5	Unknown	Varianti nel gene RDH5 sono associate a Fundus albipunctatus (OMIM 136880) a trasmissione autosomica dominante e autosomica recessiva.
REEP6	Unknown	Varianti nel gene REEP6 sono associate a Retinite pigmentosa 77 (OMIM 617304) a trasmissione autosomica recessiva.
RGR	Unknown	Varianti nel gene RGR sono associate a Retinite pigmentosa 44 (OMIM 613769) a trasmissione autosomica dominante e autosomica recessiva.
RHO	Unknown	Varianti nel gene RHO sono associate a Cecità notturna congenita stazionaria, 1 (OMIM 610445), a trasmissione autosomica dominante e a Retinite pigmentosa 4 (OMIM 613731) e a Retinite punctata albescens (OMIM 136880) a trasmissione autosomica dominante e autosomica recessiva.
RIMS1	Unknown	Varianti nel gene RIMS1 sono associate a Distrofia dei coni e dei bastoncelli 7 (OMIM 603649) a trasmissione autosomica dominante.
RLBP1	Unknown	Varianti nel gene RLBP1 sono associate a Distrofia retinica di Bothnia (OMIM 607475) e a Distrofia dei coni e dei bastoncelli Newfoundland (OMIM 607476) a trasmissione autosomica recessiva e a Fundus albipunctatus (OMIM 136880) e a Retinite punctata albescens (OMIM 136880) a trasmissione autosomica dominante e autosomica recessiva.
ROBO3	Unknown	Varianti nel gene ROBO3 sono associate a Paralisi dello sguardo orizzontale con scoliosi progressiva (OMIM 607313) a trasmissione autosomica recessiva.
ROM1	Unknown	Varianti nel gene ROM1 sono associate a Retinite pigmentosa 7, forma digenica (OMIM 608133) a trasmissione autosomica dominant, digenica e autosomica recessive.
RP1	Unknown	Varianti nel gene RP1 sono associate a Retinite pigmentosa 1 (OMIM 180100) a trasmissione autosomica dominante e autosomica recessiva.
RP1L1	Unknown	Varianti nel gene RP1L1 sono associate a Retinite pigmentosa 88 (OMIM 618826), a trasmissione autosomica recessiva e a Distrofia maculare occulta (OMIM 613587), a trasmissione autosomica dominante.
RP2	Unknown	Varianti nel gene RP2 sono associate a Retinite pigmentosa 2 (OMIM 312600) a trasmissione X-linked.
RP9	Unknown	Varianti nel gene RP9 sono associate a Retinite pigmentosa 9 (OMIM 180104) a trasmissione autosomica dominante.
RPE65	Unknown	Varianti nel gene RPE65 sono associate a Amaurosi congenita di Leber 2 (OMIM 204100) e a Retinite pigmentosa 20 (OMIM 613794) a trasmissione autosomica recessiva e a Retinite pigmentosa 87 con coinvolgimento coroidale (OMIM 618697), a trasmissione autosomica dominante.
RPGR	Unknown	Varianti nel gene RPGR sono associate a Distrofia dei coni e dei bastoncelli, 1 (OMIM 304020) e a Retinite pigmentosa e infezioni sinorespiratorie, con o senza ipoacusia (OMIM 300455) e a Retinite pigmentosa 3 (OMIM 300029) a trasmissione X-linked e a Degenerazione maculare atrofica (OMIM 300834), a trasmissione X-linked recessiva.
RPGRIP1	Unknown	Varianti nel gene RPGRIP1 sono associate a Distrofia dei coni e dei bastoncelli 13 (OMIM 608194) e a Amaurosi congenita di Leber 6 (OMIM 613826) a trasmissione autosomica recessiva.
RS1	Unknown	Varianti nel gene RS1 sono associate a Retinoschisi (OMIM 312700) a trasmissione X-linked recessiva.
SAG	Unknown	Varianti nel gene SAG sono associate a Retinite pigmentosa 47 (OMIM 613758) e a Malattia di Oguchi-1 (OMIM 258100) a trasmissione autosomica recessiva.
SALL2	Unknown	Varianti nel gene SALL2 sono associate a Coloboma oculare (OMIM 216820) a trasmissione autosomica recessiva.
SALL4	Unknown	Varianti nel gene SALL4 sono associate a Sindrome della retrazione di Duane con anomalie del raggio radiale (OMIM 607323) e a Sindrome IVIC (OMIM 147750) a trasmissione autosomica dominante.
SCAPER	Unknown	Varianti nel gene SCAPER sono associate a Disturbo dello sviluppo intellettivo e Retinite pigmentosa (OMIM 618195) a trasmissione autosomica recessiva.
SCO2	Unknown	Varianti nel gene SCO2 sono associate a Cardioencefalomiopatia infantile letale da deficit di citocromo C ossidasi 1 (OMIM 604377), a trasmissione autosomica recessiva e a Miopia 6 (OMIM 608908), a trasmissione autosomica dominante.
SDCCAG8	Unknown	Varianti nel gene SDCCAG8 sono associate a Sindrome di Bardet-Biedl 16 (OMIM 615993) e a Sindrome di Senior-Loken 7 (OMIM 613615) a trasmissione autosomica recessiva.
SEMA4A	Unknown	Varianti nel gene SEMA4A sono associate a Retinite pigmentosa 35 (OMIM 610282), a trasmissione autosomica dominante e autosomica recessiva e a Distrofia dei coni e dei bastoncelli 10 (OMIM 610283), a trasmissione autosomica recessiva.
SIPA1L3	Unknown	Varianti nel gene SIPA1L3 sono associate a Cataratta 45 (OMIM 616851) a trasmissione autosomica recessiva.
SIX6	Unknown	Varianti nel gene SIX6 sono associate a Sindrome coloboma del disco ottico-atrofia maculare-corioretinopatia (OMIM 212550) a trasmissione autosomica recessiva.
SLC16A12	Unknown	Varianti nel gene SLC16A12 sono associate a Cataratta giovanile, con microcornea e glicosuria (OMIM 612018) a trasmissione autosomica dominante.
SLC24A1	Unknown	Varianti nel gene SLC24A1 sono associate a Cecità notturna congenita stazionaria (OMIM completa), 1D (613830) a trasmissione autosomica recessiva.
SLC24A5	Unknown	Varianti nel gene SLC24A5 sono associate a Albinismo oculocutaneo, tipo VI (OMIM 113750) a trasmissione autosomica recessiva.
SLC38A8	Unknown	Varianti nel gene SLC38A8 sono associate a Ipoplasia della fovea 2, con o senza decussazione del nervo ottico e disgenesia del segmento anteriore (OMIM 609218) a trasmissione autosomica recessiva.
SLC39A5	Unknown	Varianti nel gene SLC39A5 sono associate a Miopia 24 (OMIM 615946) a trasmissione autosomica dominante.
SLC45A2	Unknown	Varianti nel gene SLC45A2 sono associate a Albinismo oculocutaneo, tipo IV (OMIM 606574) a trasmissione autosomica recessiva.
SLC4A11	Unknown	Varianti nel gene SLC4A11 sono associate a Distrofia corneale endoteliale e ipoacusia percettiva (OMIM 217400) e a Distrofia corneale endoteliale 2 (OMIM 217700) a trasmissione autosomica recessiva e a Distrofia corneale endoteliale di Fuchs, 4 (OMIM 613268), a trasmissione autosomica dominante.
SLC7A14	Unknown	Varianti nel gene SLC7A14 sono associate a Retinite pigmentosa 68 (OMIM 615725) a trasmissione autosomica recessiva.
SLITRK6	Unknown	Varianti nel gene SLITRK6 sono associate a Ipoacusia e miopia (OMIM 221200) a trasmissione autosomica recessiva.
SNRNP200	Unknown	Varianti nel gene SNRNP200 sono associate a Retinite Pigmentosa 33 (OMIM 610359) a trasmissione autosomica dominante e probabilmente recessiva (Gerth-Kahlert C, et al. Genotype-Phenotype Analysis of a Novel Recessive and a Recurrent Dominant SNRNP200 Variant Causing Retinitis Pigmentosa. Invest Ophthalmol Vis Sci. 2019) [PMID: 31260034]
SPATA7	Unknown	Varianti nel gene SPATA7 sono associate a Retinite pigmentosa giovanile (OMIM 604232) e a Amaurosi congenita di Leber 3 (OMIM 604232) a trasmissione autosomica recessiva.
TACSTD2	Unknown	Varianti nel gene TACSTD2 sono associate a Distrofia corneale, gelatinosa a goccia (OMIM 204870) a trasmissione autosomica recessiva.
TCF4	Unknown	Varianti nel gene TCF4 sono associate a Distrofia corneale endoteliale di Fuchs, 3 (OMIM 613267) e a Sindrome di Pitt-Hopkins (OMIM 610954) a trasmissione autosomica dominante.
TDRD7	Unknown	Varianti nel gene TDRD7 sono associate a Cataratta 36 (OMIM 613887) a trasmissione autosomica recessiva.
TEK	Unknown	Varianti nel gene TEK sono associate a Glaucoma 3, primitivo congenito, E (OMIM 617272) e a Malformazioni venose mucocutanee multiple (OMIM 600195) a trasmissione autosomica dominante.
TGFBI	Unknown	Varianti nel gene TGFBI sono associate a Distrofia corneale di Groenouw, tipo I (OMIM 121900), a trasmissione autosomica dominante e autosomica recessiva e a Distrofia corneale, tipo di Avellino (OMIM 607541) e a Distrofia corneale microcistica (OMIM 121820) e a Distrofia corneale stromale, tipo I (OMIM 122200) e a Distrofia corneale stomale, tipo IIIA (OMIM 608471) e a Distrofia corneale di Reis-Bucklers (OMIM 608470) e a Distrofia corneale di Thiel-Behnke (OMIM 602082) a trasmissione autosomica dominante.
TIMP3	Unknown	Varianti nel gene TIMP3 sono associate a Distrofia del fondo oculare di Sorsby (OMIM 136900) a trasmissione autosomica dominante.
TMEM126A	Unknown	Varianti nel gene TMEM126A sono associate a Atrofia ottica 7 (OMIM 612989) a trasmissione autosomica recessiva.
TOPORS	Unknown	Varianti nel gene TOPORS sono associate a Retinite pigmentosa 31 (OMIM 609923) a trasmissione autosomica dominante.
TRAF3IP1	Unknown	Varianti nel gene TRAF3IP1 sono associate a Sindrome di Senior-Loken 9 (OMIM 616629) a trasmissione autosomica recessiva.
TRIM32	Unknown	Varianti nel gene TRIM32 sono associate a Sindrome di Bardet-Biedl 11 (OMIM 615988) e a Distrofia muscolare dei cingoli, tipo 2H (OMIM 254110) a trasmissione autosomica recessiva.
TRPM1	Unknown	Varianti nel gene TRPM1 sono associate a Cecità notturna congenita stazionaria (OMIM completa), 1C (613216) a trasmissione autosomica recessiva.
TSPAN12	Unknown	Varianti nel gene TSPAN12 sono associate a Vitreoretinopatia essudativa 5 (OMIM 613310)  a trasmissione autosomica dominante e autosomica recessiva.
TTC8	Unknown	Varianti nel gene TTC8 sono associate a Retinite pigmentosa 51 (OMIM 613464) e a Sindrome di Bardet-Biedl 8 (OMIM 615985) a trasmissione autosomica recessiva.
TTLL5	Unknown	Varianti nel gene TTLL5 sono associate a Distrofia dei coni e dei bastoncelli 19 (OMIM 615860) a trasmissione autosomica recessiva.
TUBB3	Unknown	Varianti nel gene TUBB3 sono associate a Disgenesia corticale complessa con altre marformazioni cerebrali 1 (OMIM 614039) e a Fibrosi congenita dei muscoli extraoculari 3A (OMIM 600638) a trasmissione autosomica dominante.
TUBB4B	Unknown	Varianti nel gene TUBB4B sono associate a Amaurosi congenita di Leber con ipoacusia ad insorgenza precoce (OMIM 617879) a trasmissione autosomica dominante.
TULP1	Unknown	Varianti nel gene TULP1 sono associate a Amaurosi congenita di Leber 15 (OMIM 613843) e a Retinite pigmentosa 14 (OMIM 600132) a trasmissione autosomica recessiva.
TYR	Unknown	Varianti nel gene TYR sono associate a Sindrome di Waardenburg/albinismo, digenico (OMIM 103470), a trasmissione autosomica dominant, digenica e autosomica recessive e a Albinismo oculocutaneo, di tipo IA (OMIM 203100) e a Albinismo, oculocutaneo, di tipo IB (OMIM 606952) a trasmissione autosomica recessiva.
TYRP1	Unknown	Varianti nel gene TYRP1 sono associate a Albinismo oculocutaneo, di tipo III (OMIM 203290) a trasmissione autosomica recessiva.
UBIAD1	Unknown	Varianti nel gene UBIAD1 sono associate a Distrofia corneale, tipo Schnyder (OMIM 121800) a trasmissione autosomica dominante.
UNC119	Unknown	Varianti nel gene UNC119 sono associate a Distrofia dei coni e dei bastoncelli (OMIM -999) a trasmissione autosomica dominante.
UNC45B	Unknown	Varianti nel gene UNC45B sono associate a Cataratta 43 (OMIM 616279) a trasmissione autosomica dominante.
USH1C	Unknown	Varianti nel gene USH1C sono associate a Ipoacusia 18A (OMIM 602092) e a Sindrome di Usher, tipo 1C (OMIM 276904) a trasmissione autosomica recessiva.
USH1G	Unknown	Varianti nel gene USH1G sono associate a Sindrome di Usher, tipo 1G (OMIM 606943) a trasmissione autosomica recessiva.
USH2A	Unknown	Varianti nel gene USH2A sono associate a Retinite pigmentosa 39 (OMIM 613809) e a Sindrome di Usher, tipo 2A (OMIM 276901) a trasmissione autosomica recessiva.
VIM	Unknown	Varianti nel gene VIM sono associate a Cataratta pulverulenta, 30 (OMIM 116300) a trasmissione autosomica dominante.
VSX1	Unknown	Varianti nel gene VSX1 sono associate a Anomalie cranofacciali e sindrome della disgenesi del segmento anteriore dell'occhio (OMIM 614195) e a Cheratocono 1 (OMIM 148300) a trasmissione autosomica dominante.
VSX2	Unknown	Varianti nel gene VSX2 sono associate a Microftalmia con coloboma 3 (OMIM 610092) e a Microftalmia isolata 2 (OMIM 610093) a trasmissione autosomica recessiva.
WDPCP	Unknown	Varianti nel gene WDPCP sono associate a Sindrome di Bardet-Biedl 15 (OMIM 615992) e a Sindrome cardiopatia-amartoma della lingua-polisindattilia (OMIM 217085) a trasmissione autosomica recessiva.
WDR19	Unknown	Varianti nel gene WDR19 sono associate a Sindrome di Senior-Loken 8 (OMIM 616307) a trasmissione autosomica recessiva.
WDR36	Unknown	Varianti nel gene WDR36 sono associate a Glaucoma 1 ad angolo aperto, G (OMIM 609887) a trasmissione autosomica dominante.
WFS1	Unknown	Varianti nel gene WFS1 sono associate a Cataratta 41 (OMIM 116400) e a Ipoacusia 6/14/38 (OMIM 600965) e a Sindrome Wolfram-simile (OMIM 614296) a trasmissione autosomica dominante e a Sindrome di Wolfram (OMIM 222300), a trasmissione autosomica recessiva.
WHRN	Unknown	Varianti nel gene WHRN sono associate a Sindrome di Usher, tipo 2D (OMIM 611383) e a Ipoacusia 31 (OMIM 607084) a trasmissione autosomica recessiva.
YAP1	Unknown	Varianti nel gene YAP1 sono associate a Coloboma oculare, con o senza ipoacusia, labiopalatoschisi, e/o disabilità intellettiva (OMIM 120433) a trasmissione autosomica dominante.
ZEB1	Unknown	Varianti nel gene ZEB1 sono associate a Distrofia corneale endoteliale di Fuchs, 6 (OMIM 613270) e a Distrofia corneale polimorfa posteriore, 3 (OMIM 609141) a trasmissione autosomica dominante.
ZNF408	Unknown	Varianti nel gene ZNF408 sono associate a Vitreoretinopatia essudativa 6 (OMIM 616468), a trasmissione autosomica dominante e a Retinite pigmentosa 72 (OMIM 616469), a trasmissione autosomica recessiva.
ZNF469	Unknown	Varianti nel gene ZNF469 sono associate a Sindrome della cornea fragile 1 (OMIM 229200) a trasmissione autosomica recessiva.
ZNF513	Unknown	Varianti nel gene ZNF513 sono associate a Retinite pigmentosa 58 (OMIM 613617) a trasmissione autosomica recessiva.
