GENE	Citation	frase
ABCA12	Unknown	Varianti nel gene ABCA12 sono associate a Ittiosi arlecchino 4B (OMIM 245000) e a Ittiosi congenita 4A (OMIM 601277) a trasmissione autosomica recessiva.
ABCC2	Unknown	Varianti nel gene ABCC2 sono associate a Sindrome di Dubin-Johnson (OMIM 237500) a trasmissione autosomica recessiva.
ABCC8	Unknown	Varianti nel gene ABCC8 sono associate a Diabete mellito neonatale permanente 3, con o senza coinvolgimento neurologico (OMIM 618857) e a Ipoglicemia iperinsulinemica familiare 1 (OMIM 256450) a trasmissione autosomica dominante e autosomica recessiva e a Diabete mellito non insulino-dipendente (OMIM 125853), a Diabete mellito transiente neonatale 2 (OMIM 610374) e a Ipoglicemia infantile, sensibile alla leucina (OMIM 240800) a trasmissione autosomica dominante.
ABCC9	Unknown	Varianti nel gene ABCC9 sono associate a Fibrillazione atriale familiare 12 (OMIM 614050) e a Osteocondrodisplasia ipertricotica, tipo Cantu (OMIM 239850) a trasmissione autosomica dominante.
ABHD5	Unknown	Varianti nel gene ABHD5 sono associate a Sindrome di Chanarin-Dorfman (OMIM 275630) a trasmissione autosomica recessiva.
ACP4	Unknown	Varianti nel gene ACP4 sono associate a Amelogenesi imperfetta di tipo IJ (OMIM 617297) a trasmissione autosomica recessiva.
ACTC1	Unknown	Varianti nel gene ACTC1 sono associate a Difetto del setto atriale 5 (OMIM 612794), a Cardiomiopatia dilatativa 1R (OMIM 613424) e a Non compattazione del ventricolo sinistro 4 (OMIM 613424) a trasmissione autosomica dominante.
ACTN2	Unknown	Varianti nel gene ACTN2 sono associate a Cardiomiopatia ipertrofica 23 con o senza LVNC (OMIM 612158), a Cardiomiopatia dilatativa 1AA con o senza LVNC (OMIM 612158) e a Miopatia distale 6 con esordio in età adulta (OMIM 616855) a trasmissione autosomica dominante.
ADAM10	Unknown	Varianti nel gene ADAM10 sono associate a Acropigmentazione reticolata di Kitamura (OMIM 615537) a trasmissione autosomica dominante.
ADAM17	Unknown	Varianti nel gene ADAM17 sono associate a Malattia infiammatoria neonatale intestinale e cutanea 1 (OMIM 614328) a trasmissione autosomica recessiva.
ADAMTS2	Unknown	Varianti nel gene ADAMTS2 sono associate a Sindrome di Ehlers-Danlos, tipo dermatosparassia (OMIM 225410) a trasmissione autosomica recessiva.
ADAR	Unknown	Varianti nel gene ADAR sono associate a Discromatosi simmetrica ereditaria (OMIM 127400) a trasmissione autosomica dominante.
AIRE	Unknown	Varianti nel gene AIRE sono associate a Poliendocrinopatia autoimmune di tipo 1 con o senza displasia metafisaria reversibile (OMIM 240300) a trasmissione autosomica dominante e autosomica recessiva.
AKAP9	Unknown	Varianti nel gene AKAP9 sono associate a Sindrome del QT lungo 11 (OMIM 611820) a trasmissione autosomica dominante.
ALDH3A2	Unknown	Varianti nel gene ALDH3A2 sono associate a Sindrome di Sjogren-Larsson (OMIM 270200) a trasmissione autosomica recessiva.
ALOX12B	Unknown	Varianti nel gene ALOX12B sono associate a Ittiosi congenita 2 (OMIM 242100) a trasmissione autosomica recessiva.
ALOXE3	Unknown	Varianti nel gene ALOXE3 sono associate a Ittiosi congenita 3 (OMIM 606545) a trasmissione autosomica recessiva.
ALPI	Parlato M et al. Human  ALPI  deficiency  causes  inflammatory  boweldisease  and  highlights  a  key  mechanism  of  gut homeostasis. EMBO Mol Med. 2018. [PMID: 29567797]	Varianti nel gene ALPI sono associate a Malattia infiammatoria intestinale (Parlato et al. EMBO Mol Med. 2018) a trasmissione autosomica recessiva.
AMBN	Unknown	Varianti nel gene AMBN sono associate a Amelogenesi imperfetta di tipo IF (OMIM 616270) a trasmissione autosomica recessiva.
AMELX	Unknown	Varianti nel gene AMELX sono associate a Amelogenesi imperfetta di tipo IE (OMIM 301200) a trasmissione X-linked dominante.
AMTN	Unknown	Varianti nel gene AMTN sono associate a Amelogenesi imperfetta di tipo IIIB (OMIM 617607) a trasmissione autosomica dominante.
ANK2	Unknown	Varianti nel gene ANK2 sono associate a Sindrome del QT lungo 4 (OMIM 600919) a trasmissione autosomica dominante.
ANKRD1	Cirino AL, Ho C. Hypertrophic Cardiomyopathy Overview. 2008 Aug 5 [updated 2019 Jun 6]. In: Adam MP, Ardinger HH, Pagon RA, Wallace SE, Bean LJH, Stephens K, Amemiya A, editors. GeneReviewsÂ®)	Varianti nel gene ANKRD1 sono associate a Cardiomiopatia dilatativa (Cirino e Ho, GeneReviews) a trasmissione autosomica dominante.
ANTXR2	Unknown	Varianti nel gene ANTXR2 sono associate a Fibromatosi ialina infantile o giovanile (OMIM 228600) a trasmissione autosomica recessiva.
AP1S1	Unknown	Varianti nel gene AP1S1 sono associate a Sindrome MEDNIK (OMIM 609313) a trasmissione autosomica recessiva.
AP3B1	Unknown	Varianti nel gene AP3B1 sono associate a Sindrome di Hermansky-Pudlak 2 (OMIM 608233) a trasmissione autosomica recessiva.
APC	Unknown	Varianti nel gene APC sono associate a Sindrome di Gardner (OMIM 175100) a trasmissione autosomica dominante.
APPL1	Unknown	Varianti nel gene APPL1 sono associate a Diabete mellito non insulino-dipendente (OMIM 125853) a trasmissione autosomica dominante.
AQP5	Unknown	Varianti nel gene AQP5 sono associate a Cheratoderma palmoplantare tipo Bothnia (OMIM 600231) a trasmissione autosomica dominante.
ATP2A2	Unknown	Varianti nel gene ATP2A2 sono associate a Acrocheratosi verruciforme (OMIM 101900) e a Malattia di Darier (OMIM 124200) a trasmissione autosomica dominante.
ATP2C1	Unknown	Varianti nel gene ATP2C1 sono associate a Malattia di Hailey-Hailey (OMIM 169600) a trasmissione autosomica dominante.
ATP6V1B2	Unknown	Varianti nel gene ATP6V1B2 sono associate a Ipoacusia congenita con onicodistrofia (OMIM 124480) e a Sindrome di Zimmermann-Laband 2 (OMIM 616455) a trasmissione autosomica dominante.
ATP7B	Unknown	Varianti nel gene ATP7B sono associate a Malattia di Wilson (OMIM 277900) a trasmissione autosomica recessiva.
AXIN2	Unknown	Varianti nel gene AXIN2 sono associate a Sindrome oligodontia  predisposizione al cancro (OMIM 608615) a trasmissione autosomica dominante.
BAG3	Unknown	Varianti nel gene BAG3 sono associate a Cardiomiopatia dilatativa 1HH (OMIM 613881) e a Miopatia miofibrillare 6 (OMIM 612954) a trasmissione autosomica dominante.
BCOR	Unknown	Varianti nel gene BCOR sono associate a Sindrome oculo-facio-cardio-dentale (OMIM 300166) a trasmissione X-linked dominante.
BLK	Unknown	Varianti nel gene BLK sono associate a Diabete MODY di tipo 11 (OMIM 613375) a trasmissione autosomica dominante.
BLM	Unknown	Varianti nel gene BLM sono associate a Sindrome di Bloom (OMIM 210900) a trasmissione autosomica recessiva.
BLOC1S3	Unknown	Varianti nel gene BLOC1S3 sono associate a Sindrome di Hermansky-Pudlak 8 (OMIM 614077) a trasmissione autosomica recessiva.
BLOC1S6	Unknown	Varianti nel gene BLOC1S6 sono associate a Sindrome di Hermansky-Pudlak 6 (OMIM 614171) a trasmissione autosomica recessiva.
C1R	Unknown	Varianti nel gene C1R sono associate a Sindrome di Ehlers-Danlos periodontica 1 (OMIM 130080) a trasmissione autosomica dominante.
C1S	Unknown	Varianti nel gene C1S sono associate a Sindrome di Ehlers-Danlos periodontica 2 (OMIM 617174) a trasmissione autosomica dominante.
CACNA1C	Unknown	Varianti nel gene CACNA1C sono associate a Sindrome di Timothy (OMIM 601005) e a Sindrome di Brugada 3 (OMIM 611875) a trasmissione autosomica dominante.
CACNA2D1	Brugada R, Campuzano O, Sarquella-Brugada G, et al. Brugada Syndrome. 2005 Mar 31 [Updated 2016 Nov 17]. In: Adam MP, Ardinger HH, Pagon RA, et al., editors. GeneReviews® [Internet]. Seattle (WA): University of Washington, Seattle; 1993-2022. Available from: https://www.ncbi.nlm.nih.gov/sites/books/NBK1517/	Varianti nel gene CACNA2D1 sono associate a Sindrome di Brugada (Brugada et al. GeneReviews) a trasmissione autosomica dominante.
CACNB2	Unknown	Varianti nel gene CACNB2 sono associate a Sindrome di Brugada 4 (OMIM 611876) a trasmissione autosomica dominante.
CALM1	Unknown	Varianti nel gene CALM1 sono associate a Tachicardia ventricolare polimorfa catecolaminergica 4 (OMIM 614916) e a Sindrome del QT lungo 14 (OMIM 616247) a trasmissione autosomica dominante.
CALM2	Unknown	Varianti nel gene CALM2 sono associate a Sindrome del QT lungo 15 (OMIM 616249) a trasmissione autosomica dominante.
CALR3	Unknown	Varianti nel gene CALR3 sono associate a Cardiomiopatia ipertrofica 19 (OMIM 613875) a trasmissione autosomica dominante.
CASQ2	Unknown	Varianti nel gene CASQ2 sono associate a Tachicardia ventricolare polimorfa catecolaminergica 2 (OMIM 611938) a trasmissione autosomica recessiva.
CASR	Murugaian EE, Ram Kumar RM, Radhakrishnan L, Vallath B. Novel mutations in the calcium sensing receptor gene in tropical chronic pancreatitis in India. Scand J Gastroenterol. 2008 [PMID: 18938753]	Varianti nel gene CASR sono associate a Pancreatite cronica tropicale (Murugaian et al. Scand J Gastroenterol. 2008) a trasmissione autosomica dominante.
CAV3	Unknown	Varianti nel gene CAV3 sono associate a Sindrome del QT lungo 9 (OMIM 611818), a Miopatia distale, tipo Tateyama (OMIM 614321) e a Malattia da increspatura muscolare (OMIM 606072) a trasmissione autosomica dominante e a Cardiomiopatia ipertrofica familiare (OMIM 192600), a trasmissione autosomica dominante e digenica dominante.
CDSN	Unknown	Varianti nel gene CDSN sono associate a Sindrome da desquamazione cutanea 1 (OMIM 270300), a trasmissione autosomica dominante e a Ipotricosi semplice del cuoio capelluto 1 (OMIM 146520), a trasmissione autosomica dominante.
CEL	Unknown	Varianti nel gene CEL sono associate a Diabete MODY di tipo VIII (OMIM 609812) a trasmissione autosomica dominante.
CERS3	Unknown	Varianti nel gene CERS3 sono associate a Ittiosi congenita 9 (OMIM 615023) a trasmissione autosomica recessiva.
CFTR	Unknown	Varianti nel gene CFTR sono associate a Pancreatite ereditaria (OMIM 167800) a trasmissione autosomica dominante.
CITED2	Unknown	Varianti nel gene CITED2 sono associate a Difetto del setto ventricolare 2 (OMIM 614431) e a Difetto del setto atriale 8 (OMIM 614433) a trasmissione autosomica dominante.
CLDN1	Unknown	Varianti nel gene CLDN1 sono associate a Ittiosi, ipotricosi, colangite sclerosante (OMIM 607626) a trasmissione autosomica recessiva.
CNNM4	Unknown	Varianti nel gene CNNM4 sono associate a Sindrome di Jalili (OMIM 217080) a trasmissione autosomica recessiva.
COL14A1	Unknown	Varianti nel gene COL14A1 sono associate a Cheratoderma palmoplantare puntato tipo 1B (OMIM 614936) a trasmissione autosomica dominante.
COL1A1	Unknown	Varianti nel gene COL1A1 sono associate a Osteogenesi imperfetta di tipo I (OMIM 166200), a Osteogenesi imperfetta di tipo II (OMIM 166210) e a Osteogenesi imperfetta di tipo IV (OMIM 166220) a trasmissione autosomica dominante.
COL1A2	Unknown	Varianti nel gene COL1A2 sono associate a Osteogenesi imperfetta di tipo II (OMIM 166210) e a Osteogenesi imperfetta di tipo IV (OMIM 166220) a trasmissione autosomica dominante.
CPA1	Kujko  AA,  et al.   A   novel   p.Ser282Pro   CPA1   variant   is   associated   with   autosomal   dominant   hereditary   pancreatitis.   Gut.   2017 Sep;66(9):1728-1730. [PMID: 28258133]	Varianti nel gene CPA1 sono associate a Pancreatite ereditaria (Kujko et al. Gut 2017) a trasmissione autosomica dominante.
CRYAB	Unknown	Varianti nel gene CRYAB sono associate a Miopatia miofibrillare ipertonica infantile fatale, correlata alla alpha-B cristallina (OMIM 613869), a trasmissione autosomica dominante e a Cardiomiopatia dilatativa 1II (OMIM 615184) e a Miopatia miofibrillare 2 (OMIM 608810)) a trasmissione autosomica dominante.
CSRP3	Unknown	Varianti nel gene CSRP3 sono associate a Cardiomiopatia dilatativa 1M (OMIM 607482) e a Cardiomiopatia ipertrofica 12 (OMIM 612124) a trasmissione autosomica dominante.
CSTA	Unknown	Varianti nel gene CSTA sono associate a Sindrome da desquamazione cutanea 4 (OMIM 607936) a trasmissione autosomica recessiva.
CTNNA3	Unknown	Varianti nel gene CTNNA3 sono associate a Displasia ventricolare aritmogena familiare 13 (OMIM 615616) a trasmissione autosomica dominante.
CTRC	Unknown	Varianti nel gene CTRC sono associate a Pancreatite cronica (OMIM 167800) a trasmissione autosomica dominante.
CTSC	Unknown	Varianti nel gene CTSC sono associate a Sindrome di Papillon-Lefevre (OMIM 245000) e a Sindrome di Haim-Munk (OMIM 245010) a trasmissione autosomica recessiva.
CYP4F22	Unknown	Varianti nel gene CYP4F22 sono associate a Ittiosi congenita 5 (OMIM 604777) a trasmissione autosomica recessiva.
DES	Unknown	Varianti nel gene DES sono associate a Miopatia miofibrillare 1 (OMIM 601419), a trasmissione autosomica dominante e a Cardiomiopatia dilatativa 1I (OMIM 604765), a trasmissione autosomica dominante.
DGAT1	Unknown	Varianti nel gene DGAT1 sono associate a Diarrea 7 (OMIM 615863) a trasmissione autosomica recessiva.
DKC1	Unknown	Varianti nel gene DKC1 sono associate a Discheratosi congenita (OMIM 305000) a trasmissione X-linked recessiva.
DLX3	Unknown	Varianti nel gene DLX3 sono associate a Sindrome trico-dento-ossea (OMIM 190320) e a Amelogenesi imperfetta di tipo IV (OMIM 104510) a trasmissione autosomica dominante.
DMD	Unknown	Varianti nel gene DMD sono associate a Cardiomiopatia dilatativa 3B (OMIM 302045) a trasmissione X-linked.
DMXL2	Unknown	Varianti nel gene DMXL2 sono associate a Sindrome poliendocrina-polineuropatia (OMIM 616113) a trasmissione autosomica recessiva.
DSC2	Unknown	Varianti nel gene DSC2 sono associate a Displasia ventricolare aritmogena destra 11 con lieve cheratoderma palmoplantare e capelli lanosi (OMIM 610476) a trasmissione autosomica dominante e autosomica recessiva.
DSG1	Unknown	Varianti nel gene DSG1 sono associate a Eritrodermia congenita con cheratoderma palmoplantare, ipotricosi e iper IgE (OMIM 615508), a trasmissione autosomica recessiva e a Cheratosi palmoplantare striata I (OMIM 148700), a trasmissione autosomica recessiva.
DSG2	Unknown	Varianti nel gene DSG2 sono associate a Displasia aritmogena ventricolare destra 10 (OMIM 610193) e a Cardiomiopatia dilatativa 1BB (OMIM 612877) a trasmissione autosomica dominante.
DSP	Unknown	Varianti nel gene DSP sono associate a Cardiomiopatia dilatattiva con capelli lanosi e cheratoderma (OMIM 605676), a Epidermolisi bollola acantolitica letale (OMIM 609638) e a Sindrome da fragilità cutanea e capelli lanosi (OMIM 607655) a trasmissione autosomica recessiva e a Displasia aritmogena ventricolare destra 8 (OMIM 607450), a Cardiomiopatia dilatativa con capelli lanosi, cheratoderma e agenesia dei denti (OMIM 615821) e a Cheratosi palmoplantare striata II (OMIM 612908) a trasmissione autosomica dominante.
DSPP	Unknown	Varianti nel gene DSPP sono associate a Sindrome ipoacusia 39 con dentinogenesi imperfetta (OMIM 605594), a Displasia della dentina, tipo II (OMIM 125420) e a Dentinogenesi imperfetta, tipo III (OMIM 125500) a trasmissione autosomica dominante.
DTNA	Unknown	Varianti nel gene DTNA sono associate a Non compattazione del ventricolo sinistro 1, con o senza difetti del cuore congeniti (OMIM 604169) a trasmissione autosomica dominante.
DTNBP1	Unknown	Varianti nel gene DTNBP1 sono associate a Sindrome di Hermansky-Pudlak 7 (OMIM 614076) a trasmissione autosomica recessiva.
DUOX2	Unknown	Varianti nel gene DUOX2 sono associate a Disormonogenesi tiroidea 6 (OMIM 607200) a trasmissione autosomica recessiva.
DUOXA2	Unknown	Varianti nel gene DUOXA2 sono associate a Disormonogenesi tiroidea 5 (OMIM 274900) a trasmissione autosomica recessiva.
EBP	Unknown	Varianti nel gene EBP sono associate a Sindrome MEND (OMIM 300960), a trasmissione X-linked dominante e a Condrodisplasia puntata (OMIM 302960), a trasmissione X-linked dominante.
EDA	Unknown	Varianti nel gene EDA sono associate a Agenesia dei denti selettiva 1 (OMIM 313500), a trasmissione X-linked recessiva e a Displasia ectodermica ipoidrotica 1 (OMIM 305100), a trasmissione X-linked recessiva.
EDAR	Unknown	Varianti nel gene EDAR sono associate a Displasia ectodermica ipoidrotica/capelli/unghie 10A (OMIM 129490), a trasmissione autosomica dominante e a Displasia ectodermica ipoidrotica/capelli/denti 10B (OMIM 224900), a trasmissione autosomica dominante.
EDARADD	Unknown	Varianti nel gene EDARADD sono associate a Displasia ectodermica ipoidrotica/capelli/denti 11B (OMIM 614941), a trasmissione autosomica recessiva e a Displasia ectodermica ipoidrotica/capelli/denti 11A (OMIM 614940), a trasmissione autosomica recessiva.
EDN3	Unknown	Varianti nel gene EDN3 sono associate a Sindrome congenita da ipoventilazione centrale (OMIM 209880) e a Malattia di Hirschsprung 4, suscettibilità (OMIM 613712) a trasmissione autosomica dominante e a Sindrome di Waardenburg tipo 4B (OMIM 613265), a trasmissione autosomica dominante.
EDNRB	Unknown	Varianti nel gene EDNRB sono associate a Sindrome di Waardenburg tipo 4A (OMIM 277580), a trasmissione autosomica recessiva, a Sindrome ABCD (OMIM 600501), a trasmissione autosomica recessiva e a Malattia di Hirschsprung 2, suscettibilità (OMIM 600155), a trasmissione autosomica recessiva.
ELN	Unknown	Varianti nel gene ELN sono associate a Cutis laxa (OMIM 123700) e a Stenosi sopravalvolare dell'aorta (OMIM 185500) a trasmissione autosomica dominante.
ELOVL4	Unknown	Varianti nel gene ELOVL4 sono associate a Ittiosi con quadriplegia spastica e disabilità intellettiva (OMIM 614457) a trasmissione autosomica recessiva.
ENAM	Unknown	Varianti nel gene ENAM sono associate a Amelogenesi imperfetta di tipo IC (OMIM 204650), a trasmissione autosomica dominante e a Amelogenesi imperfetta di tipo IB (OMIM 104500), a trasmissione autosomica dominante.
ENPP1	Unknown	Varianti nel gene ENPP1 sono associate a Calcificazione arteriosa generalizzata dell'infanzia 1 (OMIM 208000) e a Rachitismo ipofosfatemico 2 (OMIM 613312) a trasmissione autosomica recessiva e a Malattia di Cole (OMIM 615522), a trasmissione autosomica recessiva.
EPCAM	Unknown	Varianti nel gene EPCAM sono associate a Diarrea 5, con enteropatia congenita a ciuffi (OMIM 613217) a trasmissione autosomica recessiva.
ERCC2	Unknown	Varianti nel gene ERCC2 sono associate a Sindrome cerebro-oculo-facio-scheletrica 2 (OMIM 610756) e a Xeroderma pigmentoso gruppo D (OMIM 278730) a trasmissione autosomica recessiva.
ERCC3	Unknown	Varianti nel gene ERCC3 sono associate a Tricotiodistrofia fotosensibile 2 (OMIM 616390) e a Xeroderma pigmentoso gruppo B (OMIM 610651) a trasmissione autosomica recessiva.
EYA4	Unknown	Varianti nel gene EYA4 sono associate a Cardiomiopatia dilatativa 1J (OMIM 605362) a trasmissione autosomica dominante.
FAM20A	Unknown	Varianti nel gene FAM20A sono associate a Amelogenesi imperfetta di tipo IG (OMIM sindrome smalto-renale) (204690) a trasmissione autosomica recessiva.
FAM83H	Unknown	Varianti nel gene FAM83H sono associate a Amelogenesi imperfetta di tipo III (OMIM 130900) a trasmissione autosomica dominante.
FGF23	Unknown	Varianti nel gene FGF23 sono associate a Rachitismo ipofosfatemico (OMIM 193100), a trasmissione autosomica dominante e a Sindrome familiare calcinosi tumorale iperfosfatemica-iperostosi iperfosfatemica (OMIM 211900), a trasmissione autosomica dominante.
FKTN	Unknown	Varianti nel gene FKTN sono associate a Cardiomiopatia dilatativa 1X (OMIM 611615) a trasmissione autosomica recessiva.
FLG	Unknown	Varianti nel gene FLG sono associate a Ittiosi volgare (OMIM 146700) a trasmissione autosomica dominante e autosomica recessiva.
FLNC	Unknown	Varianti nel gene FLNC sono associate a Miopatia distale 4 (OMIM 614065), a Miopatia miofibrillare 5 (OMIM 609524) e a Cardiomiopatia ipertrofica familiare 26 (OMIM 617047) a trasmissione autosomica dominante.
FOXC1	Unknown	Varianti nel gene FOXC1 sono associate a Sindrome di Axenfeld-Rieger (OMIM 602482) a trasmissione autosomica dominante.
FOXE1	Unknown	Varianti nel gene FOXE1 sono associate a Sindrome di Bamforth-Lazarus (OMIM 241850) a trasmissione autosomica recessiva.
FOXI1	Unknown	Varianti nel gene FOXI1 sono associate a Acquedotto vestibolare allargato (OMIM 600791) a trasmissione autosomica recessiva.
FOXP3	Unknown	Varianti nel gene FOXP3 sono associate a Sindrome immunodisregolazione-poliendocrinopatia-enteropatia (OMIM 304790) a trasmissione X-linked recessiva.
GALNT3	Unknown	Varianti nel gene GALNT3 sono associate a Sindrome familiare calcinosi tumorale iperfosfatemica-iperostosi iperfosfatemica (OMIM 211900) a trasmissione autosomica recessiva.
GATA4	Unknown	Varianti nel gene GATA4 sono associate a Difetto del setto atriale 2 (OMIM 607941), a Anomalie testicolari con o senza difetti congeniti del cuore (OMIM 615542), a Difetto del setto atrioventricolare 4 (OMIM 614430) e a Difetto del setto ventricolare 1 (OMIM 614429) a trasmissione autosomica dominante.
GATA5	Unknown	Varianti nel gene GATA5 sono associate a Difetti congenit del cuore, tipi multipli, 5 (OMIM 617912) a trasmissione autosomica dominante e autosomica recessiva.
GATA6	Unknown	Varianti nel gene GATA6 sono associate a Difetto del setto atriale 9 (OMIM 614475), a Difetto del setto atrioventricolare 5 (OMIM 614474), a Agenesia pancreatica e difetti congeniti del cuore (OMIM 600001) e a Tetralogia di Fallot (OMIM 187500) a trasmissione autosomica dominante.
GATAD1	Unknown	Varianti nel gene GATAD1 sono associate a Cardiomiopatia dilatativa 2B (OMIM 614672) a trasmissione autosomica recessiva.
GCK	Unknown	Varianti nel gene GCK sono associate a Diabete mellito neonatale permanente 1 (OMIM 606176), a trasmissione autosomica dominante e a Diabete MODY di tipo II (OMIM 125851), a Diabete mellito non insulino-dipendente a esordio tardivo (OMIM 125853) e a Ipoglicemia iperinsulinemica familiare 3 (OMIM 602485) a trasmissione autosomica dominante.
GDNF	Unknown	Varianti nel gene GDNF sono associate a Malattia di Hirschsprung 3, suscettibilità (OMIM 613711) a trasmissione autosomica dominante.
GJA5	Unknown	Varianti nel gene GJA5 sono associate a Fibrillazione atriale familiare 11 (OMIM 614049) e a Cardiomiopatia atriale con blocco del cuore, digenica (OMIM GJA5/SCN5A) (108770) a trasmissione autosomica dominante.
GJB2	Unknown	Varianti nel gene GJB2 sono associate a Sindrome di Bart-Pumphrey (OMIM 149200), a Ittiosi istrice-simile - sordità  cheratite (OMIM 602540), a Sindrome da cheratite, ittiosi, ipoacusia (OMIM 148210) e a Sindrome di Vohwinkel  (OMIM 124500) a trasmissione autosomica dominante.
GJB3	Unknown	Varianti nel gene GJB3 sono associate a Eritrocheratodermia variabilis et progressiva (OMIM 133200) a trasmissione autosomica dominante e autosomica recessiva.
GJB4	Unknown	Varianti nel gene GJB4 sono associate a Eritrocheratodermia variabilis et progressiva 2 (OMIM 617524) a trasmissione autosomica dominante.
GJB6	Unknown	Varianti nel gene GJB6 sono associate a Displasia ectodermica 2, tipo Clouston (OMIM 129500) a trasmissione autosomica dominante.
GLA	Unknown	Varianti nel gene GLA sono associate a Malattia di Fabry (OMIM 301500) e a Malattia di Fabry, variante cardiaca (OMIM 301500) a trasmissione X-linked.
GNAS	Unknown	Varianti nel gene GNAS sono associate a Eteroplasia ossea progressiva (OMIM 166350), a Pseudoipoparatiroidismo, tipo 1A (OMIM 103580), a Pseudoipoparatiroidismo, tipo 1B (OMIM 603233), a Pseudoipoparatiroidismo, tipo 1C (OMIM 612462) e a Pseudopseudoipoparatiroidismo (OMIM 612463) a trasmissione autosomica dominante e a Iperplasia surrenalica macronodulare indipendente dall'ACTH (OMIM 219080) e a Sindrome di McCune-Albright (OMIM somatica a mosaico) (174800) a trasmissione Somatic.
GPD1	Unknown	Varianti nel gene GPD1 sono associate a Ipertrigliceridemia transitoria infantile (OMIM 614480) a trasmissione autosomica recessiva.
GPD1L	Unknown	Varianti nel gene GPD1L sono associate a Sindrome di Brugada 2 (OMIM 611777) a trasmissione autosomica dominante.
GPIHBP1	Unknown	Varianti nel gene GPIHBP1 sono associate a Iperlipoproteinemia, tipo 1D (OMIM 615947) a trasmissione autosomica recessiva.
GPR68	Unknown	Varianti nel gene GPR68 sono associate a Amelogenesi imperfetta, tipo immaturo IIA6 (OMIM 617217) a trasmissione autosomica recessiva.
GREM2	Unknown	Varianti nel gene GREM2 sono associate a Agenesia dei denti selettiva 9 (OMIM 617275) a trasmissione autosomica dominante.
GTF2H5	Unknown	Varianti nel gene GTF2H5 sono associate a Tricotiodistrofia fotosensibile 3 (OMIM 616395) a trasmissione autosomica recessiva.
GUCY2C	Unknown	Varianti nel gene GUCY2C sono associate a Diarrea 6 (OMIM 614616), a trasmissione autosomica dominante e a Ileo meconiale (OMIM 614665), a trasmissione autosomica dominante.
HAMP	Unknown	Varianti nel gene HAMP sono associate a Emocromatosi tipo 2B (OMIM 613313) a trasmissione autosomica recessiva.
HCN4	Unknown	Varianti nel gene HCN4 sono associate a Sindrome di Brugada 8 (OMIM 613123) e a Sindrome familiare del seno malato 2 (OMIM 163800) a trasmissione autosomica dominante.
HESX1	Unknown	Varianti nel gene HESX1 sono associate a Displasia setto-ottica (OMIM 182230) e a Deficit combinato dell'ormone ipofisario 5 (OMIM 182230) a trasmissione autosomica dominante e autosomica recessiva.
HFE	Unknown	Varianti nel gene HFE sono associate a Emocromatosi (OMIM 235200) a trasmissione autosomica recessiva.
HJV	Unknown	Varianti nel gene HJV sono associate a Emocromatosi tipo 2A (OMIM 602390) a trasmissione autosomica recessiva.
HNF1A	Unknown	Varianti nel gene HNF1A sono associate a Diabete MODY di tipo III (OMIM 600496) e a Diabete mellito insulino-dipendente 20 (OMIM 612520) a trasmissione autosomica dominante.
HNF1B	Unknown	Varianti nel gene HNF1B sono associate a Diabete mellito non insulino-dipendente (OMIM 125853) e a Sindrome con cisti renali e diabete (OMIM 137920) a trasmissione autosomica dominante.
HNF4A	Unknown	Varianti nel gene HNF4A sono associate a Sindrome renotubulare di Fanconi 4, con diabete MODY (OMIM 616026) e a Diabete MODY di tipo I (OMIM 125850) a trasmissione autosomica dominante.
HOXC13	Unknown	Varianti nel gene HOXC13 sono associate a Displasia ectodermica 9, tipo capelli/unghie (OMIM 614931) a trasmissione autosomica recessiva.
HSPA1L	Takahashi S, Andreoletti G, Chen R, Munehira Y, Batra A, Afzal NA, Beattie RM, Bernstein JA, Ennis S, Snyder M.De novo and rare mutations in the HSPA1L heat shock gene associated with inflammatory bowel disease. Genome Med. 2017. [PMID: 28126021]	Varianti nel gene HSPA1L sono associate a Malattia infiammatoria intestinale (Takahashi S et al. Genome Med. 2017) a trasmissione autosomica dominante.
IGSF1	Unknown	Varianti nel gene IGSF1 sono associate a Ipotiroidismo centrale con ingrandimento testicolare (OMIM 300888) a trasmissione X-linked recessiva.
IL10	Kotlarz D, Beier R, Murugan D, Diestelhorst J, Jensen O, Boztug K, Pfeifer D, Kreipe H, Pfister ED, Baumann U, Puchalka J, Bohne J, Egritas O, Dalgic B, Kolho KL, Sauerbrey A, Buderus S, Güngör T, Enninger A, Koda YK, Guariso G, Weiss B, Corbacioglu S, Socha P, Uslu N, Metin A, Wahbeh GT, Husain K, Ramadan D, Al-Herz W, Grimbacher B, Sauer M, Sykora KW, Koletzko S, Klein C. Loss of interleukin-10 signaling and infantile inflammatory bowel disease: implications for diagnosis and therapy. Gastroenterology. 2012 [PMID: 22549091]	Varianti nel gene IL10 sono associate a Malattia infiammatoria intestinale ad esordio precoce (Kotlarz et al. Gastroenterology. 2012) a trasmissione autosomica recessiva.
IL10RA	Unknown	Varianti nel gene IL10RA sono associate a Malattia infiammatoria intestinale ad esordio precoce, 28 (OMIM 613148) a trasmissione autosomica recessiva.
IL10RB	Unknown	Varianti nel gene IL10RB sono associate a Malattia infiammatoria intestinale ad esordio precoce, 25 (OMIM 612567) a trasmissione autosomica recessiva.
IL21	Salzer E, Kansu A, Sic H, Májek P, Ikincio?ullari A, Dogu FE, Prengemann NK, Santos-Valente E, Pickl WF, Bilic I, Ban SA, Kulo?lu Z, Demir AM, Ensari A, Colinge J, Rizzi M, Eibel H, Boztug K. Early-onset inflammatory bowel disease and common variable immunodeficiency-like disease caused by IL-21 deficiency. J Allergy Clin Immunol. 2014 [PMID: 24746753]	Varianti nel gene IL21 sono associate a Malattia infiammatoria intestinale ad esordio precoce (Salzer et al. J Allergy Clin Immunol. 2014) a trasmissione autosomica recessiva.
ILK	Man E, Lafferty KA, Funke BH, Lun KS, Chan SY, Chau AK, Chung BH. NGS identifies TAZ mutation in a family with X-linked dilated cardiomyopathy. BMJ Case Rep. 2013. [PMID: 23345479]	Varianti nel gene ILK sono associate a Cardiomiopatia dilatativa (Man et al. BMJ Case Rep. 2013) a trasmissione autosomica dominante.
INS	Unknown	Varianti nel gene INS sono associate a Diabete mellito insulino-dipendente 2 (OMIM 125852), a Diabete mellito permanenete neonatale (OMIM 606176) e a Diabete MODY di tipo 10 (OMIM 613370) a trasmissione autosomica dominante.
IYD	Unknown	Varianti nel gene IYD sono associate a Disormonogenesi tiroidea 4 (OMIM 274800) a trasmissione autosomica recessiva.
JPH2	Unknown	Varianti nel gene JPH2 sono associate a Cardiomiopatia ipertrofica familiare 17 (OMIM 613873) a trasmissione autosomica dominante.
JUP	Unknown	Varianti nel gene JUP sono associate a Malattia di Naxos (OMIM 601214), a trasmissione autosomica recessiva e a Displasia aritmogena ventricolare destra 12 (OMIM 611528), a trasmissione autosomica recessiva.
KAT6B	Unknown	Varianti nel gene KAT6B sono associate a Sindrome genitorotulea (OMIM 606170) e a Sindrome da ipotiroidismo, dismorfismi, polidattilia postassiale, disabilità intellettiva (OMIM 603736) a trasmissione autosomica dominante.
KCNA5	Unknown	Varianti nel gene KCNA5 sono associate a Fibrillazione atriale familiare 7 (OMIM 612240) a trasmissione autosomica dominante.
KCND3	Unknown	Varianti nel gene KCND3 sono associate a Sindrome di Brugada 9 (OMIM 616399) a trasmissione autosomica dominante.
KCNE1	Unknown	Varianti nel gene KCNE1 sono associate a Sindrome di Jervell e Lange-Nielsen 2 (OMIM 612347), a trasmissione autosomica recessiva e a Sindrome del QT lungo 5 (OMIM 613695), a trasmissione autosomica recessiva.
KCNE2	Unknown	Varianti nel gene KCNE2 sono associate a Fibrillazione atriale familiare 4 (OMIM 611493) e a Sindrome del QT lungo 6 (OMIM 613693) a trasmissione autosomica dominante.
KCNE3	Unknown	Varianti nel gene KCNE3 sono associate a Sindrome di Brugada 6 (OMIM 613119) a trasmissione autosomica dominante.
KCNH1	Unknown	Varianti nel gene KCNH1 sono associate a Sindrome di Temple-Baraitser (OMIM 611816) e a Sindrome di Zimmermann-Laband 1 (OMIM 135500) a trasmissione autosomica dominante.
KCNH2	Unknown	Varianti nel gene KCNH2 sono associate a Sindrome del QT lungo 2 (OMIM 613688) e a Sindrome del QT corto 1 (OMIM 609620) a trasmissione autosomica dominante.
KCNJ10	Unknown	Varianti nel gene KCNJ10 sono associate a Acquedotto vestibolare allargato, anche digenico (OMIM 600791) a trasmissione autosomica recessiva.
KCNJ11	Unknown	Varianti nel gene KCNJ11 sono associate a Diabete mellito transiente neonatale 3 (OMIM 610582), a Diabete permanente neonatale 2, con o senza deficit neurologici (OMIM 618856) e a Diabete MODY di tipo 13 (OMIM 616329) a trasmissione autosomica dominante e a Ipoglicemia iperinsulinemica familiare 2 (OMIM 601820), a trasmissione autosomica recessiva.
KCNJ2	Unknown	Varianti nel gene KCNJ2 sono associate a Sindrome di Andersen (OMIM 170390) e a Sindrome del QT corto 3 (OMIM 609622) a trasmissione autosomica dominante.
KCNJ5	Unknown	Varianti nel gene KCNJ5 sono associate a Sindrome del QT lungo 13 (OMIM 613485) a trasmissione autosomica dominante.
KCNJ8	Unknown	Varianti nel gene KCNJ8 sono associate a Sindrome di Brugada (OMIM ) a trasmissione autosomica dominante.
KCNQ1	Unknown	Varianti nel gene KCNQ1 sono associate a Fibrillazione atriale familiare 3 (OMIM 607554), a Sindrome del QT lungo 1 (OMIM 192500) e a Sindrome del QT corto 2 (OMIM 609621) a trasmissione autosomica dominante e a Sindrome di Jervell e Lange-Nielsen (OMIM 220400), a trasmissione autosomica dominante.
KDF1	Unknown	Varianti nel gene KDF1 sono associate a Displasia ectodermica 12, tipo ipoidrotica/capelli/denti/unghie (OMIM 617337) a trasmissione autosomica dominante.
KL	Unknown	Varianti nel gene KL sono associate a Sindrome familiare calcinosi tumorale iperfosfatemica-iperostosi iperfosfatemica (OMIM 617994) a trasmissione autosomica recessiva.
KLF11	Unknown	Varianti nel gene KLF11 sono associate a Diabete MODY di tipo VII (OMIM 610508) a trasmissione autosomica dominante.
KLK4	Unknown	Varianti nel gene KLK4 sono associate a Amelogenesi imperfetta di tipo IIA1 (OMIM 204700) a trasmissione autosomica recessiva.
KRT1	Unknown	Varianti nel gene KRT1 sono associate a Ipercheratosi epidermolitica (OMIM 113800), a trasmissione Autosomal dominant; Autosomal recessive e a Ittiosi a istrice di Curth-Macklin (OMIM 146590) a trasmissione Autosomal dominant e a Ittiosi ciclica con ipercheratosi epidermolitica (OMIM 607602) a trasmissione Autosomal dominant e a Cheratoderma palmoplantare striato III (OMIM 607654) a trasmissione Autosomal dominant e a Cheratoderma palmoplantare epidermolitico (OMIM 144200) a trasmissione Autosomal dominant e a Cheratoderma palmoplantare non epidermolitico 
(OMIM 600962) a  trasmissione Autosomal dominant.
KRT10	Unknown	Varianti nel gene KRT10 sono associate a Ipercheratosi epidermolitica (OMIM 113800), a trasmissione autosomica dominante e autosomica recessiva e a Ittiosi a confetti (OMIM 609165) e a Ittiosi ciclica con ipercheratosi epidermolitica (OMIM 607602) a trasmissione autosomica dominante.
KRT16	Unknown	Varianti nel gene KRT16 sono associate a Pachionichia congenita 1 (OMIM 167200) e a Cheratoderma palmoplantare non epidermolitico focale (OMIM 613000) a trasmissione autosomica dominante.
KRT17	Unknown	Varianti nel gene KRT17 sono associate a Pachionichia congenita 2 (OMIM 167210) e a Steatocistoma multiplo (OMIM 184500) a trasmissione autosomica dominante.
KRT2	Unknown	Varianti nel gene KRT2 sono associate a Ittiosi bollosa di Siemens (OMIM 146800) a trasmissione autosomica dominante.
KRT6A	Unknown	Varianti nel gene KRT6A sono associate a Pachionichia congenita 3 (OMIM 167200) a trasmissione autosomica dominante.
KRT6B	Unknown	Varianti nel gene KRT6B sono associate a Pachionichia congenita 4 (OMIM 167210) a trasmissione autosomica dominante.
KRT74	Unknown	Varianti nel gene KRT74 sono associate a Ipotricosi 3 (OMIM 613981) e a Capelli lanosi (OMIM 194300) a trasmissione autosomica dominante e a Displasia ectodermica 7, tipo capelli/unghie (OMIM 614929), a trasmissione autosomica recessiva.
KRT85	Unknown	Varianti nel gene KRT85 sono associate a Displasia ectodermica 4, tipo capelli/unghie (OMIM 602032) a trasmissione autosomica recessiva.
KRT9	Unknown	Varianti nel gene KRT9 sono associate a Cheratoderma palmoplantare epidermolitico (OMIM 144200) a trasmissione autosomica dominante.
LAMA4	Unknown	Varianti nel gene LAMA4 sono associate a Cardiomiopatia dilatativa 1JJ (OMIM 615235) a trasmissione autosomica dominante.
LAMB3	Unknown	Varianti nel gene LAMB3 sono associate a Epidermolisi bollola giunzionale, tipo Herlitz (OMIM 226700) e a Epidermolisi bollola giunzionale, tipo non-Herlitz (OMIM 226650) a trasmissione autosomica recessiva e a Amelogenesi imperfetta di tipo IA (OMIM 104530), a trasmissione autosomica dominante.
LAMP2	Unknown	Varianti nel gene LAMP2 sono associate a Malattia di Danon (OMIM 300257) a trasmissione X-linked dominante.
LCT	Unknown	Varianti nel gene LCT sono associate a Deficit congenito di lattasi (OMIM 223000) a trasmissione autosomica recessiva.
LDB3	Unknown	Varianti nel gene LDB3 sono associate a Cardiomiopatia ipertrofica 24 (OMIM 601493), a Miopatia miofibrillare 4 (OMIM 609452) e a Non compattazione del ventricolo sinistro 3 (OMIM 601493) a trasmissione autosomica dominante.
LHX3	Unknown	Varianti nel gene LHX3 sono associate a Deficit combinato dell'ormone ipofisario 3 (OMIM 221750) a trasmissione autosomica recessiva.
LHX4	Unknown	Varianti nel gene LHX4 sono associate a Deficit combinato dell'ormone ipofisario 4 (OMIM 262700) a trasmissione autosomica dominante.
LIPN	Unknown	Varianti nel gene LIPN sono associate a Ittiosi congenita 8 (OMIM 613943) a trasmissione autosomica recessiva.
LMNA	Unknown	Varianti nel gene LMNA sono associate a Cardiomiopatia dilatativa 1A (OMIM 115200) e a Sindrome di Malouf (OMIM 212112) a trasmissione autosomica dominante.
LOX	Unknown	Varianti nel gene LOX sono associate a Aneurisma aortico toracico familiare 10 (OMIM 617168) a trasmissione autosomica dominante.
LRBA	Unknown	Varianti nel gene LRBA sono associate a Immunodeficienza comune variabile 8, con autoimmunita' (OMIM 614700) a trasmissione autosomica recessiva.
LRMDA	Unknown	Varianti nel gene LRMDA sono associate a Albinismo oculocutaneo tipo VII (OMIM 615179) a trasmissione autosomica recessiva.
LRP6	Unknown	Varianti nel gene LRP6 sono associate a Agenesia dei denti selettiva 7 (OMIM 616724) a trasmissione autosomica dominante.
LTBP3	Unknown	Varianti nel gene LTBP3 sono associate a Anomalie dei denti e bassa statura (OMIM 601216) a trasmissione autosomica recessiva.
MBTPS2	Unknown	Varianti nel gene MBTPS2 sono associate a Sindrome Olmsted (OMIM 300918), a Ittiosi follicolare - alopecia  fotofobia (OMIM IFAP) con o senza sindrome BRESHECK (308205) e a Osteogenesi imperfetta, tipo XIX (OMIM 301014) a trasmissione X-linked recessiva.
MIB1	Unknown	Varianti nel gene MIB1 sono associate a Non compattazione del ventricolo sinistro 7 (OMIM 615092) a trasmissione autosomica dominante.
MITF	Unknown	Varianti nel gene MITF sono associate a Sindrome albinismo  ipoacusia di Tietz (OMIM 103500), a Sindrome di Waardenburg tipo 2A (OMIM 193510) e a Sindrome di Waardenburg  albinismo oculare, digenico (OMIM 103470) a trasmissione autosomica dominante e a Sindrome COMMAD (OMIM 617306), a trasmissione autosomica recessiva.
MMP20	Unknown	Varianti nel gene MMP20 sono associate a Amelogenesi imperfetta di tipo IIA2 (OMIM 612529) a trasmissione autosomica recessiva.
MPLKIP	Unknown	Varianti nel gene MPLKIP sono associate a Tricotiodistrofia non fotosensibile 4 (OMIM 234050) a trasmissione autosomica recessiva.
MSX1	Unknown	Varianti nel gene MSX1 sono associate a Displasia ectodermica 3, tipo Witkop (OMIM 189500) e a Agenesia dei denti selettiva 1, con o senza labiopalatoschisi (OMIM 106600) a trasmissione autosomica dominante.
MUTYH	Unknown	Varianti nel gene MUTYH sono associate a Adenomi multipli colorettali (OMIM 608456) a trasmissione autosomica recessiva.
MYBPC3	Unknown	Varianti nel gene MYBPC3 sono associate a Cardiomiopatia dilatativa 1MM (OMIM 615396) e a Non compattazione del ventricolo sinistro 10 (OMIM 615396) a trasmissione autosomica dominante e a Cardiomiopatia ipertrofica 4 (OMIM 115197), a trasmissione autosomica dominante.
MYH6	Unknown	Varianti nel gene MYH6 sono associate a Difetto del setto atriale 3 (OMIM 614089) e a Cardiomiopatia ipertrofica 14 (OMIM 613251) a trasmissione autosomica dominante.
MYH7	Unknown	Varianti nel gene MYH7 sono associate a Miopatia con corpi ialini (OMIM 255160), a trasmissione autosomica dominante e a Cardiomiopatia dilatativa 1S (OMIM 613426), a Cardiomiopatia ipertrofica 1 (OMIM 192600), a Miopatia distale di Liang (OMIM 160500), a Miopatia con corpi ialini (OMIM 608358), a Non compattazione del ventricolo sinistro 5 (OMIM 613426) e a Sindrome scapolo-peroneale di tipo miopatico (OMIM 181430) a trasmissione autosomica dominante.
MYL2	Unknown	Varianti nel gene MYL2 sono associate a Cardiomiopatia ipertrofica 10 (OMIM 608758) a trasmissione autosomica dominante.
MYL3	Unknown	Varianti nel gene MYL3 sono associate a Cardiomiopatia ipertrofica 8 (OMIM 608751) a trasmissione autosomica dominante e autosomica recessiva.
MYL4	Unknown	Varianti nel gene MYL4 sono associate a Fibrillazione atriale familiare 18 (OMIM 613780) a trasmissione autosomica dominante.
MYLK2	Unknown	Varianti nel gene MYLK2 sono associate a Cardiomiopatia ipertrofica 1 (OMIM 192600) a trasmissione autosomica dominante e digenica.
MYO5A	Unknown	Varianti nel gene MYO5A sono associate a Sindrome di Griscelli tipo 1 (OMIM 214450) a trasmissione autosomica recessiva.
MYO5B	Unknown	Varianti nel gene MYO5B sono associate a Malattia da inclusioni microvillari (OMIM 251850) a trasmissione autosomica recessiva.
MYOZ2	Unknown	Varianti nel gene MYOZ2 sono associate a Cardiomiopatia ipertrofica 16 (OMIM 613838) a trasmissione autosomica dominante.
MYPN	Unknown	Varianti nel gene MYPN sono associate a Miopatia nemalinica 11 (OMIM 617336), a trasmissione autosomica dominante e a Cardiomiopatia restrittiva familiare 4 (OMIM 615248), a Cardiomiopatia dilatativa 1KK (OMIM 615248) e a Cardiomiopatia ipertrofica 22 (OMIM 615248) a trasmissione autosomica dominante.
NEUROD1	Unknown	Varianti nel gene NEUROD1 sono associate a Diabete mellito non insulino-dipendente (OMIM 125853) e a Diabete MODY di tipo 6 (OMIM 606394) a trasmissione autosomica dominante.
NEUROG3	Unknown	Varianti nel gene NEUROG3 sono associate a Diarrea congenita da malassorbimento 4 (OMIM 610370) a trasmissione autosomica recessiva.
NEXN	Unknown	Varianti nel gene NEXN sono associate a Cardiomiopatia dilatativa 1CC (OMIM 613122) e a Cardiomiopatia ipertrofica 20 (OMIM 613876) a trasmissione autosomica dominante.
NF1	Unknown	Varianti nel gene NF1 sono associate a Neurofibromatosi  sindrome di Noonan (OMIM 601321), a Neurofibromatosi spinale familiare (OMIM 162210) e a Sindrome di Watson (OMIM 193520) a trasmissione autosomica dominante.
NF2	Unknown	Varianti nel gene NF2 sono associate a Neurofibromatosi di tipo 2 (OMIM 10100), a trasmissione autosomica dominante e a Schwannomatosi (OMIM 162091), a trasmissione autosomica dominante.
NFKBIA	Unknown	Varianti nel gene NFKBIA sono associate a Displasia ectodermica anidrotica con immunodeficienza delle cellule T (OMIM 612132) a trasmissione autosomica dominante.
NHP2	Unknown	Varianti nel gene NHP2 sono associate a Discheratosi congenita 2 (OMIM 613987) a trasmissione autosomica recessiva.
NHS	Unknown	Varianti nel gene NHS sono associate a Sindrome di Nabce-Horan (OMIM 302350) a trasmissione X-linked dominante.
NIPAL4	Unknown	Varianti nel gene NIPAL4 sono associate a Ittiosi congenita 6 (OMIM 612281) a trasmissione autosomica recessiva.
NKX2-1	Unknown	Varianti nel gene NKX2-1 sono associate a Coreatetosi, ipotiroidismo e distress respiratorio neonatale (OMIM 610978) a trasmissione autosomica dominante.
NKX2-5	Unknown	Varianti nel gene NKX2-5 sono associate a Cardiopatie troncoconali variabili (OMIM 217095), a trasmissione autosomica dominante e a Difetto del setto atriale 7, con o senza difetti della conduzione (OMIM 607941), a Ipoplasia del cuore sinistro 2 (OMIM 614435), a Ipotiroidismo congenito 5, con assenza di gozzo (OMIM 225250), a Tetralogia di Fallot (OMIM 187500) e a Difetto del setto ventricolare 3 (OMIM 614432) a trasmissione autosomica dominante.
NOP10	Unknown	Varianti nel gene NOP10 sono associate a Discheratosi congenita 1 (OMIM 224230) a trasmissione autosomica recessiva.
NPPA	Unknown	Varianti nel gene NPPA sono associate a Fibrillazione atriale familiare 6 (OMIM 612201), a trasmissione autosomica dominante e a Cardiomiopatia atriale con blocco del cuore 2 (OMIM 615745), a trasmissione autosomica dominante.
NRG1	Gunadi, Budi NYP, Sethi R, Fauzi AR, Kalim AS, Indrawan T, Iskandar K, Makhmudi A, Adrianto I, San LP. NRG1 variant effects in patients with Hirschsprung disease. BMC Pediatr. 2018. [PMID: 30180823]	Varianti nel gene NRG1 sono associate a Malattia di Hirschsprung (Gunadi et al. BMC Pediatr. 2018) a trasmissione autosomica dominante.
NRTN	Luzón-Toro B, Espino-Paisán L, Fernández RM, Martín-Sánchez M, Antiñolo G, Borrego S. Next-generation-based targeted sequencing as an efficient tool for the study of the genetic background in Hirschsprung patients. BMC Med Genet. 2015. [PMID: 26437850]	Varianti nel gene NRTN sono associate a Malattia di Hirschsprung (Luzon-Toro et al. BMC Med Genet. 2015) a trasmissione autosomica dominante.
NSDHL	Unknown	Varianti nel gene NSDHL sono associate a Sindrome CHILD (OMIM 308050) a trasmissione X-linked dominante.
NTHL1	Unknown	Varianti nel gene NTHL1 sono associate a Poliposi adenomatosa familiare 3 (OMIM 616415) a trasmissione autosomica recessiva.
NUP155	Unknown	Varianti nel gene NUP155 sono associate a Fibrillazione atriale 15 (OMIM 615770) a trasmissione autosomica recessiva.
OCA2	Unknown	Varianti nel gene OCA2 sono associate a Albinismo oculocutaneo tipo II (OMIM 203200) a trasmissione autosomica recessiva.
OTUD1	Lu D, Song J, Sun Y, Qi F, Liu L, Jin Y, McNutt MA, Yin Y. Mutations of deubiquitinase OTUD1 are associated with autoimmune disorders. J Autoimmun. 2018 [PMID: 30100102]	Varianti nel gene OTUD1 sono associate a Colite ulcerosa (Lu et al. J Autoimmun. 2018) a trasmissione Unknown.
PAX3	Unknown	Varianti nel gene PAX3 sono associate a Sindrome di Waardenburg tipo 3 (OMIM 148820), a trasmissione autosomica dominante e a Sindrome di Waardenburg tipo 1 (OMIM 193500), a trasmissione autosomica dominante.
PAX4	Unknown	Varianti nel gene PAX4 sono associate a Diabete mellito di tipo 2 (OMIM 125853) e a Diabete MODY di tipo IX (OMIM 612225) a trasmissione autosomica dominante.
PAX8	Unknown	Varianti nel gene PAX8 sono associate a Ipotiroidismo congenito da ipoplasia o disgenesi della tiroide (OMIM 218700) a trasmissione autosomica dominante.
PAX9	Unknown	Varianti nel gene PAX9 sono associate a Agenesia dei denti selettiva 3 (OMIM 604625) a trasmissione autosomica dominante.
PDX1	Unknown	Varianti nel gene PDX1 sono associate a Agenesia pancreatica 1 (OMIM 260370), a trasmissione autosomica dominante e a Diabete mellito di tipo II, suscettibilità (OMIM 125853) e a Diabete MODY di tipo IV (OMIM 606392) a trasmissione autosomica dominante.
PHEX	Unknown	Varianti nel gene PHEX sono associate a Rachitismo ipofosfatemico (OMIM 307800) a trasmissione X-linked dominante.
PITX2	Unknown	Varianti nel gene PITX2 sono associate a Sindrome di Axenfeld-Rieger di tipo 1 (OMIM 180500), a trasmissione autosomica dominante e a Fibrillazione atriale familiare (OMIM Chinchilla et al. Circ Cardiovasc Genet. 2011), a trasmissione autosomica dominante.
PITX2	Chinchilla A, Daimi H, Lozano-Velasco E, Dominguez JN, Caballero R, Delpón E, Tamargo J, Cinca J, Hove-Madsen L, Aranega AE, Franco D. PITX2 insufficiency leads to atrial electrical and structural remodeling linked to arrhythmogenesis. Circ Cardiovasc Genet. 2011. [PMID: 21511879]	Varianti nel gene PITX2 sono associate a Sindrome di Axenfeld-Rieger di tipo 1 (OMIM 180500), a trasmissione autosomica dominante e a Fibrillazione atriale familiare (Chinchilla et al. Circ Cardiovasc Genet. 2011), a trasmissione autosomica dominante.
PKP1	Unknown	Varianti nel gene PKP1 sono associate a Displasia ectodermica -  sindrome della pelle fragile (OMIM 604536) a trasmissione autosomica recessiva.
PKP2	Unknown	Varianti nel gene PKP2 sono associate a Displasia aritmogena ventricolare destra 9 (OMIM 609040) a trasmissione autosomica dominante.
PLEKHM2	Muhammad E, Levitas A, Singh SR, Braiman A, Ofir R, Etzion S, Sheffield VC, Etzion Y, Carrier L, Parvari R. PLEKHM2 mutation leads to abnormal localization of lysosomes, impaired autophagy flux and associates with recessive dilated cardiomyopathy and left ventricular noncompaction. Hum Mol Genet. 2015. [PMID: 26464484]	Varianti nel gene PLEKHM2 sono associate a Cardiomiopatia dilatativa con non compattazione del ventricolo sinistro (Muhammad E et al. Hum Mol Genet. 2015) a trasmissione autosomica recessiva.
PLN	Unknown	Varianti nel gene PLN sono associate a Cardiomiopatia dilatativa 1P (OMIM 609909) e a Cardiomiopatia ipertrofica 18 (OMIM 613874) a trasmissione autosomica dominante.
PLVAP	Unknown	Varianti nel gene PLVAP sono associate a Diarrea cronica congenita associata ad enteropatia con perdita di proteine (OMIM 618183) a trasmissione autosomica recessiva.
PNPLA1	Unknown	Varianti nel gene PNPLA1 sono associate a Ittiosi congenita 10 (OMIM 615024) a trasmissione autosomica recessiva.
POMP	Unknown	Varianti nel gene POMP sono associate a Cheratosi lineare, ittiosi congenita, cheratoderma sclerosante (OMIM 601952), a trasmissione autosomica recessiva e a Sindrome autoinfiammatoria proteasoma-correlata 2 (OMIM 618048), a trasmissione autosomica recessiva.
POU1F1	Unknown	Varianti nel gene POU1F1 sono associate a Deficit combinato dell'ormone ipofisario 1 (OMIM 613038) a trasmissione autosomica dominante e autosomica recessiva.
PRDM16	Unknown	Varianti nel gene PRDM16 sono associate a Non compattazione del ventricolo sinistro 8 (OMIM 615373) e a Cardiomiopatia dilatativa 1LL (OMIM 615373) a trasmissione autosomica dominante.
PRKAG2	Unknown	Varianti nel gene PRKAG2 sono associate a Cardiomiopatia ipertrofica 6 (OMIM 600858) e a Sindrome di Wolff-Parkinson-White (OMIM 194200) a trasmissione autosomica dominante.
PRKAR1A	Unknown	Varianti nel gene PRKAR1A sono associate a Complesso di Carney di tipo 1 (OMIM 160980) a trasmissione autosomica dominante.
PROP1	Unknown	Varianti nel gene PROP1 sono associate a Deficit combinato dell'ormone ipofisario 2 (OMIM 262600) a trasmissione autosomica recessiva.
PRSS1	Unknown	Varianti nel gene PRSS1 sono associate a Pancreatite ereditaria (OMIM 167800) a trasmissione autosomica dominante.
PSEN1	Unknown	Varianti nel gene PSEN1 sono associate a Cardiomiopatia dilatativa 1U (OMIM 613694) a trasmissione autosomica dominante.
PSEN2	Unknown	Varianti nel gene PSEN2 sono associate a Cardiomiopatia dilatativa 1V (OMIM 613697) a trasmissione autosomica dominante.
PTPN11	Unknown	Varianti nel gene PTPN11 sono associate a Sindrome LEOPARD 1 (OMIM 151100) e a Sindrome di Noonan 1 (OMIM 163950) a trasmissione autosomica dominante.
PTRH2	Unknown	Varianti nel gene PTRH2 sono associate a Malattia pancreatica-endocrina-neurologica, multisistemica infantile (OMIM 616263) a trasmissione autosomica recessiva.
RAB27A	Unknown	Varianti nel gene RAB27A sono associate a Sindrome di Griscelli tipo 2 (OMIM 607624) a trasmissione autosomica recessiva.
RAF1	Unknown	Varianti nel gene RAF1 sono associate a Cardiomiopatia dilatativa 1NN (OMIM 615916)) e a Sindrome di Noonan 5 (OMIM 611553) a trasmissione autosomica dominante.
RBM20	Unknown	Varianti nel gene RBM20 sono associate a Cardiomiopatia dilatativa 1DD (OMIM 613172) a trasmissione autosomica dominante.
RHBDF2	Unknown	Varianti nel gene RHBDF2 sono associate a Sindrome cheratoderma palmoplantare-carcinoma esofageo (OMIM 148500) a trasmissione autosomica dominante.
RYR2	Unknown	Varianti nel gene RYR2 sono associate a Displasia aritmogena ventricolare destra 2 (OMIM 600996) e a Tachicardia ventricolare polimorfa catecolaminergica 1 (OMIM 604772) a trasmissione autosomica dominante.
SCN10A	Unknown	Varianti nel gene SCN10A sono associate a Sindrome di Brugada (OMIM Brugada et al. GeneReviews) a trasmissione autosomica dominante.
SCN1B	Unknown	Varianti nel gene SCN1B sono associate a Fibrillazione atriale familiare 13 (OMIM 615377) e a Difetti non specifici della conduzione cardiaca (OMIM 612838) a trasmissione autosomica dominante.
SCN2B	Unknown	Varianti nel gene SCN2B sono associate a Fibrillazione atriale familiare 14 (OMIM 615378) a trasmissione autosomica dominante.
SCN3B	Unknown	Varianti nel gene SCN3B sono associate a Sindrome di Brugada 7 (OMIM 613120) e a Fibrillazione atriale familiare 16 (OMIM 613120) a trasmissione autosomica dominante.
SCN4B	Unknown	Varianti nel gene SCN4B sono associate a Sindrome del QT lungo 10 (OMIM 611819) e a Fibrillazione atriale familiare 17 (OMIM 611819) a trasmissione autosomica dominante.
SCN5A	Unknown	Varianti nel gene SCN5A sono associate a Sindrome da morte improvvisa inspiegabile, suscettibilità (OMIM 272120) e a Sindrome familiare del seno malato 1 (OMIM 608567) a trasmissione autosomica recessiva e a Sindrome del QT lungo 3 (OMIM 603830), a Fibrillazione atriale familiare 10 (OMIM 614022), a Sindrome di Brugada 1 (OMIM 601144), a Cardiomiopatia dilatativa 1E (OMIM 601154), a Difetto non progressivo della conduzione cardiaca (OMIM 113900), a Difetto progressivo della conduzione cardiaca, tipo IA (OMIM 113900) e a Fibrillazione ventricolare familiare 1 (OMIM 603829) a trasmissione autosomica dominante.
SDHA	Unknown	Varianti nel gene SDHA sono associate a Cardiomiopatia dilatativa 1GG (OMIM 613642) e a Deficit isolato del complesso II della catena respiratoria mitocondriale (OMIM 252011) a trasmissione autosomica recessiva, a Paraganglioma 5 (OMIM 614165) e a Sindrome di Leigh (OMIM 256000), a trasmissione autosomica recessiva e mitocondriale.
SECISBP2	Unknown	Varianti nel gene SECISBP2 sono associate a Deficit del metabolismo dell'ormone tiroideo (OMIM 609698) a trasmissione autosomica recessiva.
SERPINA1	Unknown	Varianti nel gene SERPINA1 sono associate a Enfisema da deficit di alfa-1-antitripsina (OMIM 613490) e a Malattia emorragica da mutazione di alfa-1 antitripsina Pittsburgh (OMIM 613490) a trasmissione autosomica recessiva.
SERPINB7	Unknown	Varianti nel gene SERPINB7 sono associate a Cheratoderma palmoplantare tipo Nagashima (OMIM 615598) a trasmissione autosomica recessiva.
SGCD	Unknown	Varianti nel gene SGCD sono associate a Cardiomiopatia dilatativa 1L (OMIM 606685) a trasmissione autosomica dominante.
SHOX2	Hoffmann S, Clauss S, Berger IM, Weiß B, Montalbano A, Röth R, Bucher M, Klier I, Wakili R, Seitz H, Schulze-Bahr E, Katus HA, Flachsbart F, Nebel A, Guenther SP, Bagaev E, Rottbauer W, Kääb S, Just S, Rappold GA. Coding and non-coding variants in the SHOX2 gene in patients with early-onset atrial fibrillation. Basic Res Cardiol. 2016 [PMID: 27138930]	Varianti nel gene SHOX2 sono associate a Fibrillazione atriale (Hoffmann et al. Basic Res Cardiol. 2016) a trasmissione autosomica dominante.
SKIV2L	Unknown	Varianti nel gene SKIV2L sono associate a Sindrome tricoepatoenterica 2 (OMIM 614602) a trasmissione autosomica recessiva.
SLC16A2	Unknown	Varianti nel gene SLC16A2 sono associate a Sindrome di Allan-Herndon-Dudley (OMIM 300523) a trasmissione X-linked.
SLC25A4	Unknown	Varianti nel gene SLC25A4 sono associate a Sindrome da deplezione del DNA mitocondriale 12B (OMIM tipo cardiomiopatico) (615418), a trasmissione autosomica dominante e a Oftalmoplegia esterna progressiva con delezioni del DNA mitocondriale (OMIM 609283) e a Sindrome da deplezione del DNA mitocondriale 12A (OMIM tipo cardiomiopatico) (617184) a trasmissione autosomica dominante.
SLC26A3	Unknown	Varianti nel gene SLC26A3 sono associate a Diarrea congenita da cloruri (OMIM 214700) a trasmissione autosomica recessiva.
SLC26A4	Unknown	Varianti nel gene SLC26A4 sono associate a Sindrome di Pendred (OMIM 274600) a trasmissione autosomica recessiva, autosomica dominante e digenic.
SLC27A4	Unknown	Varianti nel gene SLC27A4 sono associate a Sindrome ittiosi-prematurità (OMIM 608649) a trasmissione autosomica recessiva.
SLC40A1	Unknown	Varianti nel gene SLC40A1 sono associate a Emocromatosi di tipo 4 (OMIM 606069) a trasmissione autosomica dominante.
SLC45A2	Unknown	Varianti nel gene SLC45A2 sono associate a Albinismo oculocutaneo tipo IV (OMIM 606574) a trasmissione autosomica recessiva.
SLC51B	Sultan M, Rao A, Elpeleg O, Vaz FM, Abu-Libdeh B, Karpen SJ, Dawson PA. Organic solute transporter-? (SLC51B) deficiency in two brothers with congenital diarrhea and features of cholestasis. Hepatology. 2018 [PMID: 28898457]	Varianti nel gene SLC51B sono associate a Diarrea e colestasi (Sultan et al. Hepatology. 2018) a trasmissione autosomica recessiva.
SLC5A1	Unknown	Varianti nel gene SLC5A1 sono associate a Malassorbimento di glucosio-galattosio (OMIM 606824) a trasmissione autosomica recessiva.
SLC5A5	Unknown	Varianti nel gene SLC5A5 sono associate a Disormonogenesi tiroidea 1 (OMIM 274400) a trasmissione autosomica recessiva.
SLC9A3	Unknown	Varianti nel gene SLC9A3 sono associate a Diarrea congenita con malassorbimento del sodio 8 (OMIM 616868) a trasmissione autosomica recessiva.
SLCO1B1	Unknown	Varianti nel gene SLCO1B1 sono associate a Iperbilirubinemia tipo Rotor (OMIM 237450) a trasmissione digenica recessiva.
SLCO1B3	Unknown	Varianti nel gene SLCO1B3 sono associate a Iperbilirubinemia tipo Rotor (OMIM 237450) a trasmissione digenica recessiva.
SLMAP	(Brugada R, Campuzano O, Sarquella-Brugada G, et al. Brugada Syndrome. 2005 Mar 31 [Updated 2016 Nov 17]. In: Adam MP, Ardinger HH, Pagon RA, et al., editors. GeneReviewsÂ® [Internet]. Seattle (WA): University of Washington, Seattle; 1993-2020)	Varianti nel gene SLMAP sono associate a Sindrome di Brugada (Brugada et al. GeneReviews) a trasmissione autosomica dominante.
SLURP1	Unknown	Varianti nel gene SLURP1 sono associate a Malattia di Meleda (OMIM 248300) a trasmissione autosomica recessiva.
SMARCAD1	Unknown	Varianti nel gene SMARCAD1 sono associate a Adermatoglifia (OMIM 136000) e a Sindrome di Huriez (OMIM 181600) a trasmissione autosomica dominante.
SNAI2	Unknown	Varianti nel gene SNAI2 sono associate a Sindrome di Waardenburg tipo 2D (OMIM 608890), a trasmissione autosomica dominante e a Piebaldismo (OMIM 172800), a trasmissione autosomica dominante.
SNAP29	Unknown	Varianti nel gene SNAP29 sono associate a Sindrome disgenesia cerebrale-neuropatia-ittiosi-cheratoderma palmoplantare (OMIM 609528) a trasmissione autosomica recessiva.
SNTA1	Unknown	Varianti nel gene SNTA1 sono associate a Sindrome del QT lungo 12 (OMIM 612955) a trasmissione autosomica dominante.
SOS1	Unknown	Varianti nel gene SOS1 sono associate a Fibromatosi gengivale 1 (OMIM 135300) e a Sindrome di Noonan 4 (OMIM 610733) a trasmissione autosomica dominante.
SOX10	Unknown	Varianti nel gene SOX10 sono associate a Sindrome PCWH (OMIM 609136) e a Sindrome di Waardenburg tipo 4C (OMIM 613266) a trasmissione autosomica dominante.
SOX6	Unknown	Varianti nel gene SOX6 sono associate a Non compattazione del ventricolo sinistro (OMIM Taglietti V et al. Cell Rep. 2016), a trasmissione autosomica dominante e a Sindrome di Tolchin-Le Caignec (OMIM 618971), a trasmissione autosomica dominante.
SOX6	Taglietti V, Maroli G, Cermenati S, Monteverde S, Ferrante A, Rossi G, Cossu G, Beltrame M, Messina G. Nfix Induces a Switch in Sox6 Transcriptional Activity to Regulate MyHC-I Expression in Fetal Muscle. Cell Rep. 2016 [PMID: 27880909]	Varianti nel gene SOX6 sono associate a Non compattazione del ventricolo sinistro (Taglietti V et al. Cell Rep. 2016), a trasmissione autosomica dominante e a Sindrome di Tolchin-Le Caignec (OMIM 618971), a trasmissione autosomica dominante.
SPINK1	Unknown	Varianti nel gene SPINK1 sono associate a Pancreatite ereditaria (OMIM 167800), a trasmissione autosomica dominante e autosomica recessiva e a Diabete pancreatico fibrocalcoloso, suscettibilità (OMIM 608189) e a Pancreatite calcificante tropicale (OMIM 608189) a trasmissione autosomica dominante e autosomica recessiva.
SPINK5	Unknown	Varianti nel gene SPINK5 sono associate a Sindrome di Netherton (OMIM 256500) a trasmissione autosomica recessiva.
SPINT2	Unknown	Varianti nel gene SPINT2 sono associate a Diarrea sodica congenita sindromica (OMIM 270420) a trasmissione autosomica recessiva.
SPRED1	Unknown	Varianti nel gene SPRED1 sono associate a Sindrome di Legius (OMIM 611431) a trasmissione autosomica dominante.
ST14	Unknown	Varianti nel gene ST14 sono associate a Ittiosi congenita 11 (OMIM 602400) a trasmissione autosomica recessiva.
STS	Unknown	Varianti nel gene STS sono associate a Ittiosi (OMIM 308100) a trasmissione X-linked recessiva.
STX3	Julia J, Shui V, Mittal N, Heim-Hall J, Blanco CL. Microvillus inclusion disease, a diagnosis to consider when abnormal stools and neurological impairments run together due to a rare syntaxin 3 gene mutation. J Neonatal Perinatal Med. 2019. [PMID: 30909251]	Varianti nel gene STX3 sono associate a Malattia da inclusioni microvillari (Julia J et al. J Neonatal Perinatal Med. 2019) a trasmissione autosomica recessiva.
SUMF1	Unknown	Varianti nel gene SUMF1 sono associate a Deficit multiplo di solfatasi (OMIM 272200) a trasmissione autosomica recessiva.
TAT	Unknown	Varianti nel gene TAT sono associate a Tirosinemia di tipo II (OMIM 276600) a trasmissione autosomica recessiva.
TBX5	Unknown	Varianti nel gene TBX5 sono associate a Sindrome di Holt-Oram (OMIM 142900) a trasmissione autosomica dominante.
TCAP	Unknown	Varianti nel gene TCAP sono associate a Cardiomiopatia ipertrofica 25 (OMIM 607487) a trasmissione autosomica dominante.
TECRL	Unknown	Varianti nel gene TECRL sono associate a Tachicardia ventricolare polimorfa catecolaminergica 3 (OMIM 614021) a trasmissione autosomica recessiva.
TERC	Unknown	Varianti nel gene TERC sono associate a Discheratosi congenita 1 (OMIM 127550) a trasmissione autosomica dominante.
TERT	Unknown	Varianti nel gene TERT sono associate a Discheratosi congenita 4 (OMIM 613989), a trasmissione autosomica recessiva e a Discheratosi congenita 2 (OMIM 613989), a trasmissione autosomica recessiva.
TFR2	Unknown	Varianti nel gene TFR2 sono associate a Emocromatosi di tipo 3 (OMIM 604250) a trasmissione autosomica recessiva.
TG	Unknown	Varianti nel gene TG sono associate a Disormonogenesi tiroidea 3 (OMIM 274700) a trasmissione autosomica recessiva.
TGFB3	Unknown	Varianti nel gene TGFB3 sono associate a Displasia aritmogena ventricolare destra 1 (OMIM 107970) a trasmissione autosomica dominante.
TGM1	Unknown	Varianti nel gene TGM1 sono associate a Ittiosi congenita 1 (OMIM 242300) a trasmissione autosomica recessiva.
TGM5	Unknown	Varianti nel gene TGM5 sono associate a Sindrome da desquamazione cutanea 2 (OMIM 609796) a trasmissione autosomica recessiva.
THRA	Unknown	Varianti nel gene THRA sono associate a Ipotiroidismo congenito 6 (OMIM 614450) a trasmissione autosomica dominante.
THRB	Unknown	Varianti nel gene THRB sono associate a Resistenza all'ormone tiroideo (OMIM 188570) e a Resistenza all'ormone tiroideo, selettivo ipofisario (OMIM 145650) a trasmissione autosomica dominante e a Resistenza all'ormone tiroideo (OMIM 274300), a trasmissione autosomica dominante.
TINF2	Unknown	Varianti nel gene TINF2 sono associate a Discheratosi congenita 3 (OMIM 613990) e a Sindrome di Revesz (OMIM 268130) a trasmissione autosomica dominante.
TLL1	Unknown	Varianti nel gene TLL1 sono associate a Difetto del setto atriale 6 (OMIM 613087) a trasmissione autosomica dominante.
TMEM43	Unknown	Varianti nel gene TMEM43 sono associate a Displasia aritmogena ventricolare destra 5 (OMIM 604400) a trasmissione autosomica dominante.
TMPO	Hershberger RE, Jordan E. Dilated Cardiomyopathy Overview. 2007 Jul 27 [updated 2021 Jul 29]. In: Adam MP, Ardinger HH, Pagon RA, Wallace SE, Bean LJH, Gripp KW, Mirzaa GM, Amemiya A, editors. GeneReviews® [Internet]. Seattle (WA): University of Washington, Seattle; 19932022. [PMID: 20301486]	Varianti nel gene TMPO sono associate a Cardiomiopatia dilatativa (Hershberger e Jordan, GeneReviews) a trasmissione autosomica dominante.
TNNC1	Unknown	Varianti nel gene TNNC1 sono associate a Cardiomiopatia dilatativa 1Z (OMIM 611879) e a Cardiomiopatia ipertrofica 13 (OMIM 613243) a trasmissione autosomica dominante.
TNNI3	Unknown	Varianti nel gene TNNI3 sono associate a Cardiomiopatia dilatativa 1FF (OMIM 613286), a Cardiomiopatia restrittiva familiare 1 (OMIM 115210) e a Cardiomiopatia ipertrofica 7 (OMIM 613690) a trasmissione autosomica dominante e a Cardiomiopatia dilatativa 2A (OMIM 611880), a trasmissione autosomica recessiva.
TNNT2	Unknown	Varianti nel gene TNNT2 sono associate a Cardiomiopatia dilatativa 1D (OMIM 601494), a Cardiomiopatia restrittiva familiare 3 (OMIM 612422) e a Non compattazione del ventricolo sinistro 6 (OMIM 601494) a trasmissione autosomica dominante.
TPM1	Unknown	Varianti nel gene TPM1 sono associate a Cardiomiopatia dilatativa 1Y (OMIM 611878) e a Non compattazione del ventricolo sinistro 9 (OMIM 611878) a trasmissione autosomica dominante.
TPO	Unknown	Varianti nel gene TPO sono associate a Disormonogenesi tiroidea 2A (OMIM 274500) a trasmissione autosomica recessiva.
TRDN	Unknown	Varianti nel gene TRDN sono associate a Tachicardia ventricolare polimorfa catecolaminergica 5, con o senza debolezza muscolare (OMIM 615441) a trasmissione autosomica recessiva.
TRHR	Unknown	Varianti nel gene TRHR sono associate a Ipotiroidismo congenito 7, con assenza di gozzo (OMIM 618573) a trasmissione autosomica recessiva.
TRPM4	Unknown	Varianti nel gene TRPM4 sono associate a Difetto progressivo familiare della conduzione cardiaca, tipo IB (OMIM 604559) a trasmissione autosomica dominante.
TSHB	Unknown	Varianti nel gene TSHB sono associate a Ipotiroidismo congenito 4, con assenza di gozzo (OMIM 275100) a trasmissione autosomica recessiva.
TSHR	Unknown	Varianti nel gene TSHR sono associate a Ipotiroidismo congenito 1, con assenza di gozzo (OMIM 275200), a trasmissione autosomica dominante e a Ipertiroidismo gestazionale familiare (OMIM 603373) e a Ipertiroidismo non autoimmune (OMIM 609152) a trasmissione autosomica dominante.
TSPEAR	Unknown	Varianti nel gene TSPEAR sono associate a Displasia ectodermica 14, tipo capelli/denti con o senza ipoidrosi (OMIM 618180) a trasmissione autosomica recessiva.
TTC37	Unknown	Varianti nel gene TTC37 sono associate a Sindrome tricoepatoenterica 1 (OMIM 222470) a trasmissione autosomica recessiva.
TTC7A	Unknown	Varianti nel gene TTC7A sono associate a Sindrome immunodeficienza combinata-enteropatia (OMIM 243150) a trasmissione autosomica recessiva.
TTN	Unknown	Varianti nel gene TTN sono associate a Cardiomiopatia dilatativa 1G (OMIM 604145) e a Cardiomiopatia ipertrofica familiare 9 (OMIM 613765) a trasmissione autosomica dominante.
TYR	Unknown	Varianti nel gene TYR sono associate a Albinismo oculocutaneo tipo IA (OMIM 203100) e a Albinismo oculocutaneo tipo IB (OMIM 606952) a trasmissione autosomica recessiva.
TYRP1	Unknown	Varianti nel gene TYRP1 sono associate a Albinismo oculocutaneo tipo III (OMIM 203290) a trasmissione autosomica recessiva.
UBR1	Unknown	Varianti nel gene UBR1 sono associate a Sindrome du Johanson-Blizzard (OMIM 243800) a trasmissione autosomica recessiva.
UGT1A1	Unknown	Varianti nel gene UGT1A1 sono associate a Sindrome di Crigler-Najjar tipo I (OMIM 218800), a Sindrome di Crigler-Najjar tipo II (OMIM 606785) e a Sindrome di Gilbert (OMIM 143500) a trasmissione autosomica recessiva.
VCL	Unknown	Varianti nel gene VCL sono associate a Cardiomiopatia dilatativa 1W (OMIM 611407) e a Cardiomiopatia ipertrofica 15 (OMIM 613255) a trasmissione autosomica dominante.
WNT10A	Unknown	Varianti nel gene WNT10A sono associate a Displasia odonto-onico-dermica (OMIM 257980) e a Sindrome di Schöpf-Schulz-Passarge (OMIM 224750) a trasmissione autosomica recessiva e a Agenesia dei denti selettiva 4 (OMIM 150400), a trasmissione autosomica recessiva.
WNT2B	Unknown	Varianti nel gene WNT2B sono associate a Diarrea 9 (OMIM 618168) a trasmissione autosomica recessiva.
WRAP53	Unknown	Varianti nel gene WRAP53 sono associate a Discheratosi congenita 3 (OMIM 613988) a trasmissione autosomica recessiva.
XIAP	Worthey EA, Mayer AN, Syverson GD, Helbling D, Bonacci BB, Decker B, Serpe JM, Dasu T, Tschannen MR, Veith RL, Basehore MJ, Broeckel U, Tomita-Mitchell A, Arca MJ, Casper JT, Margolis DA, Bick DP, Hessner MJ, Routes JM, Verbsky JW, Jacob HJ, Dimmock DP. Making a definitive diagnosis: successful clinical application of whole exome sequencing in a child with intractable inflammatory bowel disease. Genet Med. 2011 [PMID: 21173700].	Varianti nel gene XIAP sono associate a Malattia infiammatoria intestinale (Worthey EA et al. Genet Med. 2011) a trasmissione X-linked recessiva.
